20

6 24
1
h 4 8 w
319 33

12 8
13
h 10 1 w
t 1 3 n
t 1 4 n
h 8 0 n
r 9 0 n
t 6 4 n
r 0 3 s
r 11 3 w
h 4 3 s
t 9 4 w
r 2 2 e
r 3 0 w
t 0 3 s
1343 197

2 25
10
f 1 15 e
h 0 11 s
f 0 12 n
f 1 2 w
h 0 14 n
f 1 23 n
h 0 10 e
h 0 11 w
t 1 0 e
f 0 11 s
804 53

5 3
5
r 0 1 n
f 2 0 n
t 2 0 e
r 0 0 e
h 4 0 n
1452 181

17 22
12
r 7 19 s
h 16 18 e
f 7 16 w
f 8 0 s
t 0 13 s
t 9 17 s
f 3 11 n
t 13 0 s
r 2 2 w
f 8 6 n
r 10 17 e
t 3 5 n
841 199

21 7
4
f 15 5 s
r 4 5 e
f 0 6 w
r 1 5 w
847 146

8 18
17
f 6 17 n
h 4 1 w
t 7 5 s
f 3 9 s
t 2 6 e
t 2 7 e
h 6 5 n
r 4 6 e
f 3 2 w
t 0 2 s
r 3 7 w
f 6 3 w
t 4 3 s
t 4 16 s
h 2 10 w
h 3 6 n
r 7 13 n
1091 94

7 20
18
r 6 9 n
r 5 6 n
r 3 6 w
t 6 6 w
r 1 17 w
t 6 12 e
t 1 17 n
f 4 1 n
t 4 0 s
f 0 8 w
r 4 17 e
r 1 0 s
f 6 0 s
f 5 5 w
t 5 18 w
f 4 1 s
t 4 8 e
h 4 7 e
1380 14

19 23
4
r 7 0 n
r 2 12 e
t 6 18 s
h 9 10 n
453 33

9 1
1
f 2 0 s
1059 85

24 14
16
t 21 3 w
h 4 6 w
r 15 11 e
r 1 1 w
r 21 3 s
r 7 6 n
r 10 13 w
t 9 9 w
r 13 9 n
t 4 5 n
f 3 8 s
f 0 1 n
r 0 7 w
t 15 7 w
t 10 5 e
t 4 8 w
495 107

10 16
8
f 4 14 e
f 8 3 e
f 2 1 e
r 8 4 w
r 5 7 e
h 1 12 w
t 7 7 n
f 7 9 w
1513 106

3 7
14
f 1 6 e
r 0 1 n
f 1 3 s
h 1 2 n
h 2 2 w
h 2 5 w
h 0 6 s
r 0 6 n
f 2 6 s
f 1 2 e
t 0 6 e
h 2 1 e
r 0 3 s
r 0 1 s
779 140

5 17
17
r 0 14 n
t 0 3 n
t 0 3 s
f 2 14 w
r 4 12 s
h 2 16 w
t 0 14 s
h 2 14 s
r 3 1 s
f 4 15 w
t 2 15 e
h 3 13 n
r 0 6 w
r 2 10 e
r 3 7 w
f 3 1 s
r 2 13 w
730 145

24 23
6
r 3 2 w
h 13 12 n
f 16 1 e
t 8 4 e
r 22 14 n
r 15 8 e
799 137

4 18
5
f 1 5 n
f 1 12 n
h 0 0 w
t 2 14 w
h 3 17 e
761 127

19 18
18
h 16 14 n
r 0 4 s
f 12 1 s
t 15 1 n
f 18 11 n
r 9 4 s
t 0 5 w
f 3 8 s
h 9 0 e
h 10 9 e
f 0 2 n
h 13 11 e
h 9 13 n
r 3 0 e
r 7 4 e
f 17 6 w
f 9 8 e
f 9 16 e
1477 178

13 13
19
t 12 4 w
f 7 1 w
t 11 4 s
t 6 2 s
f 9 8 s
r 4 8 e
f 2 12 s
f 3 2 w
t 5 3 e
r 6 11 w
h 3 0 s
r 4 0 n
t 7 11 n
f 10 2 w
t 10 7 n
r 7 6 w
t 9 7 s
t 11 1 e
h 6 7 s
1052 128

22 4
18
t 17 2 n
t 9 1 w
t 20 0 e
h 8 3 s
r 16 3 w
t 5 0 e
h 9 3 e
h 2 2 s
r 6 3 s
t 7 0 s
f 20 3 e
f 17 1 e
f 17 0 e
f 7 1 e
f 6 3 s
f 4 2 e
h 10 0 e
r 11 2 e
521 42

2 14
10
r 1 4 n
t 0 6 s
f 1 8 w
t 1 9 w
t 0 6 s
f 0 0 s
r 1 5 e
t 1 6 n
h 0 3 s
h 1 5 w
1392 87
