20

26 32
11
t 1 31 s
f 1 13 s
t 0 27 w
r 22 2 n
f 7 8 w
h 16 26 s
t 23 31 e
r 14 18 e
t 23 24 w
r 1 29 e
t 4 9 s
9 5

20 46
10
t 0 2 e
r 10 18 e
h 5 2 w
f 5 34 e
h 17 38 w
r 5 2 w
r 4 19 s
t 8 34 s
f 4 41 w
r 19 20 n
11 2

38 44
10
r 4 31 w
r 20 18 w
h 3 18 e
f 16 12 e
f 20 33 e
h 2 31 n
h 21 25 e
t 29 35 e
t 15 16 e
h 30 17 s
8 5

28 36
11
f 25 3 w
r 24 16 w
f 9 24 w
r 5 2 w
h 7 11 n
f 0 1 s
h 20 26 n
f 10 23 n
t 7 35 e
t 0 4 w
h 20 23 w
9 3

36 50
11
h 3 43 s
f 3 11 n
h 20 4 w
t 17 38 s
f 16 18 n
f 33 17 e
f 20 43 s
t 26 49 n
h 28 40 e
t 2 36 e
r 6 14 e
12 5

28 36
11
r 16 23 w
r 8 4 s
t 18 33 e
h 2 34 e
f 24 16 s
r 25 32 n
r 2 32 e
r 16 0 n
f 15 15 s
f 15 33 w
h 22 25 s
5 5

38 22
11
f 19 3 e
f 28 17 s
r 28 0 s
f 24 12 n
t 19 14 w
r 31 12 n
f 11 17 n
r 30 11 s
h 17 16 e
t 3 9 e
f 29 19 n
12 3

36 34
10
f 22 0 n
r 5 6 e
r 20 14 n
f 26 3 e
r 7 24 s
r 5 2 s
f 2 5 e
t 28 32 w
r 28 17 e
h 8 28 w
5 4

38 28
11
h 37 23 n
h 15 26 s
t 28 6 s
r 18 25 s
f 14 9 n
f 18 22 n
f 29 24 w
h 15 4 s
r 23 14 n
h 30 26 n
h 35 18 w
8 5

34 46
10
r 1 0 n
t 6 35 e
f 6 4 e
f 12 30 w
r 14 6 s
r 19 37 w
t 6 24 w
f 29 23 s
t 5 31 s
t 2 41 w
9 3

38 28
11
h 27 27 e
f 12 19 e
h 3 20 n
t 11 12 e
r 10 0 e
h 32 12 e
r 28 13 w
h 11 13 s
h 4 3 e
r 12 26 n
h 14 8 e
13 2

32 20
10
r 18 16 n
r 25 6 s
t 10 11 n
t 1 17 w
f 30 14 w
f 26 12 w
r 25 9 s
t 25 0 e
t 0 18 s
r 20 16 e
11 2

38 54
11
t 3 18 e
t 31 50 e
h 15 13 w
r 15 4 w
h 12 19 s
r 7 30 s
h 3 19 e
r 22 43 e
t 13 7 s
r 37 49 w
r 30 44 n
6 3

30 22
11
r 11 1 w
t 1 11 n
r 20 10 e
h 16 14 s
t 9 4 n
r 10 20 e
r 12 4 w
h 25 10 n
f 3 15 w
h 4 7 w
t 10 4 n
13 3

26 38
10
t 3 26 w
t 21 0 e
f 15 32 e
r 22 2 e
r 5 26 s
h 24 13 w
r 24 1 w
h 20 9 n
t 12 10 s
h 6 7 e
6 3

26 46
10
h 13 12 s
h 18 37 w
r 20 28 n
t 5 35 e
h 1 20 w
h 10 14 w
h 0 13 w
h 2 5 s
t 9 26 e
h 18 40 w
5 4

22 24
10
f 11 9 s
f 4 11 s
f 11 8 s
r 19 11 s
r 5 2 w
r 15 20 s
t 10 4 s
t 4 6 n
r 3 14 s
t 7 16 w
9 2

24 48
11
h 17 21 w
t 8 45 s
h 7 13 e
t 15 24 s
h 0 12 n
r 10 15 n
r 11 12 w
h 23 26 s
f 16 37 w
f 10 29 e
h 10 42 e
11 5

34 26
11
t 16 2 e
t 30 13 s
r 28 21 e
h 32 23 e
t 24 3 s
h 11 5 n
h 16 16 n
t 17 6 s
h 0 17 e
f 3 23 s
h 9 20 s
12 3

34 44
10
h 10 15 n
r 11 5 s
h 10 34 w
r 12 16 n
f 1 40 w
h 6 12 n
r 21 25 n
r 27 42 w
f 1 31 s
h 29 16 s
8 4
