*** Darwin 10x10 ***
Turn = 0.
  0123456789
0 ..........
1 .h........
2 ..r.......
3 ..........
4 ..........
5 .....t....
6 ..........
7 ..........
8 ..........
9 ..........

Turn = 2.
  0123456789
0 ..........
1 ...h......
2 ..........
3 ..........
4 ..r.......
5 .....t....
6 ..........
7 ..........
8 ..........
9 ..........

Turn = 4.
  0123456789
0 ..........
1 .....h....
2 ..........
3 ..........
4 ..........
5 .....t....
6 ..r.......
7 ..........
8 ..........
9 ..........

Turn = 6.
  0123456789
0 ..........
1 .......h..
2 ..........
3 ..........
4 ..........
5 .....t....
6 ..........
7 ..........
8 ..r.......
9 ..........

Turn = 8.
  0123456789
0 ..........
1 .........h
2 ..........
3 ..........
4 ..........
5 .....t....
6 ..........
7 ..........
8 ..........
9 ..r.......

Turn = 10.
  0123456789
0 ..........
1 .........h
2 ..........
3 ..........
4 ..........
5 .....t....
6 ..........
7 ..........
8 ..........
9 r.........

*** Darwin 12x15 ***
Turn = 0.
  012345678901234
0 f..............
1 ...............
2 ...............
3 ...............
4 ...............
5 .....r.........
6 ......r........
7 ...............
8 ........t......
9 ...............
0 ...............
1 ..............h

Turn = 5.
  012345678901234
0 f....r.........
1 ...............
2 ...............
3 ...............
4 ...............
5 ...............
6 ...............
7 ...............
8 ........t......
9 ...............
0 ...............
1 ......r..h.....

Turn = 10.
  012345678901234
0 f........r.....
1 ...............
2 ...............
3 ...............
4 ...............
5 ...............
6 ...............
7 ...............
8 ........t......
9 ........r......
0 ...............
1 .......r.......

Turn = 15.
  012345678901234
0 f.............r
1 ...............
2 ...............
3 ...............
4 ...............
5 ...............
6 ...............
7 ...............
8 .....r.........
9 .....r.........
0 ...............
1 ..r............

Turn = 20.
  012345678901234
0 f..............
1 ...............
2 ..............r
3 ...............
4 ...............
5 ...............
6 ...............
7 ...............
8 r..............
9 r..............
0 ...............
1 r..............

*** Darwin 15x15 ***
Turn = 0.
  012345678901234
0 h..............
1 ...............
2 ..t............
3 ...t...........
4 ...............
5 ...............
6 ......r........
7 .......f.......
8 ........r......
9 ...............
0 ..........f....
1 ...............
2 ...............
3 ...............
4 ..............h

Turn = 3.
  012345678901234
0 ...............
1 ...............
2 ..t............
3 h..t...........
4 ...............
5 ...............
6 .........r.....
7 .......f.......
8 .....r.........
9 ...............
0 ..........f....
1 ..............h
2 ...............
3 ...............
4 ...............

Turn = 6.
  012345678901234
0 ...............
1 ...............
2 ..t............
3 ...t...........
4 ...............
5 ...............
6 h...........r..
7 .......f.......
8 ..r...........h
9 ...............
0 ..........f....
1 ...............
2 ...............
3 ...............
4 ...............

Turn = 9.
  012345678901234
0 ...............
1 ...............
2 ..t............
3 ...t...........
4 ...............
5 ...............
6 ..............r
7 .......f......h
8 r..............
9 r..............
0 ..........f....
1 ...............
2 ...............
3 ...............
4 ...............

Turn = 12.
  012345678901234
0 ...............
1 ...............
2 ..t............
3 ...t...........
4 ...............
5 ...............
6 r............r.
7 .......f....r..
8 ...............
9 ...............
0 ..........f....
1 ...............
2 r..............
3 ...............
4 ...............

Turn = 15.
  012345678901234
0 ...............
1 ...............
2 ..t............
3 r..t...........
4 ...............
5 ...............
6 ..........r....
7 .......f.r.....
8 ...............
9 ...............
0 ..........f....
1 ...............
2 ...............
3 ...............
4 r..............

*** Darwin 18x18 ***
Turn = 0.
  012345678901234567
0 ..................
1 .t................
2 ..h...............
3 ..................
4 ....f.............
5 .....r............
6 ..................
7 ..................
8 ........f.........
9 .........r........
0 ..................
1 ...........h......
2 ..................
3 .............t....
4 ..................
5 ..................
6 ................h.
7 .................t

Turn = 2.
  012345678901234567
0 ..................
1 .t................
2 h.................
3 ..................
4 ....f.............
5 ..................
6 ..................
7 .....r...r........
8 ........f.........
9 ..................
0 ..................
1 .........h........
2 ..................
3 .............t....
4 ..................
5 ..................
6 ..............h...
7 .................t

Turn = 4.
  012345678901234567
0 ..................
1 .t................
2 h.................
3 ..................
4 ....f.............
5 .........r........
6 ..................
7 ..................
8 ........f.........
9 .....r............
0 ..................
1 .......h..........
2 ..................
3 .............t....
4 ..................
5 ..................
6 ............h.....
7 .................t

Turn = 6.
  012345678901234567
0 ..................
1 .t................
2 h.................
3 .........r........
4 ....f.............
5 ..................
6 ..................
7 ..................
8 ........f.........
9 ..................
0 ..................
1 .....rh...........
2 ..................
3 .............t....
4 ..................
5 ..................
6 ..........h.......
7 .................t

Turn = 8.
  012345678901234567
0 ..................
1 .t.......r........
2 h.................
3 ..................
4 ....f.............
5 ..................
6 ..................
7 ..................
8 ........f.........
9 ..................
0 ..................
1 ....h.............
2 ..................
3 .....r.......t....
4 ..................
5 ..................
6 ........h.........
7 .................t

Turn = 10.
  012345678901234567
0 .........r........
1 .t................
2 h.................
3 ..................
4 ....f.............
5 ..................
6 ..................
7 ..................
8 ........f.........
9 ..................
0 ..................
1 ..h...............
2 ..................
3 .............t....
4 ..................
5 .....r............
6 ......h...........
7 .................t

Turn = 12.
  012345678901234567
0 ...........r......
1 .t................
2 h.................
3 ..................
4 ....f.............
5 ..................
6 ..................
7 ..................
8 ........f.........
9 ..................
0 ..................
1 h.................
2 ..................
3 .............t....
4 ..................
5 ..................
6 .....h............
7 .....r...........t

Turn = 14.
  012345678901234567
0 .............r....
1 .t................
2 h.................
3 ..................
4 ....f.............
5 ..................
6 ..................
7 ..................
8 ........f.........
9 ..................
0 ..................
1 h.................
2 ..................
3 .............t....
4 ..................
5 ..................
6 ...h..............
7 ......r..........t

Turn = 16.
  012345678901234567
0 ...............r..
1 .t................
2 h.................
3 ..................
4 ....f.............
5 ..................
6 ..................
7 ..................
8 ........f.........
9 ..................
0 ..................
1 h.................
2 ..................
3 .............t....
4 ..................
5 ..................
6 .h................
7 ........r........t

Turn = 18.
  012345678901234567
0 .................r
1 .t................
2 h.................
3 ..................
4 ....f.............
5 ..................
6 ..................
7 ..................
8 ........f.........
9 ..................
0 ..................
1 h.................
2 ..................
3 .............t....
4 ..................
5 ..................
6 h.................
7 ..........r......t

Turn = 20.
  012345678901234567
0 ..................
1 .t...............r
2 h.................
3 ..................
4 ....f.............
5 ..................
6 ..................
7 ..................
8 ........f.........
9 ..................
0 ..................
1 h.................
2 ..................
3 .............t....
4 ..................
5 ..................
6 h.................
7 ............r....t

Turn = 22.
  012345678901234567
0 ..................
1 .t................
2 h.................
3 .................r
4 ....f.............
5 ..................
6 ..................
7 ..................
8 ........f.........
9 ..................
0 ..................
1 h.................
2 ..................
3 .............t....
4 ..................
5 ..................
6 h.................
7 ..............r..t

Turn = 24.
  012345678901234567
0 ..................
1 .t................
2 h.................
3 ..................
4 ....f.............
5 .................r
6 ..................
7 ..................
8 ........f.........
9 ..................
0 ..................
1 h.................
2 ..................
3 .............t....
4 ..................
5 ..................
6 h.................
7 ................rt

*** Darwin 20x20 ***
Turn = 0.
  01234567890123456789
0 ...................r
1 ....................
2 ....................
3 ....................
4 ....................
5 .....f..............
6 ....................
7 ....................
8 ....................
9 ....................
0 ..........t.........
1 ....................
2 ....................
3 ....................
4 ....................
5 ....................
6 ....................
7 ....................
8 ....................
9 h...................

Turn = 10.
  01234567890123456789
0 ....................
1 ....................
2 ....................
3 ....................
4 ....................
5 .....f..............
6 ....................
7 ....................
8 ....................
9 ...................r
0 ..........t.........
1 ....................
2 ....................
3 ....................
4 ....................
5 ....................
6 ....................
7 ....................
8 ....................
9 h...................

Turn = 20.
  01234567890123456789
0 ....................
1 ....................
2 ....................
3 ....................
4 ....................
5 .....f..............
6 ....................
7 ....................
8 ....................
9 ....................
0 ..........t.........
1 ....................
2 ....................
3 ....................
4 ....................
5 ....................
6 ....................
7 ....................
8 ....................
9 h..................r

Turn = 30.
  01234567890123456789
0 ....................
1 ....................
2 ....................
3 ....................
4 ....................
5 .....f..............
6 ....................
7 ....................
8 ....................
9 ....................
0 ..........t.........
1 ....................
2 ....................
3 ....................
4 ....................
5 ....................
6 ....................
7 ....................
8 ....................
9 h...........r.......

*** Darwin 11x11 ***
Turn = 0.
  01234567890
0 ..........r
1 .t.........
2 ...........
3 ...........
4 ...........
5 .....h.....
6 ...........
7 ...........
8 ...........
9 ...........
0 f..........

Turn = 1.
  01234567890
0 ...........
1 .t........r
2 ...........
3 ...........
4 ...........
5 ......h....
6 ...........
7 ...........
8 ...........
9 ...........
0 f..........

Turn = 2.
  01234567890
0 ...........
1 .t.........
2 ..........r
3 ...........
4 ...........
5 .......h...
6 ...........
7 ...........
8 ...........
9 ...........
0 f..........

Turn = 3.
  01234567890
0 ...........
1 .t.........
2 ...........
3 ..........r
4 ...........
5 ........h..
6 ...........
7 ...........
8 ...........
9 ...........
0 f..........

Turn = 4.
  01234567890
0 ...........
1 .t.........
2 ...........
3 ...........
4 ..........r
5 .........h.
6 ...........
7 ...........
8 ...........
9 ...........
0 f..........

Turn = 5.
  01234567890
0 ...........
1 .t.........
2 ...........
3 ...........
4 ...........
5 .........hr
6 ...........
7 ...........
8 ...........
9 ...........
0 f..........

Turn = 6.
  01234567890
0 ...........
1 .t.........
2 ...........
3 ...........
4 ...........
5 .........h.
6 ..........r
7 ...........
8 ...........
9 ...........
0 f..........

Turn = 7.
  01234567890
0 ...........
1 .t.........
2 ...........
3 ...........
4 ...........
5 ..........h
6 ...........
7 ..........r
8 ...........
9 ...........
0 f..........

*** Darwin 13x13 ***
Turn = 0.
  0123456789012
0 f............
1 .............
2 .............
3 ...r.........
4 .............
5 .............
6 ......h......
7 .............
8 .............
9 .........h...
0 .............
1 .............
2 ............t

Turn = 3.
  0123456789012
0 f..r.........
1 .............
2 .............
3 .............
4 .............
5 .............
6 ...h.........
7 .............
8 .............
9 .............
0 .............
1 .............
2 .........h..t

Turn = 6.
  0123456789012
0 f....r.......
1 .............
2 .............
3 .............
4 .............
5 .............
6 h............
7 .............
8 .............
9 .............
0 .............
1 .............
2 .........h..t

Turn = 9.
  0123456789012
0 f.......r....
1 .............
2 .............
3 .............
4 .............
5 .............
6 h............
7 .............
8 .............
9 .............
0 .............
1 .............
2 .........h..t

Turn = 12.
  0123456789012
0 f..........r.
1 .............
2 .............
3 .............
4 .............
5 .............
6 h............
7 .............
8 .............
9 .............
0 .............
1 .............
2 .........h..t

*** Darwin 14x14 ***
Turn = 0.
  01234567890123
0 t.............
1 ..............
2 ..f...........
3 ..............
4 ....h.........
5 ..............
6 ..............
7 .......h......
8 ..............
9 ..............
0 ..........r...
1 ..............
2 ..............
3 .............r

Turn = 2.
  01234567890123
0 t.............
1 ..............
2 ..f...........
3 ..............
4 ......h.......
5 ..............
6 ..............
7 ..............
8 ..............
9 .......h......
0 ........r.....
1 ..............
2 ..............
3 ...........r..

Turn = 4.
  01234567890123
0 t.............
1 ..............
2 ..f...........
3 ..............
4 ........h.....
5 ..............
6 ..............
7 ..............
8 ..............
9 ..............
0 .......r......
1 .......r......
2 ..............
3 .........r....

Turn = 6.
  01234567890123
0 t.............
1 ..............
2 ..f...........
3 ..............
4 ..........h...
5 ..............
6 ..............
7 ..............
8 ..............
9 ..............
0 .....r........
1 ..............
2 ..............
3 .......rr.....

Turn = 8.
  01234567890123
0 t.............
1 ..............
2 ..f...........
3 ..............
4 ............h.
5 ..............
6 ..............
7 ..............
8 ..............
9 ..............
0 ...r..........
1 ........r.....
2 ..............
3 ........r.....

*** Darwin 16x16 ***
Turn = 0.
  0123456789012345
0 ................
1 .f..............
2 ................
3 ...t............
4 ....r...........
5 .....r..........
6 ................
7 ................
8 ........t.......
9 ................
0 ................
1 ................
2 ............h...
3 ................
4 ................
5 ...............h

Turn = 4.
  0123456789012345
0 ................
1 .f..............
2 ................
3 ...t............
4 r...............
5 .r..............
6 ................
7 ................
8 ........t...h...
9 ................
0 ................
1 ...............h
2 ................
3 ................
4 ................
5 ................

Turn = 8.
  0123456789012345
0 ................
1 rf..............
2 ................
3 ...t............
4 ............h...
5 ................
6 ................
7 r..............h
8 ........t.......
9 ................
0 ................
1 ................
2 ................
3 ................
4 ................
5 ................

Turn = 12.
  0123456789012345
0 ..r.........h...
1 .f..............
2 ................
3 ...t...........h
4 ................
5 ................
6 ................
7 ................
8 ........t.......
9 ................
0 ................
1 r...............
2 ................
3 ................
4 ................
5 ................

Turn = 16.
  0123456789012345
0 ......r.....h..h
1 .f..............
2 ................
3 ...t............
4 ................
5 ................
6 ................
7 ................
8 ........t.......
9 ................
0 ................
1 ................
2 ................
3 ................
4 ................
5 r...............

*** Darwin 17x17 ***
Turn = 0.
  01234567890123456
0 r................
1 .................
2 .................
3 .................
4 .................
5 .................
6 .................
7 .................
8 ........h........
9 .................
0 .................
1 .................
2 .................
3 .................
4 .................
5 .................
6 ................t

Turn = 5.
  01234567890123456
0 .................
1 .................
2 .................
3 .................
4 .................
5 r................
6 .................
7 .................
8 .............h...
9 .................
0 .................
1 .................
2 .................
3 .................
4 .................
5 .................
6 ................t

*** Darwin 19x19 ***
Turn = 0.
  0123456789012345678
0 ..................h
1 ...................
2 ...................
3 ...................
4 ...................
5 ...................
6 ...................
7 ...................
8 ...................
9 .........f.........
0 ..........t........
1 ...................
2 ...................
3 ...................
4 ...................
5 ...................
6 ...................
7 ...................
8 r..................

Turn = 10.
  0123456789012345678
0 ..................h
1 ...................
2 ...................
3 ...................
4 ...................
5 ...................
6 ...................
7 ...................
8 ...................
9 .........f.........
0 ..........t........
1 ...................
2 ...................
3 ...................
4 ...................
5 ...................
6 ...................
7 ...................
8 ..........r........

Turn = 20.
  0123456789012345678
0 ..................h
1 ...................
2 ...................
3 ...................
4 ...................
5 ...................
6 ...................
7 ...................
8 ...................
9 .........f.........
0 ..........t........
1 ...................
2 ...................
3 ...................
4 ...................
5 ...................
6 ...................
7 ...................
8 ..................r

*** Darwin 21x21 ***
Turn = 0.
  012345678901234567890
0 .....................
1 .....................
2 .....................
3 ...r.................
4 .....................
5 .....t...............
6 .....................
7 .....................
8 .....................
9 .....................
0 ..........h..........
1 .....................
2 .....................
3 .....................
4 .....................
5 ...............f.....
6 .....................
7 .....................
8 .....................
9 .....................
0 ....................r

Turn = 6.
  012345678901234567890
0 .....................
1 r....................
2 .....................
3 .....................
4 ..........h..........
5 .....t...............
6 .....................
7 .....................
8 .....................
9 .....................
0 .....................
1 .....................
2 .....................
3 .....................
4 .....................
5 ...............f.....
6 .....................
7 .....................
8 .....................
9 .....................
0 ..............r......

Turn = 12.
  012345678901234567890
0 ..r.......h..........
1 .....................
2 .....................
3 .....................
4 .....................
5 .....t...............
6 .....................
7 .....................
8 .....................
9 .....................
0 .....................
1 .....................
2 .....................
3 .....................
4 .....................
5 ...............f.....
6 .....................
7 .....................
8 .....................
9 .....................
0 ........r............

Turn = 18.
  012345678901234567890
0 ........r.h..........
1 .....................
2 .....................
3 .....................
4 .....................
5 .....t...............
6 .....................
7 .....................
8 .....................
9 .....................
0 .....................
1 .....................
2 .....................
3 .....................
4 .....................
5 ...............f.....
6 .....................
7 .....................
8 .....................
9 .....................
0 ..r..................

Turn = 24.
  012345678901234567890
0 ..............r......
1 .....................
2 .....................
3 .........r...........
4 .....................
5 .....t...............
6 .....................
7 .....................
8 .....................
9 .....................
0 .....................
1 .....................
2 .....................
3 .....................
4 .....................
5 ...............f.....
6 .....................
7 .....................
8 .....................
9 .....................
0 ..r..................

Turn = 30.
  012345678901234567890
0 ....................r
1 .....................
2 .....................
3 .....................
4 .....................
5 .....t...............
6 .....................
7 .....................
8 .....................
9 .........r...........
0 .....................
1 .....................
2 .....................
3 .....................
4 .....................
5 ...............f.....
6 .....................
7 .....................
8 .....................
9 .....................
0 ........r............

*** Darwin 22x22 ***
Turn = 0.
  0123456789012345678901
0 f.....................
1 ......................
2 ......................
3 ......................
4 ......................
5 ......................
6 ......r...............
7 .......f..............
8 ......................
9 ......................
0 ......................
1 ...........t..........
2 ......................
3 ......................
4 ......................
5 ......................
6 ................h.....
7 ......................
8 ......................
9 ......................
0 ......................
1 .....................h

Turn = 5.
  0123456789012345678901
0 f.....................
1 ......................
2 ......................
3 ......................
4 ......................
5 ......................
6 .r....................
7 .......f..............
8 ......................
9 ......................
0 ......................
1 ...........t..........
2 ......................
3 ......................
4 ......................
5 ......................
6 .....................h
7 .....................h
8 ......................
9 ......................
0 ......................
1 ......................

Turn = 10.
  0123456789012345678901
0 f.....................
1 ......................
2 ......................
3 r.....................
4 ......................
5 ......................
6 ......................
7 .......f..............
8 ......................
9 ......................
0 ......................
1 ...........t..........
2 ......................
3 ......................
4 ......................
5 ......................
6 .....................h
7 .....................h
8 ......................
9 ......................
0 ......................
1 ......................

Turn = 15.
  0123456789012345678901
0 r.....................
1 .r....................
2 ......................
3 ......................
4 ......................
5 ......................
6 ......................
7 .......f..............
8 ......................
9 ......................
0 ......................
1 ...........t..........
2 ......................
3 ......................
4 ......................
5 ......................
6 .....................h
7 .....................h
8 ......................
9 ......................
0 ......................
1 ......................

Turn = 20.
  0123456789012345678901
0 ....r.................
1 ......r...............
2 ......................
3 ......................
4 ......................
5 ......................
6 ......................
7 .......f..............
8 ......................
9 ......................
0 ......................
1 ...........t..........
2 ......................
3 ......................
4 ......................
5 ......................
6 .....................h
7 .....................h
8 ......................
9 ......................
0 ......................
1 ......................

Turn = 25.
  0123456789012345678901
0 .........r............
1 ...........r..........
2 ......................
3 ......................
4 ......................
5 ......................
6 ......................
7 .......f..............
8 ......................
9 ......................
0 ......................
1 ...........t..........
2 ......................
3 ......................
4 ......................
5 ......................
6 .....................h
7 .....................h
8 ......................
9 ......................
0 ......................
1 ......................

*** Darwin 23x23 ***
Turn = 0.
  01234567890123456789012
0 .......................
1 .r.....................
2 .......................
3 .......................
4 .......................
5 .......................
6 .......................
7 .......................
8 .......................
9 .......................
0 .......................
1 ...........h...........
2 ............f..........
3 .......................
4 .......................
5 .......................
6 .......................
7 .......................
8 .......................
9 .......................
0 .......................
1 .......................
2 ......................t

Turn = 4.
  01234567890123456789012
0 ...r...................
1 .......................
2 .......................
3 .......................
4 .......................
5 .......................
6 .......................
7 .......................
8 .......................
9 .......................
0 .......................
1 ...............h.......
2 ............f..........
3 .......................
4 .......................
5 .......................
6 .......................
7 .......................
8 .......................
9 .......................
0 .......................
1 .......................
2 ......................t

Turn = 8.
  01234567890123456789012
0 .......r...............
1 .......................
2 .......................
3 .......................
4 .......................
5 .......................
6 .......................
7 .......................
8 .......................
9 .......................
0 .......................
1 ...................h...
2 ............f..........
3 .......................
4 .......................
5 .......................
6 .......................
7 .......................
8 .......................
9 .......................
0 .......................
1 .......................
2 ......................t

*** Darwin 24x24 ***
Turn = 0.
  012345678901234567890123
0 h.......................
1 ........................
2 ........................
3 ........................
4 ........................
5 .....r..................
6 ......t.................
7 ........................
8 ........................
9 ........................
0 ........................
1 ........................
2 ............r...........
3 .............t..........
4 ........................
5 ........................
6 ........................
7 ........................
8 ..................h.....
9 ........................
0 ........................
1 ........................
2 ........................
3 .......................f

Turn = 2.
  012345678901234567890123
0 ........................
1 ........................
2 h.......................
3 ........................
4 ........................
5 ........................
6 ......t.................
7 .....r..................
8 ........................
9 ........................
0 ........................
1 ........................
2 ..........r.............
3 .............t..........
4 ........................
5 ........................
6 ..................h.....
7 ........................
8 ........................
9 ........................
0 ........................
1 ........................
2 ........................
3 .......................f

Turn = 4.
  012345678901234567890123
0 ........................
1 ........................
2 ........................
3 ........................
4 h.......................
5 ........................
6 ......t.................
7 ........................
8 ........................
9 .....r..................
0 ........................
1 ........................
2 ........r...............
3 .............t..........
4 ..................h.....
5 ........................
6 ........................
7 ........................
8 ........................
9 ........................
0 ........................
1 ........................
2 ........................
3 .......................f

Turn = 6.
  012345678901234567890123
0 ........................
1 ........................
2 ........................
3 ........................
4 ........................
5 ........................
6 h.....t.................
7 ........................
8 ........................
9 ........................
0 ........................
1 .....r..................
2 ......r...........h.....
3 .............t..........
4 ........................
5 ........................
6 ........................
7 ........................
8 ........................
9 ........................
0 ........................
1 ........................
2 ........................
3 .......................f

Turn = 8.
  012345678901234567890123
0 ........................
1 ........................
2 ........................
3 ........................
4 ........................
5 ........................
6 ......t.................
7 ........................
8 h.......................
9 ........................
0 ..................h.....
1 ......r.................
2 ........................
3 .....r.......t..........
4 ........................
5 ........................
6 ........................
7 ........................
8 ........................
9 ........................
0 ........................
1 ........................
2 ........................
3 .......................f

Turn = 10.
  012345678901234567890123
0 ........................
1 ........................
2 ........................
3 ........................
4 ........................
5 ........................
6 ......t.................
7 ........................
8 ..................h.....
9 ......r.................
0 h.......................
1 ........................
2 ........................
3 .............t..........
4 ........................
5 .....r..................
6 ........................
7 ........................
8 ........................
9 ........................
0 ........................
1 ........................
2 ........................
3 .......................f

*** Darwin 25x25 ***
Turn = 0.
  0123456789012345678901234
0 .........................
1 .f.......................
2 ..h......................
3 .........................
4 .........................
5 .....h...................
6 .........................
7 .........................
8 .........................
9 .........................
0 ..........t..............
1 .........................
2 .........................
3 .........................
4 .........................
5 ...............r.........
6 .........................
7 .........................
8 .........................
9 ...................t.....
0 ....................f....
1 .........................
2 .........................
3 .........................
4 ........................r

Turn = 3.
  0123456789012345678901234
0 .........................
1 .f.......................
2 .....h...................
3 .....h...................
4 .........................
5 .........................
6 .........................
7 .........................
8 .........................
9 .........................
0 ..........t..............
1 .........................
2 .........................
3 .........................
4 .........................
5 ............r............
6 .........................
7 .........................
8 .........................
9 ...................t.....
0 ....................f....
1 .........................
2 .........................
3 .........................
4 ........................r

Turn = 6.
  0123456789012345678901234
0 .....h...................
1 .f.......................
2 ........h................
3 .........................
4 .........................
5 .........................
6 .........................
7 .........................
8 .........................
9 .........................
0 ..........t..............
1 .........................
2 .........................
3 .........................
4 .........................
5 .........r...............
6 .........................
7 .........................
8 .........................
9 ...................t.....
0 ....................f....
1 .........................
2 .........................
3 .........................
4 ......................r..

Turn = 9.
  0123456789012345678901234
0 .....h...................
1 .f.......................
2 ...........h.............
3 .........................
4 .........................
5 .........................
6 .........................
7 .........................
8 .........................
9 .........................
0 ..........t..............
1 .........................
2 .........................
3 .........................
4 .........................
5 ......r..................
6 .........................
7 .........................
8 .........................
9 ...................t.....
0 ....................f....
1 .........................
2 .........................
3 .........................
4 ...................r.....

Turn = 12.
  0123456789012345678901234
0 .....h...................
1 .f.......................
2 ..............h..........
3 .........................
4 .........................
5 .........................
6 .........................
7 .........................
8 .........................
9 .........................
0 ..........t..............
1 .........................
2 .........................
3 .........................
4 .........................
5 ...r.....................
6 .........................
7 .........................
8 .........................
9 ...................t.....
0 ....................f....
1 .........................
2 .........................
3 .........................
4 ................r........

Turn = 15.
  0123456789012345678901234
0 .....h...................
1 .f.......................
2 .................h.......
3 .........................
4 .........................
5 .........................
6 .........................
7 .........................
8 .........................
9 .........................
0 ..........t..............
1 .........................
2 .........................
3 .........................
4 .........................
5 r........................
6 .........................
7 .........................
8 .........................
9 ...................t.....
0 ....................f....
1 .........................
2 .........................
3 .........................
4 .............r...........

*** Darwin 26x26 ***
Turn = 0.
  01234567890123456789012345
0 t.........................
1 ..........................
2 ..........................
3 ..........................
4 ..........................
5 ..........................
6 ..........................
7 ..........................
8 ..........................
9 ..........................
0 ..........................
1 ..........................
2 ..........................
3 .............r............
4 ..........................
5 ..........................
6 ..........................
7 ..........................
8 ..........................
9 ..........................
0 ..........................
1 ..........................
2 ..........................
3 ..........................
4 ..........................
5 .........................h

Turn = 5.
  01234567890123456789012345
0 t.........................
1 ..........................
2 ..........................
3 ..........................
4 ..........................
5 ..........................
6 ..........................
7 ..........................
8 .............r............
9 ..........................
0 ..........................
1 ..........................
2 ..........................
3 ..........................
4 ..........................
5 ..........................
6 ..........................
7 ..........................
8 ..........................
9 ..........................
0 ..........................
1 ..........................
2 ..........................
3 ..........................
4 ..........................
5 .........................h

Turn = 10.
  01234567890123456789012345
0 t.........................
1 ..........................
2 ..........................
3 .............r............
4 ..........................
5 ..........................
6 ..........................
7 ..........................
8 ..........................
9 ..........................
0 ..........................
1 ..........................
2 ..........................
3 ..........................
4 ..........................
5 ..........................
6 ..........................
7 ..........................
8 ..........................
9 ..........................
0 ..........................
1 ..........................
2 ..........................
3 ..........................
4 ..........................
5 .........................h

Turn = 15.
  01234567890123456789012345
0 t.............r...........
1 ..........................
2 ..........................
3 ..........................
4 ..........................
5 ..........................
6 ..........................
7 ..........................
8 ..........................
9 ..........................
0 ..........................
1 ..........................
2 ..........................
3 ..........................
4 ..........................
5 ..........................
6 ..........................
7 ..........................
8 ..........................
9 ..........................
0 ..........................
1 ..........................
2 ..........................
3 ..........................
4 ..........................
5 .........................h

Turn = 20.
  01234567890123456789012345
0 t..................r......
1 ..........................
2 ..........................
3 ..........................
4 ..........................
5 ..........................
6 ..........................
7 ..........................
8 ..........................
9 ..........................
0 ..........................
1 ..........................
2 ..........................
3 ..........................
4 ..........................
5 ..........................
6 ..........................
7 ..........................
8 ..........................
9 ..........................
0 ..........................
1 ..........................
2 ..........................
3 ..........................
4 ..........................
5 .........................h

*** Darwin 28x28 ***
Turn = 0.
  0123456789012345678901234567
0 ............................
1 ............................
2 ............................
3 ...t........................
4 ............................
5 ............................
6 ............................
7 .......h....................
8 ............................
9 ............................
0 ............................
1 ............................
2 ............................
3 ............................
4 ..............f.............
5 ............................
6 ............................
7 ............................
8 ............................
9 ............................
0 ............................
1 .....................r......
2 ............................
3 ............................
4 ............................
5 ............................
6 ............................
7 ...........................t

Turn = 6.
  0123456789012345678901234567
0 ............................
1 .......h....................
2 ............................
3 ...t........................
4 ............................
5 ............................
6 ............................
7 ............................
8 ............................
9 ............................
0 ............................
1 ............................
2 ............................
3 ............................
4 ..............f.............
5 ............................
6 ............................
7 ............................
8 ............................
9 ............................
0 ............................
1 ...........................r
2 ............................
3 ............................
4 ............................
5 ............................
6 ............................
7 ...........................t

Turn = 12.
  0123456789012345678901234567
0 .......h....................
1 ............................
2 ............................
3 ...t........................
4 ............................
5 ............................
6 ............................
7 ............................
8 ............................
9 ............................
0 ............................
1 ............................
2 ............................
3 ............................
4 ..............f.............
5 ............................
6 ............................
7 ............................
8 ............................
9 ............................
0 ............................
1 ............................
2 ............................
3 ............................
4 ............................
5 ............................
6 ...........................r
7 ...........................t

Turn = 18.
  0123456789012345678901234567
0 .......h....................
1 ............................
2 ............................
3 ...t........................
4 ............................
5 ............................
6 ............................
7 ............................
8 ............................
9 ............................
0 ............................
1 ............................
2 ............................
3 ............................
4 ..............f.............
5 ............................
6 ............................
7 ............................
8 ............................
9 ............................
0 ............................
1 ............................
2 ............................
3 ............................
4 ............................
5 ............................
6 .......................r....
7 ........................r...

*** Darwin 30x30 ***
Turn = 0.
  012345678901234567890123456789
0 ..............................
1 ..............................
2 ..............................
3 ..............................
4 ..............................
5 .....t........................
6 ..............................
7 ..............................
8 ..............................
9 ..............................
0 ..........r...................
1 ..............................
2 ..............................
3 ..............................
4 ..............................
5 ...............h..............
6 ..............................
7 ..............................
8 ..............................
9 ..............................
0 ....................h.........
1 ..............................
2 ..............................
3 ..............................
4 ..............................
5 .........................f....
6 ..............................
7 ..............................
8 ..............................
9 .............................f

Turn = 2.
  012345678901234567890123456789
0 ..............................
1 ..............................
2 ..............................
3 ..............................
4 ..............................
5 .....t........................
6 ..............................
7 ..............................
8 ..............................
9 ..............................
0 ............r.................
1 ..............................
2 ..............................
3 ...............h..............
4 ..............................
5 ..............................
6 ..............................
7 ..............................
8 ..............................
9 ..............................
0 ..................h...........
1 ..............................
2 ..............................
3 ..............................
4 ..............................
5 .........................f....
6 ..............................
7 ..............................
8 ..............................
9 .............................f

Turn = 4.
  012345678901234567890123456789
0 ..............................
1 ..............................
2 ..............................
3 ..............................
4 ..............................
5 .....t........................
6 ..............................
7 ..............................
8 ..............................
9 ..............................
0 ..............r...............
1 ...............h..............
2 ..............................
3 ..............................
4 ..............................
5 ..............................
6 ..............................
7 ..............................
8 ..............................
9 ..............................
0 ................h.............
1 ..............................
2 ..............................
3 ..............................
4 ..............................
5 .........................f....
6 ..............................
7 ..............................
8 ..............................
9 .............................f

Turn = 6.
  012345678901234567890123456789
0 ..............................
1 ..............................
2 ..............................
3 ..............................
4 ..............................
5 .....t........................
6 ..............................
7 ..............................
8 ..............................
9 ..............................
0 ...............hr.............
1 ..............................
2 ..............................
3 ..............................
4 ..............................
5 ..............................
6 ..............................
7 ..............................
8 ..............................
9 ..............................
0 ..............h...............
1 ..............................
2 ..............................
3 ..............................
4 ..............................
5 .........................f....
6 ..............................
7 ..............................
8 ..............................
9 .............................f

Turn = 8.
  012345678901234567890123456789
0 ..............................
1 ..............................
2 ..............................
3 ..............................
4 ..............................
5 .....t........................
6 ..............................
7 ..............................
8 ...............h..............
9 ..............................
0 ..................r...........
1 ..............................
2 ..............................
3 ..............................
4 ..............................
5 ..............................
6 ..............................
7 ..............................
8 ..............................
9 ..............................
0 ............h.................
1 ..............................
2 ..............................
3 ..............................
4 ..............................
5 .........................f....
6 ..............................
7 ..............................
8 ..............................
9 .............................f

Turn = 10.
  012345678901234567890123456789
0 ..............................
1 ..............................
2 ..............................
3 ..............................
4 ..............................
5 .....t........................
6 ...............h..............
7 ..............................
8 ..............................
9 ..............................
0 ....................r.........
1 ..............................
2 ..............................
3 ..............................
4 ..............................
5 ..............................
6 ..............................
7 ..............................
8 ..............................
9 ..............................
0 ..........h...................
1 ..............................
2 ..............................
3 ..............................
4 ..............................
5 .........................f....
6 ..............................
7 ..............................
8 ..............................
9 .............................f

Turn = 12.
  012345678901234567890123456789
0 ..............................
1 ..............................
2 ..............................
3 ..............................
4 ...............h..............
5 .....t........................
6 ..............................
7 ..............................
8 ..............................
9 ..............................
0 ......................r.......
1 ..............................
2 ..............................
3 ..............................
4 ..............................
5 ..............................
6 ..............................
7 ..............................
8 ..............................
9 ..............................
0 ........h.....................
1 ..............................
2 ..............................
3 ..............................
4 ..............................
5 .........................f....
6 ..............................
7 ..............................
8 ..............................
9 .............................f

Turn = 14.
  012345678901234567890123456789
0 ..............................
1 ..............................
2 ...............h..............
3 ..............................
4 ..............................
5 .....t........................
6 ..............................
7 ..............................
8 ..............................
9 ..............................
0 ........................r.....
1 ..............................
2 ..............................
3 ..............................
4 ..............................
5 ..............................
6 ..............................
7 ..............................
8 ..............................
9 ..............................
0 ......h.......................
1 ..............................
2 ..............................
3 ..............................
4 ..............................
5 .........................f....
6 ..............................
7 ..............................
8 ..............................
9 .............................f

Turn = 16.
  012345678901234567890123456789
0 ...............h..............
1 ..............................
2 ..............................
3 ..............................
4 ..............................
5 .....t........................
6 ..............................
7 ..............................
8 ..............................
9 ..............................
0 ..........................r...
1 ..............................
2 ..............................
3 ..............................
4 ..............................
5 ..............................
6 ..............................
7 ..............................
8 ..............................
9 ..............................
0 ....h.........................
1 ..............................
2 ..............................
3 ..............................
4 ..............................
5 .........................f....
6 ..............................
7 ..............................
8 ..............................
9 .............................f

Turn = 18.
  012345678901234567890123456789
0 ...............h..............
1 ..............................
2 ..............................
3 ..............................
4 ..............................
5 .....t........................
6 ..............................
7 ..............................
8 ..............................
9 ..............................
0 ............................r.
1 ..............................
2 ..............................
3 ..............................
4 ..............................
5 ..............................
6 ..............................
7 ..............................
8 ..............................
9 ..............................
0 ..h...........................
1 ..............................
2 ..............................
3 ..............................
4 ..............................
5 .........................f....
6 ..............................
7 ..............................
8 ..............................
9 .............................f

Turn = 20.
  012345678901234567890123456789
0 ...............h..............
1 ..............................
2 ..............................
3 ..............................
4 ..............................
5 .....t........................
6 ..............................
7 ..............................
8 ..............................
9 ..............................
0 .............................r
1 ..............................
2 ..............................
3 ..............................
4 ..............................
5 ..............................
6 ..............................
7 ..............................
8 ..............................
9 ..............................
0 h.............................
1 ..............................
2 ..............................
3 ..............................
4 ..............................
5 .........................f....
6 ..............................
7 ..............................
8 ..............................
9 .............................f

Turn = 22.
  012345678901234567890123456789
0 ...............h..............
1 ..............................
2 ..............................
3 ..............................
4 ..............................
5 .....t........................
6 ..............................
7 ..............................
8 ..............................
9 ..............................
0 ..............................
1 ..............................
2 .............................r
3 ..............................
4 ..............................
5 ..............................
6 ..............................
7 ..............................
8 ..............................
9 ..............................
0 h.............................
1 ..............................
2 ..............................
3 ..............................
4 ..............................
5 .........................f....
6 ..............................
7 ..............................
8 ..............................
9 .............................f

*** Darwin 35x35 ***
Turn = 0.
  01234567890123456789012345678901234
0 h..................................
1 ...................................
2 ...................................
3 ...................................
4 ...................................
5 ...................................
6 ...................................
7 ...................................
8 ...................................
9 ...................................
0 ...................................
1 ...................................
2 ...................................
3 ...................................
4 ...................................
5 ...................................
6 ...................................
7 .................t.................
8 ..................f................
9 ...................................
0 ...................................
1 ...................................
2 ...................................
3 ...................................
4 ...................................
5 ...................................
6 ...................................
7 ...................................
8 ...................................
9 ...................................
0 ...................................
1 ...................................
2 ...................................
3 ...................................
4 ..................................r

Turn = 8.
  01234567890123456789012345678901234
0 ...................................
1 ...................................
2 ...................................
3 ...................................
4 ...................................
5 ...................................
6 ...................................
7 ...................................
8 h..................................
9 ...................................
0 ...................................
1 ...................................
2 ...................................
3 ...................................
4 ...................................
5 ...................................
6 ...................................
7 .................t.................
8 ..................f................
9 ...................................
0 ...................................
1 ...................................
2 ...................................
3 ...................................
4 ...................................
5 ...................................
6 ...................................
7 ...................................
8 ...................................
9 ...................................
0 ...................................
1 ...................................
2 ...................................
3 ...................................
4 ..............................r....

Turn = 16.
  01234567890123456789012345678901234
0 ...................................
1 ...................................
2 ...................................
3 ...................................
4 ...................................
5 ...................................
6 ...................................
7 ...................................
8 ...................................
9 ...................................
0 ...................................
1 ...................................
2 ...................................
3 ...................................
4 ...................................
5 ...................................
6 h..................................
7 .................t.................
8 ..................f................
9 ...................................
0 ...................................
1 ...................................
2 ...................................
3 ...................................
4 ...................................
5 ...................................
6 ...................................
7 ...................................
8 ...................................
9 ...................................
0 ...................................
1 ...................................
2 ...................................
3 ...................................
4 ......................r............

Turn = 24.
  01234567890123456789012345678901234
0 ...................................
1 ...................................
2 ...................................
3 ...................................
4 ...................................
5 ...................................
6 ...................................
7 ...................................
8 ...................................
9 ...................................
0 ...................................
1 ...................................
2 ...................................
3 ...................................
4 ...................................
5 ...................................
6 ...................................
7 .................t.................
8 ..................f................
9 ...................................
0 ...................................
1 ...................................
2 ...................................
3 ...................................
4 h..................................
5 ...................................
6 ...................................
7 ...................................
8 ...................................
9 ...................................
0 ...................................
1 ...................................
2 ...................................
3 ...................................
4 ..............r....................

Turn = 32.
  01234567890123456789012345678901234
0 ...................................
1 ...................................
2 ...................................
3 ...................................
4 ...................................
5 ...................................
6 ...................................
7 ...................................
8 ...................................
9 ...................................
0 ...................................
1 ...................................
2 ...................................
3 ...................................
4 ...................................
5 ...................................
6 ...................................
7 .................t.................
8 ..................f................
9 ...................................
0 ...................................
1 ...................................
2 ...................................
3 ...................................
4 ...................................
5 ...................................
6 ...................................
7 ...................................
8 ...................................
9 ...................................
0 ...................................
1 ...................................
2 h..................................
3 ...................................
4 ......r............................

Turn = 40.
  01234567890123456789012345678901234
0 ...................................
1 ...................................
2 ...................................
3 ...................................
4 ...................................
5 ...................................
6 ...................................
7 ...................................
8 ...................................
9 ...................................
0 ...................................
1 ...................................
2 ...................................
3 ...................................
4 ...................................
5 ...................................
6 ...................................
7 .................t.................
8 ..................f................
9 ...................................
0 ...................................
1 ...................................
2 ...................................
3 ...................................
4 ...................................
5 ...................................
6 ...................................
7 ...................................
8 ...................................
9 ...................................
0 ...................................
1 ...................................
2 ...................................
3 .r.................................
4 r..................................

*** Darwin 17x76 ***
Turn = 0.
  0123456789012345678901234567890123456789012345678901234567890123456789012345
0 .........................................................f..................
1 ............................................................................
2 ............................................................................
3 ............................................................................
4 ............................................................................
5 ............................................................................
6 ............................................................................
7 ......................................................................r.....
8 ...r........................................................................
9 ............................................................................
0 ...................................r...................................f....
1 ............................................................................
2 ............................................................................
3 ...............................t............................................
4 ............................................................................
5 ............................................................................
6 ............................................................................

Turn = 39.
  0123456789012345678901234567890123456789012345678901234567890123456789012345
0 .........................................................f..................
1 ............................................................................
2 ............................................................................
3 ............................................................................
4 ............................................................................
5 ............................................................................
6 ............................................................................
7 ............................................................................
8 ..........................................r.................................
9 ............................................................................
0 .......................................................................f....
1 ............................................................................
2 ............................................................................
3 r..............................t............................................
4 ............................................................................
5 ............................................................................
6 .........................................r..................................

Turn = 78.
  0123456789012345678901234567890123456789012345678901234567890123456789012345
0 .................r.......................................f..................
1 ............................................................................
2 ............................................................................
3 ............................................................................
4 ............................................................................
5 ............................................................................
6 ............................................................................
7 ............................................................................
8 ............................................................................
9 ............................................................................
0 .......................................................................f....
1 ............................................................................
2 ............................................................................
3 ...............................t...........................................r
4 ............................................................................
5 ............................................................................
6 ..r.........................................................................

Turn = 117.
  0123456789012345678901234567890123456789012345678901234567890123456789012345
0 ........................................................rf..................
1 ............................................................................
2 ............................................................................
3 ............................................................................
4 ............................................................................
5 ............................................................................
6 ............................................................................
7 ............................................................................
8 ............................................................................
9 ............................................................................
0 .......................................................................f....
1 ............................................................................
2 ............................................................................
3 ...............................t............................................
4 ............................................................................
5 ............................................................................
6 ...................................r....r...................................

Turn = 156.
  0123456789012345678901234567890123456789012345678901234567890123456789012345
0 ...................rr.....................................r.................
1 ............................................................................
2 ............................................................................
3 ............................................................................
4 ............................................................................
5 ............................................................................
6 ............................................................................
7 ............................................................................
8 ............................................................................
9 ............................................................................
0 .......................................................................f....
1 ............................................................................
2 ............................................................................
3 ...............................t............................................
4 ............................................................................
5 ............................................................................
6 ........................................................................r...

Turn = 195.
  0123456789012345678901234567890123456789012345678901234567890123456789012345
0 ..................rr.......................................r................
1 ............................................................................
2 ............................................................................
3 ............................................................................
4 ............................................................................
5 ............................................................................
6 ............................................................................
7 ............................................................................
8 ............................................................................
9 ............................................................................
0 .......................................................................f....
1 ............................................................................
2 ............................................................................
3 ...............................t............................................
4 ............................................................................
5 ............................................................................
6 ...r........................................................................

Turn = 234.
  0123456789012345678901234567890123456789012345678901234567890123456789012345
0 ......................r.....................................................
1 ............................................................................
2 ............................................................................
3 ............................................................................
4 ............................................................................
5 ............................................................................
6 ............................................................................
7 ............................................................................
8 ............................................................................
9 ............................................................................
0 .......................................................................f....
1 ............................................................................
2 ............................................................................
3 ...............................t............................................
4 r...........................................................................
5 .....................................r......................................
6 ..........................................r.................................

*** Darwin 20x20 ***
Turn = 0.
  01234567890123456789
0 f...................
1 .h..................
2 ..r.................
3 ...t................
4 ....h...............
5 .....r..............
6 ......t.............
7 .......h............
8 ........f...........
9 .........r..........
0 ....................
1 ....................
2 ....................
3 ....................
4 ....................
5 ....................
6 ....................
7 ....................
8 ....................
9 ....................

Turn = 5.
  01234567890123456789
0 fh..................
1 .....r..............
2 ....................
3 ..tt................
4 .........r..........
5 .........r..........
6 ......t.............
7 ..h.................
8 ........f...........
9 ....................
0 ....................
1 ....................
2 ....................
3 ....................
4 ....................
5 ....................
6 ....................
7 ....................
8 ....................
9 ....................

Turn = 10.
  01234567890123456789
0 fhr.................
1 ....................
2 ....................
3 ..tt................
4 ..............r.....
5 ..............r.....
6 ......t.............
7 h...................
8 ........f...........
9 ....................
0 ....................
1 ....................
2 ....................
3 ....................
4 ....................
5 ....................
6 ....................
7 ....................
8 ....................
9 ....................

Turn = 15.
  01234567890123456789
0 f...r...............
1 ....................
2 .r..................
3 ..tt................
4 ...................r
5 ...................r
6 ......t.............
7 h...................
8 ........f...........
9 ....................
0 ....................
1 ....................
2 ....................
3 ....................
4 ....................
5 ....................
6 ....................
7 ....................
8 ....................
9 ....................

Turn = 20.
  01234567890123456789
0 f........r.........r
1 ...................r
2 ....................
3 ..tt................
4 ....................
5 ....................
6 ......t.............
7 hr..................
8 ........f...........
9 ....................
0 ....................
1 ....................
2 ....................
3 ....................
4 ....................
5 ....................
6 ....................
7 ....................
8 ....................
9 ....................

Turn = 25.
  01234567890123456789
0 f.............r..r..
1 ....................
2 ....................
3 ..tt................
4 ...................r
5 ....................
6 ......t.............
7 h...................
8 ........f...........
9 ....................
0 ....................
1 ....................
2 .r..................
3 ....................
4 ....................
5 ....................
6 ....................
7 ....................
8 ....................
9 ....................

Turn = 30.
  01234567890123456789
0 f.............r.....
1 ....................
2 ....................
3 ..tt...........r....
4 ....................
5 ....................
6 ......t.............
7 h...................
8 ........f...........
9 ...................r
0 ....................
1 ....................
2 ....................
3 ....................
4 ....................
5 ....................
6 ....................
7 .r..................
8 ....................
9 ....................

Turn = 35.
  01234567890123456789
0 f........r..........
1 ....................
2 ....................
3 ..tt................
4 ....................
5 ....................
6 ......t.............
7 h...................
8 ........f......r....
9 ....................
0 ....................
1 ....................
2 ....................
3 ....................
4 ...................r
5 ....................
6 ....................
7 ....................
8 ....................
9 ...r................

Turn = 40.
  01234567890123456789
0 f...r...............
1 ....................
2 ....................
3 ..tt................
4 ....................
5 ....................
6 ......t.............
7 h...................
8 ........f...........
9 ....................
0 ....................
1 ....................
2 ....................
3 ...............r....
4 ....................
5 ....................
6 ....................
7 ....................
8 ....................
9 ........r..........r

Turn = 45.
  01234567890123456789
0 rr..................
1 ....................
2 ....................
3 ..tt................
4 ....................
5 ....................
6 ......t.............
7 h...................
8 ........f...........
9 ....................
0 ....................
1 ....................
2 ....................
3 ....................
4 ....................
5 ....................
6 ...................r
7 ....................
8 ...............r....
9 .............r......

Turn = 50.
  01234567890123456789
0 r....r..............
1 ....................
2 ....................
3 ..tt................
4 ....................
5 ....................
6 ......t.............
7 h...................
8 ........f...........
9 ....................
0 ....................
1 ...................r
2 ....................
3 ....................
4 ....................
5 ....................
6 ..............r.....
7 ....................
8 ....................
9 ..................r.
