*** Darwin 14x3 ***
Turn = 0.
  012
0 ...
1 .rh
2 th.
3 ...
4 f.h
5 ...
6 ...
7 ...
8 ...
9 ...
0 ...
1 .tt
2 ...
3 ...

Turn = 34.
  012
0 t..
1 tt.
2 t..
3 ...
4 f..
5 ...
6 ...
7 ...
8 ...
9 ...
0 .t.
1 .tt
2 ...
3 ...

Turn = 68.
  012
0 t..
1 tt.
2 t..
3 ...
4 f..
5 ...
6 ...
7 ...
8 ...
9 ...
0 .t.
1 .tt
2 ...
3 ...

Turn = 102.
  012
0 t..
1 tt.
2 t..
3 ...
4 f..
5 ...
6 ...
7 ...
8 ...
9 ...
0 .t.
1 .tt
2 ...
3 ...

Turn = 136.
  012
0 t..
1 tt.
2 t..
3 ...
4 f..
5 ...
6 ...
7 ...
8 ...
9 ...
0 .t.
1 .tt
2 ...
3 ...

Turn = 170.
  012
0 t..
1 tt.
2 t..
3 ...
4 f..
5 ...
6 ...
7 ...
8 ...
9 ...
0 .t.
1 .tt
2 ...
3 ...

Turn = 204.
  012
0 t..
1 tt.
2 t..
3 ...
4 f..
5 ...
6 ...
7 ...
8 ...
9 ...
0 .t.
1 .tt
2 ...
3 ...

Turn = 238.
  012
0 t..
1 tt.
2 t..
3 ...
4 f..
5 ...
6 ...
7 ...
8 ...
9 ...
0 .t.
1 .tt
2 ...
3 ...

Turn = 272.
  012
0 t..
1 tt.
2 t..
3 ...
4 f..
5 ...
6 ...
7 ...
8 ...
9 ...
0 .t.
1 .tt
2 ...
3 ...

Turn = 306.
  012
0 t..
1 tt.
2 t..
3 ...
4 f..
5 ...
6 ...
7 ...
8 ...
9 ...
0 .t.
1 .tt
2 ...
3 ...

Turn = 340.
  012
0 t..
1 tt.
2 t..
3 ...
4 f..
5 ...
6 ...
7 ...
8 ...
9 ...
0 .t.
1 .tt
2 ...
3 ...

Turn = 374.
  012
0 t..
1 tt.
2 t..
3 ...
4 f..
5 ...
6 ...
7 ...
8 ...
9 ...
0 .t.
1 .tt
2 ...
3 ...

Turn = 408.
  012
0 t..
1 tt.
2 t..
3 ...
4 f..
5 ...
6 ...
7 ...
8 ...
9 ...
0 .t.
1 .tt
2 ...
3 ...

Turn = 442.
  012
0 t..
1 tt.
2 t..
3 ...
4 f..
5 ...
6 ...
7 ...
8 ...
9 ...
0 .t.
1 .tt
2 ...
3 ...

Turn = 476.
  012
0 t..
1 tt.
2 t..
3 ...
4 f..
5 ...
6 ...
7 ...
8 ...
9 ...
0 .t.
1 .tt
2 ...
3 ...

Turn = 510.
  012
0 t..
1 tt.
2 t..
3 ...
4 f..
5 ...
6 ...
7 ...
8 ...
9 ...
0 .t.
1 .tt
2 ...
3 ...

Turn = 544.
  012
0 t..
1 tt.
2 t..
3 ...
4 f..
5 ...
6 ...
7 ...
8 ...
9 ...
0 .t.
1 .tt
2 ...
3 ...

Turn = 578.
  012
0 t..
1 tt.
2 t..
3 ...
4 f..
5 ...
6 ...
7 ...
8 ...
9 ...
0 .t.
1 .tt
2 ...
3 ...

Turn = 612.
  012
0 t..
1 tt.
2 t..
3 ...
4 f..
5 ...
6 ...
7 ...
8 ...
9 ...
0 .t.
1 .tt
2 ...
3 ...

Turn = 646.
  012
0 t..
1 tt.
2 t..
3 ...
4 f..
5 ...
6 ...
7 ...
8 ...
9 ...
0 .t.
1 .tt
2 ...
3 ...

Turn = 680.
  012
0 t..
1 tt.
2 t..
3 ...
4 f..
5 ...
6 ...
7 ...
8 ...
9 ...
0 .t.
1 .tt
2 ...
3 ...

Turn = 714.
  012
0 t..
1 tt.
2 t..
3 ...
4 f..
5 ...
6 ...
7 ...
8 ...
9 ...
0 .t.
1 .tt
2 ...
3 ...

Turn = 748.
  012
0 t..
1 tt.
2 t..
3 ...
4 f..
5 ...
6 ...
7 ...
8 ...
9 ...
0 .t.
1 .tt
2 ...
3 ...

Turn = 782.
  012
0 t..
1 tt.
2 t..
3 ...
4 f..
5 ...
6 ...
7 ...
8 ...
9 ...
0 .t.
1 .tt
2 ...
3 ...

Turn = 816.
  012
0 t..
1 tt.
2 t..
3 ...
4 f..
5 ...
6 ...
7 ...
8 ...
9 ...
0 .t.
1 .tt
2 ...
3 ...

Turn = 850.
  012
0 t..
1 tt.
2 t..
3 ...
4 f..
5 ...
6 ...
7 ...
8 ...
9 ...
0 .t.
1 .tt
2 ...
3 ...

Turn = 884.
  012
0 t..
1 tt.
2 t..
3 ...
4 f..
5 ...
6 ...
7 ...
8 ...
9 ...
0 .t.
1 .tt
2 ...
3 ...

Turn = 918.
  012
0 t..
1 tt.
2 t..
3 ...
4 f..
5 ...
6 ...
7 ...
8 ...
9 ...
0 .t.
1 .tt
2 ...
3 ...

Turn = 952.
  012
0 t..
1 tt.
2 t..
3 ...
4 f..
5 ...
6 ...
7 ...
8 ...
9 ...
0 .t.
1 .tt
2 ...
3 ...

Turn = 986.
  012
0 t..
1 tt.
2 t..
3 ...
4 f..
5 ...
6 ...
7 ...
8 ...
9 ...
0 .t.
1 .tt
2 ...
3 ...

Turn = 1020.
  012
0 t..
1 tt.
2 t..
3 ...
4 f..
5 ...
6 ...
7 ...
8 ...
9 ...
0 .t.
1 .tt
2 ...
3 ...

Turn = 1054.
  012
0 t..
1 tt.
2 t..
3 ...
4 f..
5 ...
6 ...
7 ...
8 ...
9 ...
0 .t.
1 .tt
2 ...
3 ...

Turn = 1088.
  012
0 t..
1 tt.
2 t..
3 ...
4 f..
5 ...
6 ...
7 ...
8 ...
9 ...
0 .t.
1 .tt
2 ...
3 ...

Turn = 1122.
  012
0 t..
1 tt.
2 t..
3 ...
4 f..
5 ...
6 ...
7 ...
8 ...
9 ...
0 .t.
1 .tt
2 ...
3 ...

Turn = 1156.
  012
0 t..
1 tt.
2 t..
3 ...
4 f..
5 ...
6 ...
7 ...
8 ...
9 ...
0 .t.
1 .tt
2 ...
3 ...

Turn = 1190.
  012
0 t..
1 tt.
2 t..
3 ...
4 f..
5 ...
6 ...
7 ...
8 ...
9 ...
0 .t.
1 .tt
2 ...
3 ...

Turn = 1224.
  012
0 t..
1 tt.
2 t..
3 ...
4 f..
5 ...
6 ...
7 ...
8 ...
9 ...
0 .t.
1 .tt
2 ...
3 ...

Turn = 1258.
  012
0 t..
1 tt.
2 t..
3 ...
4 f..
5 ...
6 ...
7 ...
8 ...
9 ...
0 .t.
1 .tt
2 ...
3 ...

Turn = 1292.
  012
0 t..
1 tt.
2 t..
3 ...
4 f..
5 ...
6 ...
7 ...
8 ...
9 ...
0 .t.
1 .tt
2 ...
3 ...

Turn = 1326.
  012
0 t..
1 tt.
2 t..
3 ...
4 f..
5 ...
6 ...
7 ...
8 ...
9 ...
0 .t.
1 .tt
2 ...
3 ...

Turn = 1360.
  012
0 t..
1 tt.
2 t..
3 ...
4 f..
5 ...
6 ...
7 ...
8 ...
9 ...
0 .t.
1 .tt
2 ...
3 ...

Turn = 1394.
  012
0 t..
1 tt.
2 t..
3 ...
4 f..
5 ...
6 ...
7 ...
8 ...
9 ...
0 .t.
1 .tt
2 ...
3 ...

Turn = 1428.
  012
0 t..
1 tt.
2 t..
3 ...
4 f..
5 ...
6 ...
7 ...
8 ...
9 ...
0 .t.
1 .tt
2 ...
3 ...

Turn = 1462.
  012
0 t..
1 tt.
2 t..
3 ...
4 f..
5 ...
6 ...
7 ...
8 ...
9 ...
0 .t.
1 .tt
2 ...
3 ...

Turn = 1496.
  012
0 t..
1 tt.
2 t..
3 ...
4 f..
5 ...
6 ...
7 ...
8 ...
9 ...
0 .t.
1 .tt
2 ...
3 ...

Turn = 1530.
  012
0 t..
1 tt.
2 t..
3 ...
4 f..
5 ...
6 ...
7 ...
8 ...
9 ...
0 .t.
1 .tt
2 ...
3 ...

Turn = 1564.
  012
0 t..
1 tt.
2 t..
3 ...
4 f..
5 ...
6 ...
7 ...
8 ...
9 ...
0 .t.
1 .tt
2 ...
3 ...

Turn = 1598.
  012
0 t..
1 tt.
2 t..
3 ...
4 f..
5 ...
6 ...
7 ...
8 ...
9 ...
0 .t.
1 .tt
2 ...
3 ...

Turn = 1632.
  012
0 t..
1 tt.
2 t..
3 ...
4 f..
5 ...
6 ...
7 ...
8 ...
9 ...
0 .t.
1 .tt
2 ...
3 ...

Turn = 1666.
  012
0 t..
1 tt.
2 t..
3 ...
4 f..
5 ...
6 ...
7 ...
8 ...
9 ...
0 .t.
1 .tt
2 ...
3 ...

Turn = 1700.
  012
0 t..
1 tt.
2 t..
3 ...
4 f..
5 ...
6 ...
7 ...
8 ...
9 ...
0 .t.
1 .tt
2 ...
3 ...

Turn = 1734.
  012
0 t..
1 tt.
2 t..
3 ...
4 f..
5 ...
6 ...
7 ...
8 ...
9 ...
0 .t.
1 .tt
2 ...
3 ...

Turn = 1768.
  012
0 t..
1 tt.
2 t..
3 ...
4 f..
5 ...
6 ...
7 ...
8 ...
9 ...
0 .t.
1 .tt
2 ...
3 ...

Turn = 1802.
  012
0 t..
1 tt.
2 t..
3 ...
4 f..
5 ...
6 ...
7 ...
8 ...
9 ...
0 .t.
1 .tt
2 ...
3 ...

Turn = 1836.
  012
0 t..
1 tt.
2 t..
3 ...
4 f..
5 ...
6 ...
7 ...
8 ...
9 ...
0 .t.
1 .tt
2 ...
3 ...

Turn = 1870.
  012
0 t..
1 tt.
2 t..
3 ...
4 f..
5 ...
6 ...
7 ...
8 ...
9 ...
0 .t.
1 .tt
2 ...
3 ...

Turn = 1904.
  012
0 t..
1 tt.
2 t..
3 ...
4 f..
5 ...
6 ...
7 ...
8 ...
9 ...
0 .t.
1 .tt
2 ...
3 ...

Turn = 1938.
  012
0 t..
1 tt.
2 t..
3 ...
4 f..
5 ...
6 ...
7 ...
8 ...
9 ...
0 .t.
1 .tt
2 ...
3 ...

*** Darwin 14x18 ***
Turn = 0.
  012345678901234567
0 t.................
1 ..........t.......
2 ....f.............
3 ..........t.......
4 ..................
5 .......r..........
6 ..................
7 ........t.........
8 .....t............
9 ................t.
0 ..................
1 ..................
2 ..................
3 ..r..r............

Turn = 168.
  012345678901234567
0 ..................
1 ..................
2 ....f.....t.......
3 .........tt.......
4 ..................
5 ..................
6 ..................
7 ........t.........
8 .................t
9 .........r........
0 ...........r......
1 ................rr
2 ..................
3 ..................

Turn = 336.
  012345678901234567
0 .r................
1 .rr...............
2 ..................
3 ..................
4 ..................
5 ..................
6 ..................
7 ..................
8 ..................
9 ..................
0 ............r.....
1 .................r
2 .................r
3 ..........rr....rr

Turn = 504.
  012345678901234567
0 .........r........
1 ..........r.......
2 ..................
3 ............r.r...
4 ..................
5 ..................
6 ..rr..............
7 ..................
8 ..................
9 ..................
0 ..................
1 ..................
2 ..................
3 ......r..r.....r.r

Turn = 672.
  012345678901234567
0 r......r..........
1 ............r.....
2 ..................
3 ..................
4 ..................
5 ..................
6 ....r.............
7 ..................
8 ..................
9 ..................
0 r.................
1 r..........r......
2 .............r....
3 ......rr..........

*** Darwin 5x15 ***
Turn = 0.
  012345678901234
0 ...............
1 .....f......ff.
2 .t.............
3 ......h......f.
4 ..h...........f

Turn = 32.
  012345678901234
0 ...............
1 .....f......ff.
2 .t.............
3 .............f.
4 .....hh.......f

Turn = 64.
  012345678901234
0 ...............
1 .....f......ff.
2 .t.............
3 .............f.
4 .....hh.......f

Turn = 96.
  012345678901234
0 ...............
1 .....f......ff.
2 .t.............
3 .............f.
4 .....hh.......f

Turn = 128.
  012345678901234
0 ...............
1 .....f......ff.
2 .t.............
3 .............f.
4 .....hh.......f

Turn = 160.
  012345678901234
0 ...............
1 .....f......ff.
2 .t.............
3 .............f.
4 .....hh.......f

Turn = 192.
  012345678901234
0 ...............
1 .....f......ff.
2 .t.............
3 .............f.
4 .....hh.......f

Turn = 224.
  012345678901234
0 ...............
1 .....f......ff.
2 .t.............
3 .............f.
4 .....hh.......f

Turn = 256.
  012345678901234
0 ...............
1 .....f......ff.
2 .t.............
3 .............f.
4 .....hh.......f

Turn = 288.
  012345678901234
0 ...............
1 .....f......ff.
2 .t.............
3 .............f.
4 .....hh.......f

*** Darwin 20x1 ***
Turn = 0.
  0
0 .
1 .
2 .
3 .
4 h
5 .
6 .
7 .
8 .
9 h
0 .
1 .
2 t
3 f
4 .
5 .
6 .
7 .
8 t
9 f

Turn = 123.
  0
0 .
1 .
2 .
3 .
4 h
5 .
6 .
7 .
8 .
9 h
0 .
1 .
2 t
3 t
4 .
5 .
6 .
7 .
8 t
9 t

Turn = 246.
  0
0 .
1 .
2 .
3 .
4 h
5 .
6 .
7 .
8 .
9 h
0 .
1 .
2 t
3 t
4 .
5 .
6 .
7 .
8 t
9 t

Turn = 369.
  0
0 .
1 .
2 .
3 .
4 h
5 .
6 .
7 .
8 .
9 h
0 .
1 .
2 t
3 t
4 .
5 .
6 .
7 .
8 t
9 t

Turn = 492.
  0
0 .
1 .
2 .
3 .
4 h
5 .
6 .
7 .
8 .
9 h
0 .
1 .
2 t
3 t
4 .
5 .
6 .
7 .
8 t
9 t

*** Darwin 16x18 ***
Turn = 0.
  012345678901234567
0 ........t.........
1 ..................
2 ....t.............
3 ..................
4 ..................
5 ..................
6 ..................
7 ..................
8 ..................
9 ..................
0 ..................
1 t.................
2 ..................
3 ..................
4 ..................
5 ...............t..

Turn = 45.
  012345678901234567
0 ........t.........
1 ..................
2 ....t.............
3 ..................
4 ..................
5 ..................
6 ..................
7 ..................
8 ..................
9 ..................
0 ..................
1 t.................
2 ..................
3 ..................
4 ..................
5 ...............t..

Turn = 90.
  012345678901234567
0 ........t.........
1 ..................
2 ....t.............
3 ..................
4 ..................
5 ..................
6 ..................
7 ..................
8 ..................
9 ..................
0 ..................
1 t.................
2 ..................
3 ..................
4 ..................
5 ...............t..

Turn = 135.
  012345678901234567
0 ........t.........
1 ..................
2 ....t.............
3 ..................
4 ..................
5 ..................
6 ..................
7 ..................
8 ..................
9 ..................
0 ..................
1 t.................
2 ..................
3 ..................
4 ..................
5 ...............t..

Turn = 180.
  012345678901234567
0 ........t.........
1 ..................
2 ....t.............
3 ..................
4 ..................
5 ..................
6 ..................
7 ..................
8 ..................
9 ..................
0 ..................
1 t.................
2 ..................
3 ..................
4 ..................
5 ...............t..

Turn = 225.
  012345678901234567
0 ........t.........
1 ..................
2 ....t.............
3 ..................
4 ..................
5 ..................
6 ..................
7 ..................
8 ..................
9 ..................
0 ..................
1 t.................
2 ..................
3 ..................
4 ..................
5 ...............t..

Turn = 270.
  012345678901234567
0 ........t.........
1 ..................
2 ....t.............
3 ..................
4 ..................
5 ..................
6 ..................
7 ..................
8 ..................
9 ..................
0 ..................
1 t.................
2 ..................
3 ..................
4 ..................
5 ...............t..

Turn = 315.
  012345678901234567
0 ........t.........
1 ..................
2 ....t.............
3 ..................
4 ..................
5 ..................
6 ..................
7 ..................
8 ..................
9 ..................
0 ..................
1 t.................
2 ..................
3 ..................
4 ..................
5 ...............t..

Turn = 360.
  012345678901234567
0 ........t.........
1 ..................
2 ....t.............
3 ..................
4 ..................
5 ..................
6 ..................
7 ..................
8 ..................
9 ..................
0 ..................
1 t.................
2 ..................
3 ..................
4 ..................
5 ...............t..

Turn = 405.
  012345678901234567
0 ........t.........
1 ..................
2 ....t.............
3 ..................
4 ..................
5 ..................
6 ..................
7 ..................
8 ..................
9 ..................
0 ..................
1 t.................
2 ..................
3 ..................
4 ..................
5 ...............t..

Turn = 450.
  012345678901234567
0 ........t.........
1 ..................
2 ....t.............
3 ..................
4 ..................
5 ..................
6 ..................
7 ..................
8 ..................
9 ..................
0 ..................
1 t.................
2 ..................
3 ..................
4 ..................
5 ...............t..

Turn = 495.
  012345678901234567
0 ........t.........
1 ..................
2 ....t.............
3 ..................
4 ..................
5 ..................
6 ..................
7 ..................
8 ..................
9 ..................
0 ..................
1 t.................
2 ..................
3 ..................
4 ..................
5 ...............t..

Turn = 540.
  012345678901234567
0 ........t.........
1 ..................
2 ....t.............
3 ..................
4 ..................
5 ..................
6 ..................
7 ..................
8 ..................
9 ..................
0 ..................
1 t.................
2 ..................
3 ..................
4 ..................
5 ...............t..

Turn = 585.
  012345678901234567
0 ........t.........
1 ..................
2 ....t.............
3 ..................
4 ..................
5 ..................
6 ..................
7 ..................
8 ..................
9 ..................
0 ..................
1 t.................
2 ..................
3 ..................
4 ..................
5 ...............t..

Turn = 630.
  012345678901234567
0 ........t.........
1 ..................
2 ....t.............
3 ..................
4 ..................
5 ..................
6 ..................
7 ..................
8 ..................
9 ..................
0 ..................
1 t.................
2 ..................
3 ..................
4 ..................
5 ...............t..

Turn = 675.
  012345678901234567
0 ........t.........
1 ..................
2 ....t.............
3 ..................
4 ..................
5 ..................
6 ..................
7 ..................
8 ..................
9 ..................
0 ..................
1 t.................
2 ..................
3 ..................
4 ..................
5 ...............t..

Turn = 720.
  012345678901234567
0 ........t.........
1 ..................
2 ....t.............
3 ..................
4 ..................
5 ..................
6 ..................
7 ..................
8 ..................
9 ..................
0 ..................
1 t.................
2 ..................
3 ..................
4 ..................
5 ...............t..

Turn = 765.
  012345678901234567
0 ........t.........
1 ..................
2 ....t.............
3 ..................
4 ..................
5 ..................
6 ..................
7 ..................
8 ..................
9 ..................
0 ..................
1 t.................
2 ..................
3 ..................
4 ..................
5 ...............t..

Turn = 810.
  012345678901234567
0 ........t.........
1 ..................
2 ....t.............
3 ..................
4 ..................
5 ..................
6 ..................
7 ..................
8 ..................
9 ..................
0 ..................
1 t.................
2 ..................
3 ..................
4 ..................
5 ...............t..

Turn = 855.
  012345678901234567
0 ........t.........
1 ..................
2 ....t.............
3 ..................
4 ..................
5 ..................
6 ..................
7 ..................
8 ..................
9 ..................
0 ..................
1 t.................
2 ..................
3 ..................
4 ..................
5 ...............t..

Turn = 900.
  012345678901234567
0 ........t.........
1 ..................
2 ....t.............
3 ..................
4 ..................
5 ..................
6 ..................
7 ..................
8 ..................
9 ..................
0 ..................
1 t.................
2 ..................
3 ..................
4 ..................
5 ...............t..

Turn = 945.
  012345678901234567
0 ........t.........
1 ..................
2 ....t.............
3 ..................
4 ..................
5 ..................
6 ..................
7 ..................
8 ..................
9 ..................
0 ..................
1 t.................
2 ..................
3 ..................
4 ..................
5 ...............t..

Turn = 990.
  012345678901234567
0 ........t.........
1 ..................
2 ....t.............
3 ..................
4 ..................
5 ..................
6 ..................
7 ..................
8 ..................
9 ..................
0 ..................
1 t.................
2 ..................
3 ..................
4 ..................
5 ...............t..

Turn = 1035.
  012345678901234567
0 ........t.........
1 ..................
2 ....t.............
3 ..................
4 ..................
5 ..................
6 ..................
7 ..................
8 ..................
9 ..................
0 ..................
1 t.................
2 ..................
3 ..................
4 ..................
5 ...............t..

Turn = 1080.
  012345678901234567
0 ........t.........
1 ..................
2 ....t.............
3 ..................
4 ..................
5 ..................
6 ..................
7 ..................
8 ..................
9 ..................
0 ..................
1 t.................
2 ..................
3 ..................
4 ..................
5 ...............t..

Turn = 1125.
  012345678901234567
0 ........t.........
1 ..................
2 ....t.............
3 ..................
4 ..................
5 ..................
6 ..................
7 ..................
8 ..................
9 ..................
0 ..................
1 t.................
2 ..................
3 ..................
4 ..................
5 ...............t..

Turn = 1170.
  012345678901234567
0 ........t.........
1 ..................
2 ....t.............
3 ..................
4 ..................
5 ..................
6 ..................
7 ..................
8 ..................
9 ..................
0 ..................
1 t.................
2 ..................
3 ..................
4 ..................
5 ...............t..

Turn = 1215.
  012345678901234567
0 ........t.........
1 ..................
2 ....t.............
3 ..................
4 ..................
5 ..................
6 ..................
7 ..................
8 ..................
9 ..................
0 ..................
1 t.................
2 ..................
3 ..................
4 ..................
5 ...............t..

Turn = 1260.
  012345678901234567
0 ........t.........
1 ..................
2 ....t.............
3 ..................
4 ..................
5 ..................
6 ..................
7 ..................
8 ..................
9 ..................
0 ..................
1 t.................
2 ..................
3 ..................
4 ..................
5 ...............t..

Turn = 1305.
  012345678901234567
0 ........t.........
1 ..................
2 ....t.............
3 ..................
4 ..................
5 ..................
6 ..................
7 ..................
8 ..................
9 ..................
0 ..................
1 t.................
2 ..................
3 ..................
4 ..................
5 ...............t..

Turn = 1350.
  012345678901234567
0 ........t.........
1 ..................
2 ....t.............
3 ..................
4 ..................
5 ..................
6 ..................
7 ..................
8 ..................
9 ..................
0 ..................
1 t.................
2 ..................
3 ..................
4 ..................
5 ...............t..

*** Darwin 8x15 ***
Turn = 0.
  012345678901234
0 ..........r....
1 .......h.......
2 .........t.....
3 ...............
4 ............f..
5 ..............h
6 ...............
7 ...............

Turn = 7.
  012345678901234
0 ...r...........
1 h..............
2 .........t.....
3 ...............
4 ............f..
5 ..............h
6 ...............
7 ...............

Turn = 14.
  012345678901234
0 r..............
1 h..............
2 .........t.....
3 ...............
4 ............f..
5 ..............h
6 ...............
7 ...............

Turn = 21.
  012345678901234
0 .......r.......
1 h..............
2 .........t.....
3 ...............
4 ............f..
5 ..............h
6 ...............
7 ...............

Turn = 28.
  012345678901234
0 ..............r
1 h..............
2 .........t.....
3 ...............
4 ............f..
5 ..............h
6 ...............
7 ...............

Turn = 35.
  012345678901234
0 ...............
1 h..............
2 .........t.....
3 ...............
4 ............f.r
5 ...............
6 ..............r
7 ...............

Turn = 42.
  012345678901234
0 ..............r
1 h..............
2 .........t.....
3 ...............
4 ............f..
5 ...............
6 ...............
7 .........r.....

Turn = 49.
  012345678901234
0 ...............
1 h..............
2 .........t.....
3 ..............r
4 ............f..
5 ...............
6 ...............
7 ..r............

Turn = 56.
  012345678901234
0 ...............
1 h..............
2 .........t.....
3 ...............
4 ............f..
5 ...............
6 ..............r
7 ...r...........

Turn = 63.
  012345678901234
0 ..............r
1 h..............
2 .........t.....
3 ...............
4 ............f..
5 ...............
6 ...............
7 ..........r....

Turn = 70.
  012345678901234
0 .......r.......
1 h..............
2 .........t.....
3 ...............
4 ............f..
5 ...............
6 ...............
7 ..............r

Turn = 77.
  012345678901234
0 r..............
1 h..............
2 .........t.....
3 ...............
4 ............f..
5 ...............
6 ...............
7 ........r......

Turn = 84.
  012345678901234
0 ....r..........
1 ...............
2 .........t.....
3 ...............
4 ............f..
5 ...............
6 r..............
7 .r.............

Turn = 91.
  012345678901234
0 ...........r...
1 .r.............
2 .........t.....
3 r..............
4 ............f..
5 ...............
6 ...............
7 ...............

Turn = 98.
  012345678901234
0 ......r........
1 ..............r
2 r........t.....
3 ...............
4 ............f..
5 ...............
6 ...............
7 ...............

Turn = 105.
  012345678901234
0 .............r.
1 ...............
2 .........t.....
3 ...............
4 ............f..
5 ...............
6 ...............
7 r.............r

Turn = 112.
  012345678901234
0 ...............
1 ...............
2 .........t.....
3 ...............
4 ............f..
5 ..............r
6 ...............
7 ......rr.......

Turn = 119.
  012345678901234
0 ...............
1 .......r.......
2 .........t.....
3 ...............
4 ............f..
5 ...............
6 ..............r
7 .r.............

Turn = 126.
  012345678901234
0 ............r.r
1 ...............
2 .........t.....
3 ...............
4 ............f..
5 ...............
6 ...............
7 r..............

Turn = 133.
  012345678901234
0 ..............r
1 ...............
2 .........t.....
3 r..............
4 ............f..
5 ...............
6 ..............r
7 ...............

Turn = 140.
  012345678901234
0 ...r..........r
1 ...............
2 .........t.....
3 ...............
4 ............f..
5 ...............
6 ...............
7 .........r.....

Turn = 147.
  012345678901234
0 ..........rr...
1 ...............
2 .........t.....
3 ...............
4 ............f..
5 ...............
6 ...............
7 ..r............

Turn = 154.
  012345678901234
0 ...............
1 ...............
2 .........t.....
3 r..............
4 ............f..
5 ...............
6 ..........rr...
7 ...............

Turn = 161.
  012345678901234
0 ...............
1 ...............
2 r........t.....
3 ..........r....
4 ............f..
5 ...............
6 ...............
7 ..............r

Turn = 168.
  012345678901234
0 .......r.......
1 ...............
2 .........t.....
3 ...............
4 ............f..
5 ...............
6 ...............
7 r......r.......

Turn = 175.
  012345678901234
0 r..............
1 ...............
2 .........t.....
3 ...............
4 ............f..
5 ...r...........
6 ...............
7 ..r............

Turn = 182.
  012345678901234
0 ..r............
1 ...............
2 .........t.....
3 ...............
4 ............f..
5 ...............
6 r..............
7 ...r...........

Turn = 189.
  012345678901234
0 .r.............
1 ...............
2 .........t.....
3 ...............
4 ............f..
5 ...............
6 ...............
7 ...r......r....

Turn = 196.
  012345678901234
0 ........r......
1 ...............
2 .........t.....
3 ...............
4 ............f..
5 ...............
6 ...............
7 ..........r...r

Turn = 203.
  012345678901234
0 ..............r
1 ...............
2 .........t....r
3 ...............
4 ............f..
5 ..............r
6 ...............
7 ...............

Turn = 210.
  012345678901234
0 ..............r
1 ...........r...
2 ........rr.....
3 ...............
4 ............f..
5 ...............
6 ...............
7 ...............

Turn = 217.
  012345678901234
0 ...............
1 ....r..........
2 .rr............
3 ..............r
4 ............f..
5 ...............
6 ...............
7 ...............

Turn = 224.
  012345678901234
0 r.r............
1 ...............
2 .....r.........
3 ...............
4 ............f..
5 ...............
6 ...............
7 ............r..

Turn = 231.
  012345678901234
0 .......r.r.....
1 ...............
2 ............r..
3 ...............
4 ............f..
5 ...............
6 ...............
7 .....r.........

Turn = 238.
  012345678901234
0 .............rr
1 ...............
2 ...............
3 ...............
4 ............f..
5 ...............
6 r.............r
7 ...............

Turn = 245.
  012345678901234
0 r......r.......
1 ...............
2 ...............
3 ...............
4 ............f..
5 ...............
6 ...............
7 .........r...r.

Turn = 252.
  012345678901234
0 r..............
1 ...............
2 ...............
3 ...............
4 r...........f..
5 ...............
6 ...............
7 ..r....r.......

Turn = 259.
  012345678901234
0 r..............
1 ...............
2 ...............
3 ...............
4 ............f..
5 r..............
6 ..r............
7 r..............

Turn = 266.
  012345678901234
0 r..............
1 r..............
2 ...r...........
3 ...............
4 ............f..
5 ...............
6 .........r.....
7 ...............

Turn = 273.
  012345678901234
0 .......r.......
1 ...............
2 ..........r....
3 ...............
4 r...........f..
5 ..............r
6 ...............
7 ...............

Turn = 280.
  012345678901234
0 .............rr
1 ...............
2 ...............
3 ...............
4 ............f..
5 .............r.
6 ...............
7 ...r...........

Turn = 287.
  012345678901234
0 .......rr......
1 ...............
2 ...............
3 ...............
4 ............f..
5 ...............
6 ...............
7 ..........r...r

Turn = 294.
  012345678901234
0 rr.............
1 ...............
2 ...............
3 .............r.
4 ............f..
5 ...............
6 ...............
7 .........r.....

Turn = 301.
  012345678901234
0 ...............
1 ..............r
2 ...............
3 ...............
4 ............f..
5 ...............
6 rr.............
7 ..r............

Turn = 308.
  012345678901234
0 ...............
1 ...............
2 ...............
3 r..............
4 ............f..
5 ...............
6 r..............
7 .......r......r

Turn = 315.
  012345678901234
0 r..r...........
1 ...............
2 ...............
3 ...............
4 ............f..
5 ...............
6 ...............
7 ..........rr...

Turn = 322.
  012345678901234
0 .......r..r....
1 ...............
2 ...............
3 ...............
4 ............f..
5 ...............
6 ..............r
7 .....r.........

Turn = 329.
  012345678901234
0 .............rr
1 .............r.
2 ...............
3 ...............
4 ............f..
5 ...............
6 ...............
7 r..............

Turn = 336.
  012345678901234
0 ...............
1 ......r........
2 ...............
3 ...............
4 ............f..
5 .............rr
6 ...............
7 r..............

Turn = 343.
  012345678901234
0 ...............
1 r..............
2 ...............
3 ...............
4 ............f..
5 ...............
6 ...............
7 ......r..rr....

Turn = 350.
  012345678901234
0 ...............
1 ...............
2 .......rr......
3 ...............
4 ............f..
5 ...............
6 ...............
7 r............r.

Turn = 357.
  012345678901234
0 .....r......r..
1 ...............
2 ...............
3 ...............
4 ............f..
5 ...............
6 ...............
7 .......r......r

Turn = 364.
  012345678901234
0 ...........r...
1 r..............
2 ...............
3 ...............
4 ..........r.f..
5 ...............
6 ...............
7 .........r.....

Turn = 371.
  012345678901234
0 ....r.......r..
1 ...............
2 ...............
3 ...............
4 ............f..
5 ...............
6 ...............
7 r.r............

Turn = 378.
  012345678901234
0 .............r.
1 r..............
2 r..............
3 ...............
4 ............f..
5 ...............
6 ...............
7 ...r...........

Turn = 385.
  012345678901234
0 ......r........
1 .......r.......
2 .......r.......
3 ...............
4 ............f..
5 ...............
6 ...............
7 ..........r....

Turn = 392.
  012345678901234
0 r..............
1 ..............r
2 ..............r
3 ...............
4 ............f..
5 ..............r
6 ...............
7 ...............

Turn = 399.
  012345678901234
0 ..........r..r.
1 ...............
2 ...........r...
3 ...............
4 ............f..
5 ...............
6 ...............
7 r..............

Turn = 406.
  012345678901234
0 ...r..r........
1 ...............
2 ....r..........
3 ...............
4 ............f..
5 ...............
6 ...............
7 ......r........

Turn = 413.
  012345678901234
0 r..............
1 r..............
2 r..............
3 ...............
4 ............f..
5 ...............
6 ...............
7 .............r.

*** Darwin 17x7 ***
Turn = 0.
  0123456
0 ......h
1 .......
2 .......
3 .......
4 .......
5 .......
6 .......
7 f......
8 .......
9 .......
0 ...h...
1 .......
2 .......
3 .......
4 .......
5 .......
6 ..r....

Turn = 136.
  0123456
0 .r.....
1 .......
2 .......
3 .......
4 .......
5 .......
6 .......
7 .......
8 .......
9 r......
0 .......
1 ......r
2 .......
3 r......
4 .......
5 .......
6 .......

Turn = 272.
  0123456
0 .......
1 ......r
2 .......
3 .......
4 .......
5 .......
6 .......
7 .......
8 .......
9 .......
0 ......r
1 r......
2 .......
3 .......
4 .......
5 .......
6 ..r....

Turn = 408.
  0123456
0 ....r..
1 .......
2 .......
3 .......
4 .......
5 .......
6 r......
7 .......
8 .......
9 .......
0 .......
1 .......
2 .......
3 ......r
4 .......
5 .......
6 ..r....

Turn = 544.
  0123456
0 .......
1 .......
2 .......
3 .......
4 .......
5 .......
6 .......
7 .......
8 .......
9 ......r
0 ....r..
1 .......
2 .......
3 .......
4 .......
5 ......r
6 r......

Turn = 680.
  0123456
0 ..r....
1 .......
2 .......
3 .......
4 .......
5 r......
6 .......
7 r......
8 .......
9 .......
0 .......
1 .......
2 .......
3 .......
4 r......
5 .......
6 .......

Turn = 816.
  0123456
0 r....rr
1 .......
2 .......
3 .......
4 .......
5 r......
6 .......
7 .......
8 .......
9 .......
0 .......
1 .......
2 .......
3 .......
4 .......
5 .......
6 .......

Turn = 952.
  0123456
0 r.....r
1 .......
2 ..r....
3 .......
4 .......
5 .......
6 .......
7 ......r
8 .......
9 .......
0 .......
1 .......
2 .......
3 .......
4 .......
5 .......
6 .......

Turn = 1088.
  0123456
0 rr..r..
1 .......
2 .......
3 .......
4 .......
5 .......
6 .......
7 .......
8 .......
9 .......
0 .......
1 ......r
2 .......
3 .......
4 .......
5 .......
6 .......

Turn = 1224.
  0123456
0 r.....r
1 r......
2 .......
3 .......
4 .......
5 .......
6 .......
7 .......
8 .......
9 .......
0 .......
1 .......
2 .......
3 .......
4 .......
5 r......
6 .......

Turn = 1360.
  0123456
0 .......
1 .......
2 .......
3 ......r
4 .......
5 .......
6 .......
7 .......
8 .......
9 r......
0 .......
1 .......
2 .r.....
3 .......
4 .......
5 .......
6 ......r

Turn = 1496.
  0123456
0 .......
1 .......
2 .......
3 .......
4 .......
5 .......
6 ......r
7 .......
8 .......
9 .......
0 .......
1 .......
2 .......
3 r......
4 .......
5 r......
6 ..r....

Turn = 1632.
  0123456
0 ......r
1 ...r...
2 r......
3 .r.....
4 .......
5 .......
6 .......
7 .......
8 .......
9 .......
0 .......
1 .......
2 .......
3 .......
4 .......
5 .......
6 .......

Turn = 1768.
  0123456
0 .....r.
1 r..r...
2 .......
3 .......
4 .......
5 .......
6 .......
7 .......
8 .......
9 ..r....
0 .......
1 .......
2 .......
3 .......
4 .......
5 .......
6 .......

*** Darwin 11x2 ***
Turn = 0.
  01
0 ..
1 ..
2 ..
3 .t
4 ..
5 .f
6 ..
7 ..
8 ..
9 ..
0 .t

*** Darwin 12x2 ***
Turn = 0.
  01
0 .h
1 ..
2 ..
3 ..
4 .f
5 ..
6 .h
7 ..
8 t.
9 ..
0 ..
1 ..

Turn = 81.
  01
0 .h
1 ..
2 ..
3 ..
4 .f
5 ..
6 .h
7 ..
8 t.
9 ..
0 ..
1 ..

Turn = 162.
  01
0 .h
1 ..
2 ..
3 ..
4 .f
5 ..
6 .h
7 ..
8 t.
9 ..
0 ..
1 ..

Turn = 243.
  01
0 .h
1 ..
2 ..
3 ..
4 .f
5 ..
6 .h
7 ..
8 t.
9 ..
0 ..
1 ..

Turn = 324.
  01
0 .h
1 ..
2 ..
3 ..
4 .f
5 ..
6 .h
7 ..
8 t.
9 ..
0 ..
1 ..

Turn = 405.
  01
0 .h
1 ..
2 ..
3 ..
4 .f
5 ..
6 .h
7 ..
8 t.
9 ..
0 ..
1 ..

Turn = 486.
  01
0 .h
1 ..
2 ..
3 ..
4 .f
5 ..
6 .h
7 ..
8 t.
9 ..
0 ..
1 ..

Turn = 567.
  01
0 .h
1 ..
2 ..
3 ..
4 .f
5 ..
6 .h
7 ..
8 t.
9 ..
0 ..
1 ..

Turn = 648.
  01
0 .h
1 ..
2 ..
3 ..
4 .f
5 ..
6 .h
7 ..
8 t.
9 ..
0 ..
1 ..

Turn = 729.
  01
0 .h
1 ..
2 ..
3 ..
4 .f
5 ..
6 .h
7 ..
8 t.
9 ..
0 ..
1 ..

Turn = 810.
  01
0 .h
1 ..
2 ..
3 ..
4 .f
5 ..
6 .h
7 ..
8 t.
9 ..
0 ..
1 ..

Turn = 891.
  01
0 .h
1 ..
2 ..
3 ..
4 .f
5 ..
6 .h
7 ..
8 t.
9 ..
0 ..
1 ..

Turn = 972.
  01
0 .h
1 ..
2 ..
3 ..
4 .f
5 ..
6 .h
7 ..
8 t.
9 ..
0 ..
1 ..

Turn = 1053.
  01
0 .h
1 ..
2 ..
3 ..
4 .f
5 ..
6 .h
7 ..
8 t.
9 ..
0 ..
1 ..

Turn = 1134.
  01
0 .h
1 ..
2 ..
3 ..
4 .f
5 ..
6 .h
7 ..
8 t.
9 ..
0 ..
1 ..

Turn = 1215.
  01
0 .h
1 ..
2 ..
3 ..
4 .f
5 ..
6 .h
7 ..
8 t.
9 ..
0 ..
1 ..

Turn = 1296.
  01
0 .h
1 ..
2 ..
3 ..
4 .f
5 ..
6 .h
7 ..
8 t.
9 ..
0 ..
1 ..

Turn = 1377.
  01
0 .h
1 ..
2 ..
3 ..
4 .f
5 ..
6 .h
7 ..
8 t.
9 ..
0 ..
1 ..

Turn = 1458.
  01
0 .h
1 ..
2 ..
3 ..
4 .f
5 ..
6 .h
7 ..
8 t.
9 ..
0 ..
1 ..

Turn = 1539.
  01
0 .h
1 ..
2 ..
3 ..
4 .f
5 ..
6 .h
7 ..
8 t.
9 ..
0 ..
1 ..

Turn = 1620.
  01
0 .h
1 ..
2 ..
3 ..
4 .f
5 ..
6 .h
7 ..
8 t.
9 ..
0 ..
1 ..

Turn = 1701.
  01
0 .h
1 ..
2 ..
3 ..
4 .f
5 ..
6 .h
7 ..
8 t.
9 ..
0 ..
1 ..

Turn = 1782.
  01
0 .h
1 ..
2 ..
3 ..
4 .f
5 ..
6 .h
7 ..
8 t.
9 ..
0 ..
1 ..

Turn = 1863.
  01
0 .h
1 ..
2 ..
3 ..
4 .f
5 ..
6 .h
7 ..
8 t.
9 ..
0 ..
1 ..

*** Darwin 14x9 ***
Turn = 0.
  012345678
0 .........
1 .........
2 .....h...
3 ...t.....
4 f.......f
5 ....t....
6 .........
7 f........
8 .........
9 .........
0 .........
1 ..r......
2 ..r......
3 .........

Turn = 53.
  012345678
0 ......r..
1 .........
2 ........r
3 ........r
4 .........
5 ........r
6 r........
7 .........
8 .........
9 .........
0 .........
1 .........
2 ........r
3 .r......r

Turn = 106.
  012345678
0 ........r
1 .........
2 .........
3 .........
4 r........
5 .........
6 ..rr.....
7 .........
8 rr.......
9 .........
0 ..r......
1 .........
2 .........
3 ......r..

Turn = 159.
  012345678
0 rrr......
1 .........
2 .........
3 ........r
4 ...rr....
5 ...r.....
6 .........
7 .........
8 .........
9 .........
0 .........
1 .........
2 r........
3 .........

Turn = 212.
  012345678
0 .r......r
1 .........
2 .........
3 .........
4 r.......r
5 .........
6 .........
7 .r.......
8 .........
9 .........
0 .........
1 .........
2 r........
3 rr.......

Turn = 265.
  012345678
0 .........
1 .........
2 .........
3 .......rr
4 ......r..
5 .........
6 .........
7 .........
8 .........
9 r........
0 ...r.....
1 r...r....
2 ....r....
3 .........

Turn = 318.
  012345678
0 ....r....
1 .........
2 .....r...
3 ....r....
4 r........
5 .........
6 r........
7 .........
8 .........
9 .........
0 ........r
1 .........
2 ........r
3 ..r......

Turn = 371.
  012345678
0 .r......r
1 ........r
2 .......r.
3 .........
4 .........
5 .........
6 .........
7 .........
8 .........
9 ......r..
0 .....r...
1 .....r...
2 .........
3 ........r

Turn = 424.
  012345678
0 .........
1 ........r
2 r.......r
3 .........
4 .........
5 .........
6 .........
7 .........
8 .........
9 .r.......
0 .........
1 ......r..
2 .r.....r.
3 ..r......

Turn = 477.
  012345678
0 ..r......
1 .r.......
2 rr.......
3 ...r.....
4 ..r......
5 .........
6 .........
7 .........
8 .........
9 r........
0 .........
1 ........r
2 .........
3 .........

Turn = 530.
  012345678
0 r.......r
1 .........
2 .........
3 .........
4 r........
5 .........
6 .........
7 .........
8 .........
9 .........
0 .........
1 ........r
2 .........
3 r...r.r.r

Turn = 583.
  012345678
0 ...r..r..
1 .....r...
2 .........
3 .........
4 r........
5 .........
6 .........
7 .........
8 .........
9 .....r...
0 ....r....
1 .........
2 ........r
3 ........r

Turn = 636.
  012345678
0 ......r..
1 .........
2 .........
3 .........
4 .........
5 r........
6 r.......r
7 .........
8 ......r..
9 .........
0 .........
1 ...r.....
2 .r......r
3 .........

Turn = 689.
  012345678
0 .r.......
1 .........
2 .........
3 r........
4 .r.......
5 r........
6 .........
7 r........
8 .........
9 ........r
0 ....r....
1 .........
2 .........
3 ........r

Turn = 742.
  012345678
0 .....r...
1 .........
2 .....r...
3 .r...r...
4 r..r.....
5 .........
6 .........
7 .........
8 ........r
9 .........
0 .........
1 .........
2 .........
3 ........r

Turn = 795.
  012345678
0 ......r..
1 .........
2 .........
3 .........
4 .........
5 .........
6 .........
7 .........
8 .......r.
9 ........r
0 .........
1 ....r..r.
2 r.r......
3 ........r

Turn = 848.
  012345678
0 .........
1 ....r....
2 rr.......
3 .........
4 r.......r
5 .........
6 .........
7 ........r
8 .........
9 .........
0 ........r
1 .........
2 r........
3 .........

Turn = 901.
  012345678
0 .r....r..
1 .........
2 .......r.
3 .........
4 .........
5 .........
6 .........
7 .........
8 .........
9 .........
0 .........
1 ....r....
2 .....r...
3 ..rr.r...

Turn = 954.
  012345678
0 ..r......
1 ..r......
2 .........
3 .........
4 .........
5 .........
6 ........r
7 ........r
8 ......r..
9 .........
0 .........
1 .........
2 r........
3 ..r.....r

Turn = 1007.
  012345678
0 ..r......
1 .........
2 .........
3 r........
4 .......r.
5 ........r
6 .........
7 .........
8 .r.......
9 .........
0 ....r....
1 .........
2 .........
3 ....r..r.

Turn = 1060.
  012345678
0 r..r...r.
1 r........
2 .....r...
3 ......r..
4 .........
5 .........
6 .........
7 r........
8 .........
9 .........
0 r........
1 .........
2 .........
3 .........

Turn = 1113.
  012345678
0 ........r
1 ...r.....
2 ......r..
3 ........r
4 ..r.....r
5 ......rr.
6 .........
7 .........
8 .........
9 .........
0 .........
1 .........
2 .........
3 .........

Turn = 1166.
  012345678
0 rr.......
1 r........
2 r........
3 .r.......
4 .........
5 .........
6 ........r
7 .........
8 .........
9 .........
0 .........
1 .........
2 ...r.....
3 ........r

Turn = 1219.
  012345678
0 ........r
1 ....r....
2 .....rr..
3 .........
4 .........
5 ........r
6 .........
7 .........
8 .........
9 r........
0 .........
1 .........
2 .........
3 rr.......

Turn = 1272.
  012345678
0 .......r.
1 .....r...
2 .....r..r
3 .....r...
4 .........
5 .........
6 r........
7 .........
8 r........
9 .........
0 .........
1 ........r
2 .........
3 .........

*** Darwin 10x20 ***
Turn = 0.
  01234567890123456789
0 ....................
1 ....................
2 .........h..........
3 ....................
4 ....................
5 ....................
6 ....................
7 ...r................
8 ....................
9 ....................

Turn = 17.
  01234567890123456789
0 ....................
1 r...................
2 ....................
3 ....................
4 ....................
5 ....................
6 ....................
7 ....................
8 ....................
9 .........h..........

Turn = 34.
  01234567890123456789
0 ...............r....
1 ....................
2 ....................
3 ....................
4 ....................
5 ....................
6 ....................
7 ....................
8 ....................
9 .........h..........

Turn = 51.
  01234567890123456789
0 ....................
1 ....................
2 ....................
3 ....................
4 ....................
5 ....................
6 ....................
7 ....................
8 ...................r
9 .........h..........

Turn = 68.
  01234567890123456789
0 ....................
1 ....................
2 ....................
3 ....................
4 ....................
5 ....................
6 ....................
7 ...................r
8 ....................
9 .........h..........

Turn = 85.
  01234567890123456789
0 ....................
1 ....................
2 ....................
3 ....................
4 ....................
5 ....................
6 ....................
7 ....................
8 ....................
9 .........rr.........

Turn = 102.
  01234567890123456789
0 ....r...............
1 ....................
2 ....................
3 ....................
4 ....................
5 ....................
6 ....................
7 ....................
8 ....................
9 .................r..

Turn = 119.
  01234567890123456789
0 ....................
1 ....................
2 ....................
3 ....................
4 ....................
5 ....................
6 ....................
7 ....................
8 ....................
9 .rr.................

Turn = 136.
  01234567890123456789
0 ..r.................
1 ....................
2 ....................
3 ....................
4 ....................
5 ....................
6 ....................
7 ....................
8 ....................
9 .............r......

Turn = 153.
  01234567890123456789
0 ...................r
1 ....................
2 ....................
3 ....................
4 ....................
5 ....................
6 ....................
7 ....................
8 ....................
9 ..............r.....

Turn = 170.
  01234567890123456789
0 ....................
1 ....................
2 ....................
3 ....................
4 ....................
5 ....................
6 ....................
7 ....................
8 ....................
9 r............r......

Turn = 187.
  01234567890123456789
0 ......rr............
1 ....................
2 ....................
3 ....................
4 ....................
5 ....................
6 ....................
7 ....................
8 ....................
9 ....................

Turn = 204.
  01234567890123456789
0 ....................
1 ....................
2 ....................
3 ....................
4 ...................r
5 ....................
6 ....................
7 r...................
8 ....................
9 ....................

Turn = 221.
  01234567890123456789
0 ...................r
1 ....................
2 ....................
3 ....................
4 ....................
5 ....................
6 ....................
7 ....................
8 ....................
9 ..............r.....

Turn = 238.
  01234567890123456789
0 ....................
1 ....................
2 ...................r
3 ....................
4 ....................
5 ....................
6 ....................
7 ....................
8 ............r.......
9 ....................

Turn = 255.
  01234567890123456789
0 ....................
1 ....................
2 ....................
3 ....................
4 r...................
5 ....................
6 ....................
7 ....................
8 ....................
9 ...................r

Turn = 272.
  01234567890123456789
0 ............r...r...
1 ....................
2 ....................
3 ....................
4 ....................
5 ....................
6 ....................
7 ....................
8 ....................
9 ....................

Turn = 289.
  01234567890123456789
0 .r..................
1 ....................
2 ....................
3 ....................
4 ....................
5 ....................
6 ....................
7 ....................
8 ....................
9 ..................r.

Turn = 306.
  01234567890123456789
0 ....................
1 ....................
2 ....................
3 ....................
4 ....................
5 ....................
6 ....................
7 ....................
8 ....................
9 ...r.r..............

Turn = 323.
  01234567890123456789
0 r...................
1 ....................
2 ....................
3 ....................
4 ....................
5 ....................
6 ....................
7 ....................
8 ....................
9 ........r...........

Turn = 340.
  01234567890123456789
0 ....................
1 ....................
2 ....................
3 r...................
4 ...................r
5 ....................
6 ....................
7 ....................
8 ....................
9 ....................

Turn = 357.
  01234567890123456789
0 ....................
1 ....................
2 ....................
3 ....................
4 ....................
5 ....................
6 ....................
7 ....................
8 ....................
9 r.................r.

Turn = 374.
  01234567890123456789
0 ....................
1 ....................
2 .........r..........
3 ....................
4 ....................
5 ....................
6 ....................
7 ....................
8 ....................
9 ...r................

Turn = 391.
  01234567890123456789
0 rr..................
1 ....................
2 ....................
3 ....................
4 ....................
5 ....................
6 ....................
7 ....................
8 ....................
9 ....................

Turn = 408.
  01234567890123456789
0 ................r.r.
1 ....................
2 ....................
3 ....................
4 ....................
5 ....................
6 ....................
7 ....................
8 ....................
9 ....................

Turn = 425.
  01234567890123456789
0 ....................
1 ....................
2 ....................
3 ....................
4 ....................
5 ...................r
6 ....................
7 ....................
8 ....................
9 ..............r.....

Turn = 442.
  01234567890123456789
0 ....................
1 ....................
2 ....................
3 ....................
4 ....................
5 ....................
6 ....................
7 ....................
8 ....................
9 r..................r

Turn = 459.
  01234567890123456789
0 ....................
1 ....................
2 ....................
3 ....................
4 ....................
5 ....................
6 r...................
7 ....................
8 ....................
9 ......r.............

Turn = 476.
  01234567890123456789
0 rr..................
1 ....................
2 ....................
3 ....................
4 ....................
5 ....................
6 ....................
7 ....................
8 ....................
9 ....................

Turn = 493.
  01234567890123456789
0 .......r............
1 ....................
2 ....................
3 ....................
4 r...................
5 ....................
6 ....................
7 ....................
8 ....................
9 ....................

Turn = 510.
  01234567890123456789
0 ...................r
1 ....................
2 ....................
3 ....................
4 ....................
5 ....................
6 ....................
7 ....................
8 ....................
9 .r..................

Turn = 527.
  01234567890123456789
0 ...r................
1 ....................
2 ....................
3 ....................
4 ....................
5 ....................
6 ....................
7 ....................
8 ....................
9 ..................r.

*** Darwin 10x15 ***
Turn = 0.
  012345678901234
0 ...............
1 ...............
2 .t.............
3 ..............f
4 ...r...........
5 ............f..
6 ...............
7 ...............
8 ...............
9 ...........f...

Turn = 154.
  012345678901234
0 .r...r.........
1 ...............
2 ...............
3 ...............
4 r..............
5 ..............r
6 r..............
7 ...............
8 ...............
9 ...............

Turn = 308.
  012345678901234
0 .r.......r.....
1 r..............
2 ...............
3 ...............
4 ..............r
5 ...............
6 ...............
7 ...............
8 ...............
9 ........r......

Turn = 462.
  012345678901234
0 .........r.....
1 .....r.........
2 ...............
3 ...............
4 ...............
5 ...............
6 r.............r
7 ...............
8 ...............
9 ..............r

Turn = 616.
  012345678901234
0 r..........r...
1 ...............
2 .........r....r
3 ...............
4 ...............
5 ..............r
6 ...............
7 ...............
8 ...............
9 ...............

Turn = 770.
  012345678901234
0 rr.............
1 ...............
2 ...........r..r
3 ...............
4 ...............
5 ...............
6 ...............
7 ...............
8 ...r...........
9 ...............

Turn = 924.
  012345678901234
0 ..rr...........
1 ...............
2 ...............
3 ...............
4 ...............
5 ...............
6 ...............
7 ...............
8 ..............r
9 ....r.........r

Turn = 1078.
  012345678901234
0 ...r...........
1 ...............
2 rr.............
3 ...............
4 r..............
5 ...............
6 ...............
7 ...............
8 ...............
9 ..............r

Turn = 1232.
  012345678901234
0 ..............r
1 .............r.
2 r..............
3 ..............r
4 ...............
5 ...............
6 ...............
7 ...............
8 ..............r
9 ...............

Turn = 1386.
  012345678901234
0 r........r.r...
1 ...............
2 ...............
3 ...............
4 ...............
5 ...............
6 ...............
7 ...............
8 ...............
9 .............rr

Turn = 1540.
  012345678901234
0 r.r......r.....
1 ...............
2 ..............r
3 ...............
4 ...............
5 ...............
6 ...............
7 ........r......
8 ...............
9 ...............

Turn = 1694.
  012345678901234
0 .........rr...r
1 .............r.
2 ...............
3 ...............
4 ...............
5 ...............
6 ...............
7 ...............
8 ...............
9 ............r..

Turn = 1848.
  012345678901234
0 ..............r
1 ...............
2 ...............
3 ...............
4 .r.............
5 ...............
6 ..............r
7 ...............
8 ...............
9 rr.............

*** Darwin 15x17 ***
Turn = 0.
  01234567890123456
0 .................
1 .................
2 .................
3 .................
4 .............t...
5 .................
6 ....f............
7 .................
8 .........f.......
9 .................
0 ........h........
1 .................
2 ..t...h..........
3 ........t.......r
4 .................

Turn = 167.
  01234567890123456
0 .............r...
1 .................
2 .................
3 .................
4 .............t...
5 .................
6 ....f............
7 .........r.......
8 .................
9 .................
0 .................
1 .................
2 ..t..............
3 ........tt.......
4 .........t.......

Turn = 334.
  01234567890123456
0 ..........r......
1 ...........r.....
2 ...........r.....
3 .................
4 .............t...
5 .................
6 ....f............
7 .................
8 .................
9 .................
0 .........r.......
1 .........r.......
2 .................
3 .................
4 ......r..........

Turn = 501.
  01234567890123456
0 ...............rr
1 .................
2 .................
3 .................
4 .............t...
5 .............t...
6 .........r.......
7 .................
8 .................
9 ....r............
0 .................
1 .................
2 .................
3 .r...............
4 .......r.........

Turn = 668.
  01234567890123456
0 ......r..........
1 .................
2 .................
3 .................
4 .............t...
5 .............t...
6 .................
7 .................
8 .................
9 .................
0 .................
1 .................
2 ...............r.
3 ...r.............
4 ..r....r.....r...

Turn = 835.
  01234567890123456
0 .........r.r.....
1 ...........r.....
2 .................
3 .................
4 .............t..r
5 .............t...
6 .............t...
7 r................
8 .................
9 .................
0 .................
1 .................
2 .................
3 .................
4 .................

Turn = 1002.
  01234567890123456
0 ..............r..
1 ......r..........
2 .................
3 .................
4 .............tt..
5 r............t...
6 .............t...
7 .................
8 .r...............
9 .................
0 .................
1 .................
2 .................
3 .................
4 .................

Turn = 1169.
  01234567890123456
0 r................
1 .................
2 .................
3 .............t...
4 .............tt..
5 .............t...
6 .............t...
7 .................
8 .................
9 .................
0 .................
1 ................r
2 .................
3 .................
4 ................r

Turn = 1336.
  01234567890123456
0 ............r....
1 ...............r.
2 ................r
3 .................
4 .............tt..
5 .............t...
6 .............t...
7 .................
8 .................
9 .................
0 r................
1 .................
2 .................
3 .................
4 .................

*** Darwin 14x10 ***
Turn = 0.
  0123456789
0 ..th......
1 ....r.....
2 ..........
3 ..........
4 f..h......
5 ..........
6 ..........
7 ..........
8 ..........
9 ......t...
0 ....h.....
1 ..........
2 ..........
3 ..........

Turn = 72.
  0123456789
0 .......r..
1 .......r..
2 r.........
3 ..........
4 ..........
5 ..........
6 ..........
7 ..........
8 ..........
9 ..........
0 ..........
1 r.........
2 ....r.....
3 r.....r...

Turn = 144.
  0123456789
0 r.........
1 rr.....r..
2 ..........
3 ...r......
4 ..........
5 ..........
6 ..........
7 r.........
8 ..........
9 ..........
0 ..........
1 ..........
2 ..........
3 .........r

Turn = 216.
  0123456789
0 ..........
1 ..........
2 .....rr...
3 ......r...
4 .......r..
5 ..........
6 ..........
7 ..........
8 ..........
9 ..........
0 ..........
1 ..........
2 ..r.......
3 rr........

Turn = 288.
  0123456789
0 ...r......
1 r.........
2 ..........
3 ...r......
4 ..........
5 ..........
6 .....r..r.
7 ..........
8 .........r
9 ....r.....
0 ..........
1 ..........
2 ..........
3 ..........

Turn = 360.
  0123456789
0 ...rr.....
1 .....r....
2 ..........
3 ..........
4 r.........
5 ..........
6 ..........
7 ..........
8 .r........
9 ..........
0 ..........
1 ..........
2 ..........
3 r.r.......

Turn = 432.
  0123456789
0 r...r.....
1 .........r
2 ..........
3 ..........
4 r.r.......
5 ..........
6 ..........
7 ..........
8 r.........
9 r.........
0 ..........
1 ..........
2 ..........
3 ..........

Turn = 504.
  0123456789
0 ..........
1 ....r.....
2 .........r
3 ..........
4 ..........
5 ..........
6 ........rr
7 ..........
8 ..........
9 ..........
0 ..........
1 ..........
2 ..r.......
3 r...r.....

Turn = 576.
  0123456789
0 r.........
1 r.........
2 ..........
3 ..........
4 ..........
5 ..........
6 ..........
7 ..........
8 .......r.r
9 ..........
0 ..r.......
1 ..........
2 .r........
3 r.........

Turn = 648.
  0123456789
0 r..r......
1 rr........
2 r.........
3 .r........
4 ..r.......
5 ..........
6 ..........
7 ..........
8 ..........
9 ..........
0 ..........
1 ..........
2 ..........
3 ..........

Turn = 720.
  0123456789
0 ..........
1 ...r......
2 ...r......
3 r.........
4 ..........
5 ..........
6 r.........
7 ..........
8 ..........
9 r.........
0 ........r.
1 ..........
2 ..........
3 ........r.

Turn = 792.
  0123456789
0 .r...r...r
1 ..........
2 ..........
3 ..........
4 .........r
5 ..........
6 .........r
7 ..........
8 ..........
9 ..........
0 ..........
1 ..........
2 ..........
3 rr........

Turn = 864.
  0123456789
0 .........r
1 ..........
2 r.........
3 .........r
4 .......r..
5 ..........
6 ..........
7 ..........
8 ..........
9 ..........
0 ..........
1 ..r.......
2 .rr.......
3 ..........

Turn = 936.
  0123456789
0 .r........
1 ..........
2 ..........
3 .........r
4 .........r
5 ..........
6 .........r
7 r.........
8 ..........
9 ..........
0 ..........
1 ..........
2 r....r....
3 ..........

Turn = 1008.
  0123456789
0 ........rr
1 ..........
2 ..........
3 .......r.r
4 ..........
5 ....r.....
6 ..........
7 ..........
8 ..........
9 ..........
0 ....r.....
1 ..........
2 ..........
3 ...r......

Turn = 1080.
  0123456789
0 .........r
1 ..........
2 r.........
3 ..........
4 ..........
5 ..........
6 ..........
7 ..........
8 ..........
9 ........r.
0 ..........
1 .r........
2 ....r.....
3 ....r.r...

*** Darwin 20x1 ***
Turn = 0.
  0
0 f
1 .
2 h
3 .
4 .
5 .
6 h
7 .
8 .
9 t
0 .
1 t
2 .
3 .
4 .
5 .
6 r
7 .
8 t
9 .

Turn = 143.
  0
0 r
1 r
2 r
3 r
4 .
5 r
6 r
7 .
8 .
9 .
0 .
1 .
2 .
3 .
4 .
5 .
6 r
7 .
8 .
9 .

Turn = 286.
  0
0 .
1 .
2 .
3 r
4 r
5 r
6 r
7 r
8 .
9 .
0 r
1 r
2 .
3 .
4 .
5 .
6 .
7 .
8 .
9 .

Turn = 429.
  0
0 .
1 .
2 r
3 r
4 r
5 r
6 r
7 r
8 .
9 .
0 .
1 .
2 r
3 .
4 .
5 .
6 .
7 .
8 .
9 .

Turn = 572.
  0
0 .
1 .
2 .
3 .
4 .
5 .
6 .
7 .
8 .
9 .
0 .
1 r
2 .
3 r
4 r
5 r
6 r
7 .
8 r
9 r

Turn = 715.
  0
0 .
1 .
2 .
3 .
4 .
5 .
6 r
7 r
8 r
9 r
0 r
1 r
2 .
3 .
4 .
5 .
6 .
7 .
8 r
9 .

Turn = 858.
  0
0 .
1 .
2 .
3 r
4 .
5 .
6 .
7 .
8 .
9 r
0 r
1 r
2 .
3 .
4 r
5 .
6 r
7 r
8 .
9 .

Turn = 1001.
  0
0 .
1 .
2 .
3 .
4 .
5 .
6 .
7 .
8 .
9 .
0 .
1 .
2 r
3 .
4 r
5 r
6 r
7 r
8 r
9 r

Turn = 1144.
  0
0 r
1 r
2 .
3 .
4 .
5 r
6 r
7 .
8 r
9 .
0 r
1 .
2 .
3 r
4 .
5 .
6 .
7 .
8 .
9 .

Turn = 1287.
  0
0 r
1 r
2 r
3 r
4 .
5 .
6 r
7 r
8 r
9 .
0 .
1 .
2 .
3 .
4 .
5 .
6 .
7 .
8 .
9 .

Turn = 1430.
  0
0 .
1 .
2 .
3 r
4 .
5 r
6 .
7 .
8 .
9 .
0 .
1 .
2 .
3 .
4 .
5 r
6 r
7 r
8 r
9 r

Turn = 1573.
  0
0 .
1 .
2 .
3 .
4 .
5 .
6 r
7 .
8 r
9 .
0 .
1 .
2 .
3 r
4 r
5 r
6 .
7 .
8 r
9 r

Turn = 1716.
  0
0 r
1 r
2 .
3 .
4 r
5 .
6 .
7 r
8 r
9 r
0 .
1 r
2 .
3 .
4 .
5 .
6 .
7 .
8 .
9 .

Turn = 1859.
  0
0 .
1 .
2 .
3 .
4 .
5 .
6 .
7 .
8 r
9 .
0 .
1 .
2 .
3 .
4 r
5 r
6 r
7 r
8 r
9 r

*** Darwin 3x14 ***
Turn = 0.
  01234567890123
0 ..t...r......r
1 t..h......t...
2 .r......t.....

Turn = 176.
  01234567890123
0 ..r....r.....r
1 rr............
2 .r....r....r..

Turn = 352.
  01234567890123
0 ........r..r..
1 ...........r..
2 .........rrrrr

Turn = 528.
  01234567890123
0 ....rr.rr.....
1 rr.r.r........
2 ..............

Turn = 704.
  01234567890123
0 .rr.....r...r.
1 .............r
2 r......r...r..

Turn = 880.
  01234567890123
0 .r...r........
1 .....r......r.
2 ...r..r.....rr

*** Darwin 12x20 ***
Turn = 0.
  01234567890123456789
0 ....................
1 ............r...t...
2 ....................
3 ..t........t........
4 ....................
5 ....................
6 ....................
7 ....h...............
8 ....................
9 ....................
0 ...................t
1 .................h..

Turn = 37.
  01234567890123456789
0 ...................r
1 ................t...
2 ....................
3 ..t........t........
4 ....................
5 ....................
6 ....................
7 ...................h
8 ....................
9 ....................
0 ...................t
1 ...................t

Turn = 74.
  01234567890123456789
0 r...............t...
1 ................t...
2 ....................
3 ..t........t........
4 ....................
5 ....................
6 ....................
7 r...................
8 ....................
9 ....................
0 ....................
1 ....r...............

Turn = 111.
  01234567890123456789
0 r...................
1 ................t.r.
2 ...................r
3 ...........r........
4 ..........r.........
5 ....................
6 ....................
7 ....................
8 ....................
9 ....................
0 ...................r
1 ....................

Turn = 148.
  01234567890123456789
0 ................r...
1 ...............r.r..
2 ....................
3 ....................
4 ....................
5 ....................
6 ...........r........
7 ............r.......
8 ....................
9 ....................
0 ....................
1 r..................r

Turn = 185.
  01234567890123456789
0 ...................r
1 r...r....r..........
2 ....r...............
3 r...................
4 ....................
5 ....................
6 ....................
7 ....................
8 ....................
9 ....................
0 ....................
1 .........r..........

Turn = 222.
  01234567890123456789
0 ......r.............
1 ....................
2 r...................
3 ....................
4 ....................
5 ....................
6 ....................
7 ....................
8 ....................
9 r...................
0 r...................
1 ....r..rr...........

Turn = 259.
  01234567890123456789
0 ........r......rr...
1 .................r..
2 ....................
3 ....................
4 ..................rr
5 ....................
6 ....................
7 ....................
8 ....................
9 ....................
0 ....................
1 ...................r

Turn = 296.
  01234567890123456789
0 .r...r..............
1 .....r..............
2 r...................
3 ....................
4 ....................
5 ....................
6 ....................
7 ....................
8 rr..................
9 ....................
0 .......r............
1 ....................

Turn = 333.
  01234567890123456789
0 ........rr..........
1 ....................
2 ....................
3 ....................
4 ....................
5 ....................
6 ...................r
7 ....................
8 ..............r.....
9 ...............r...r
0 ....................
1 ...............r....

Turn = 370.
  01234567890123456789
0 ..r.................
1 ....................
2 ....................
3 ....................
4 ....................
5 ....................
6 .....r..............
7 ....................
8 r...................
9 ....................
0 .........r.r....r...
1 ..........r.........

Turn = 407.
  01234567890123456789
0 .r................rr
1 ....................
2 ..r................r
3 .....r..............
4 ....................
5 ....................
6 ....................
7 ....................
8 ....................
9 ....................
0 .........r..........
1 ....................

Turn = 444.
  01234567890123456789
0 .........r..........
1 ....................
2 ....................
3 ....................
4 ..r.r...............
5 ...................r
6 ....................
7 ....................
8 ....................
9 ....................
0 r.................r.
1 .........r..........

Turn = 481.
  01234567890123456789
0 r.rrr...............
1 ..r.................
2 ....................
3 ....................
4 ....................
5 ....................
6 ....................
7 r...................
8 ....................
9 ....................
0 ....................
1 ................r...

Turn = 518.
  01234567890123456789
0 ....................
1 ....................
2 r...................
3 .r..................
4 ....................
5 r...................
6 ...........rr.......
7 ....................
8 ....................
9 ...................r
0 ....................
1 ...................r

Turn = 555.
  01234567890123456789
0 r.......r...........
1 rr..................
2 ....................
3 .....r..............
4 ....................
5 ....................
6 ....................
7 ....................
8 ....................
9 ....................
0 .....r..............
1 ......r.............

Turn = 592.
  01234567890123456789
0 ............r.......
1 ....................
2 ....................
3 ....................
4 r...................
5 ....................
6 ....................
7 ....................
8 ....................
9 ....................
0 .....r.............r
1 .r......r..........r

Turn = 629.
  01234567890123456789
0 ...................r
1 ....................
2 ....................
3 ..............r.....
4 r...................
5 ....................
6 ....................
7 ....................
8 ...r......r.........
9 .........r.........r
0 ....................
1 ....................

Turn = 666.
  01234567890123456789
0 ...........r..r.....
1 .............r......
2 ........r...........
3 ....................
4 ....................
5 ...................r
6 ....................
7 ....................
8 r...................
9 ....................
0 ....................
1 .....r..............

Turn = 703.
  01234567890123456789
0 ................r...
1 ...................r
2 ....................
3 ....................
4 ................rr..
5 r...................
6 ....................
7 ....................
8 ....................
9 ....................
0 ....................
1 ....rr..............

Turn = 740.
  01234567890123456789
0 .........r.....r....
1 ....................
2 ...................r
3 ....................
4 ....................
5 ....................
6 r...................
7 ....................
8 ....................
9 ....................
0 rr..................
1 ..................r.

Turn = 777.
  01234567890123456789
0 ........r..r...r....
1 ....................
2 ....................
3 ....................
4 ....................
5 r...................
6 ...................r
7 ....................
8 ....................
9 ...........r........
0 ....................
1 .............r......

Turn = 814.
  01234567890123456789
0 r..........r........
1 ....................
2 ....................
3 ....................
4 ....................
5 .................r..
6 ...............r....
7 r...................
8 ...........r........
9 ....................
0 ....................
1 ..............r.....

Turn = 851.
  01234567890123456789
0 .........r.........r
1 ....................
2 ....................
3 ....................
4 ....................
5 ....................
6 .................r..
7 ..................r.
8 ....................
9 ....................
0 .................r..
1 .................r.r

Turn = 888.
  01234567890123456789
0 .........r..........
1 .....r..r...........
2 .....r..............
3 ....................
4 ....................
5 ....................
6 ....................
7 ....................
8 ....................
9 ....................
0 .......r............
1 ......rr............

Turn = 925.
  01234567890123456789
0 r...............r...
1 ....................
2 ...................r
3 ....................
4 ....................
5 ....................
6 ....................
7 ....................
8 ....................
9 ...............r....
0 ....................
1 r....r............r.

Turn = 962.
  01234567890123456789
0 ...........r........
1 .............rr.....
2 ....................
3 .............r......
4 ....................
5 ....................
6 ....................
7 ....................
8 r...................
9 ....................
0 ....................
1 ...r...............r

Turn = 999.
  01234567890123456789
0 .r.r.r..........r...
1 ...r................
2 ....r...............
3 ....................
4 ....................
5 ....................
6 ....................
7 ....................
8 ....................
9 ....................
0 ....................
1 .......r............

Turn = 1036.
  01234567890123456789
0 ...............r....
1 ....................
2 .............r......
3 ......r.............
4 ....................
5 ....................
6 ....................
7 ....................
8 ...............r....
9 ....................
0 ...............r....
1 ..............r....r

Turn = 1073.
  01234567890123456789
0 ..........r........r
1 ....................
2 ....................
3 ...................r
4 ....................
5 ....................
6 ....................
7 ....................
8 ....................
9 ....................
0 ....................
1 r......r..........rr

Turn = 1110.
  01234567890123456789
0 ....................
1 ....................
2 ....................
3 ....................
4 ....................
5 ...................r
6 ..................r.
7 ....................
8 ....................
9 .....r..............
0 ......r.............
1 ........r.........rr

Turn = 1147.
  01234567890123456789
0 ..r..........rr.....
1 r...................
2 ....................
3 ....................
4 ....................
5 ....................
6 ....................
7 ....................
8 r...................
9 ....................
0 ....................
1 ...r...............r

Turn = 1184.
  01234567890123456789
0 ..............r.....
1 ............r.......
2 ....................
3 .................r..
4 r...................
5 ....................
6 ....................
7 ....................
8 ....................
9 ....................
0 ..............r.....
1 r.................r.

Turn = 1221.
  01234567890123456789
0 ............r.......
1 ....................
2 ....................
3 ....................
4 ...............r....
5 ....................
6 ....................
7 ....................
8 ....................
9 r.............r.....
0 ..............r.....
1 r.....r.............

Turn = 1258.
  01234567890123456789
0 r....r..............
1 ....................
2 ....................
3 ................r..r
4 ....................
5 ....................
6 ....................
7 ....................
8 ....................
9 ....................
0 ....................
1 r.......r....r......

Turn = 1295.
  01234567890123456789
0 ...........r.r......
1 ....................
2 ...................r
3 ....................
4 ..........r.........
5 r...................
6 ....................
7 ....................
8 ....................
9 ....................
0 ......r.............
1 ...r................

Turn = 1332.
  01234567890123456789
0 .........r....r.....
1 ....................
2 ....................
3 ...................r
4 ....................
5 r...................
6 r...................
7 ....................
8 r...................
9 ....................
0 .......r............
1 ....................

Turn = 1369.
  01234567890123456789
0 r...r.............r.
1 r...................
2 ....................
3 ...................r
4 ...................r
5 ....................
6 ....................
7 ....................
8 ................r...
9 ....................
0 ....................
1 ....................

Turn = 1406.
  01234567890123456789
0 ..........r......r..
1 ....................
2 ....................
3 ............r.......
4 r...................
5 ....................
6 ....................
7 ....................
8 ....................
9 ....................
0 .......r............
1 .r....r.............

*** Darwin 6x1 ***
Turn = 0.
  0
0 f
1 f
2 f
3 .
4 t
5 t

Turn = 65.
  0
0 f
1 f
2 f
3 .
4 t
5 t

Turn = 130.
  0
0 f
1 f
2 f
3 .
4 t
5 t

Turn = 195.
  0
0 f
1 f
2 f
3 .
4 t
5 t

Turn = 260.
  0
0 f
1 f
2 f
3 .
4 t
5 t

Turn = 325.
  0
0 f
1 f
2 f
3 .
4 t
5 t

Turn = 390.
  0
0 f
1 f
2 f
3 .
4 t
5 t

Turn = 455.
  0
0 f
1 f
2 f
3 .
4 t
5 t

Turn = 520.
  0
0 f
1 f
2 f
3 .
4 t
5 t

Turn = 585.
  0
0 f
1 f
2 f
3 .
4 t
5 t

Turn = 650.
  0
0 f
1 f
2 f
3 .
4 t
5 t

Turn = 715.
  0
0 f
1 f
2 f
3 .
4 t
5 t

Turn = 780.
  0
0 f
1 f
2 f
3 .
4 t
5 t

Turn = 845.
  0
0 f
1 f
2 f
3 .
4 t
5 t

Turn = 910.
  0
0 f
1 f
2 f
3 .
4 t
5 t

Turn = 975.
  0
0 f
1 f
2 f
3 .
4 t
5 t

Turn = 1040.
  0
0 f
1 f
2 f
3 .
4 t
5 t

Turn = 1105.
  0
0 f
1 f
2 f
3 .
4 t
5 t

Turn = 1170.
  0
0 f
1 f
2 f
3 .
4 t
5 t

Turn = 1235.
  0
0 f
1 f
2 f
3 .
4 t
5 t

Turn = 1300.
  0
0 f
1 f
2 f
3 .
4 t
5 t

Turn = 1365.
  0
0 f
1 f
2 f
3 .
4 t
5 t

*** Darwin 2x2 ***
Turn = 0.
  01
0 t.
1 fh

Turn = 49.
  01
0 t.
1 tt

Turn = 98.
  01
0 t.
1 tt

Turn = 147.
  01
0 t.
1 tt

Turn = 196.
  01
0 t.
1 tt

Turn = 245.
  01
0 t.
1 tt

Turn = 294.
  01
0 t.
1 tt

Turn = 343.
  01
0 t.
1 tt

*** Darwin 17x7 ***
Turn = 0.
  0123456
0 .......
1 .......
2 .......
3 .......
4 .......
5 .......
6 .......
7 .......
8 ...h.h.
9 .......
0 .......
1 .t.....
2 .......
3 .......
4 ...t...
5 .......
6 .......

Turn = 168.
  0123456
0 .......
1 .......
2 .......
3 .......
4 .......
5 .......
6 .......
7 .......
8 ......h
9 .......
0 .......
1 .t.....
2 .......
3 .......
4 ...t...
5 .......
6 .....h.

Turn = 336.
  0123456
0 .......
1 .......
2 .......
3 .......
4 .......
5 .......
6 .......
7 .......
8 ......h
9 .......
0 .......
1 .t.....
2 .......
3 .......
4 ...t...
5 .......
6 .....h.

Turn = 504.
  0123456
0 .......
1 .......
2 .......
3 .......
4 .......
5 .......
6 .......
7 .......
8 ......h
9 .......
0 .......
1 .t.....
2 .......
3 .......
4 ...t...
5 .......
6 .....h.

Turn = 672.
  0123456
0 .......
1 .......
2 .......
3 .......
4 .......
5 .......
6 .......
7 .......
8 ......h
9 .......
0 .......
1 .t.....
2 .......
3 .......
4 ...t...
5 .......
6 .....h.

Turn = 840.
  0123456
0 .......
1 .......
2 .......
3 .......
4 .......
5 .......
6 .......
7 .......
8 ......h
9 .......
0 .......
1 .t.....
2 .......
3 .......
4 ...t...
5 .......
6 .....h.

Turn = 1008.
  0123456
0 .......
1 .......
2 .......
3 .......
4 .......
5 .......
6 .......
7 .......
8 ......h
9 .......
0 .......
1 .t.....
2 .......
3 .......
4 ...t...
5 .......
6 .....h.

Turn = 1176.
  0123456
0 .......
1 .......
2 .......
3 .......
4 .......
5 .......
6 .......
7 .......
8 ......h
9 .......
0 .......
1 .t.....
2 .......
3 .......
4 ...t...
5 .......
6 .....h.

Turn = 1344.
  0123456
0 .......
1 .......
2 .......
3 .......
4 .......
5 .......
6 .......
7 .......
8 ......h
9 .......
0 .......
1 .t.....
2 .......
3 .......
4 ...t...
5 .......
6 .....h.

*** Darwin 20x14 ***
Turn = 0.
  01234567890123
0 ..............
1 ..............
2 ..............
3 ..............
4 ..............
5 ..............
6 ..............
7 ...........t..
8 .............t
9 ..............
0 ........t.....
1 ..............
2 ..............
3 .....f........
4 .............h
5 ..............
6 ..............
7 ..............
8 t....t........
9 ..............

Turn = 184.
  01234567890123
0 ..............
1 ..............
2 ..............
3 ..............
4 ..............
5 ..............
6 ..............
7 ...........t..
8 .............t
9 ..............
0 ........t.....
1 ..............
2 ..............
3 .....f........
4 h.............
5 ..............
6 ..............
7 ..............
8 t....t........
9 ..............

Turn = 368.
  01234567890123
0 ..............
1 ..............
2 ..............
3 ..............
4 ..............
5 ..............
6 ..............
7 ...........t..
8 .............t
9 ..............
0 ........t.....
1 ..............
2 ..............
3 .....f........
4 h.............
5 ..............
6 ..............
7 ..............
8 t....t........
9 ..............
