*** Darwin 9x4 ***
Turn = 0.
  0123
0 ....
1 ....
2 ....
3 ..h.
4 ....
5 ....
6 ....
7 ....
8 ....

Turn = 5.
  0123
0 ....
1 ....
2 ....
3 h...
4 ....
5 ....
6 ....
7 ....
8 ....

Turn = 10.
  0123
0 ....
1 ....
2 ....
3 h...
4 ....
5 ....
6 ....
7 ....
8 ....

*** Darwin 36x7 ***
Turn = 0.
  0123456
0 .......
1 .......
2 .......
3 .......
4 .......
5 .......
6 .......
7 .......
8 .......
9 .......
0 .......
1 .......
2 ....t..
3 .......
4 .......
5 .......
6 ......f
7 ...t...
8 .......
9 .......
0 ..r....
1 .......
2 .......
3 .......
4 .......
5 .......
6 .......
7 .......
8 .....t.
9 .....r.
0 .......
1 .......
2 .......
3 .......
4 .......
5 .h.f...

Turn = 9.
  0123456
0 .......
1 .......
2 .......
3 .......
4 .......
5 .......
6 .......
7 .......
8 .......
9 .......
0 .......
1 .......
2 ....t..
3 .......
4 .......
5 .......
6 ......f
7 ...t...
8 .......
9 .......
0 .......
1 .......
2 .......
3 .......
4 .......
5 .......
6 .......
7 .......
8 .....t.
9 ..r..t.
0 .......
1 .......
2 .......
3 .......
4 .......
5 h..f...

Turn = 18.
  0123456
0 .......
1 .......
2 .......
3 .......
4 .......
5 .......
6 .......
7 .......
8 .......
9 .......
0 .......
1 .......
2 ....t..
3 .......
4 .......
5 .......
6 ......f
7 ...t...
8 .......
9 .......
0 .......
1 .......
2 .......
3 .......
4 .......
5 .......
6 .......
7 .......
8 .....t.
9 .....t.
0 .......
1 .......
2 .......
3 .......
4 .......
5 rr.f...

Turn = 27.
  0123456
0 .......
1 .......
2 .......
3 .......
4 .......
5 .......
6 .......
7 .......
8 .......
9 .......
0 .......
1 .......
2 ....t..
3 .......
4 .......
5 .......
6 ......f
7 ...t...
8 .......
9 .......
0 .......
1 .......
2 .......
3 .......
4 .......
5 .......
6 .......
7 .r.....
8 .....t.
9 r....t.
0 .......
1 .......
2 .......
3 .......
4 .......
5 ...f...

*** Darwin 16x30 ***
Turn = 0.
  012345678901234567890123456789
0 .h............................
1 ..........t...................
2 ..............................
3 ....t.........................
4 ..............................
5 ..............................
6 ..............................
7 ..............................
8 ..............................
9 ..............................
0 ..............................
1 ................r.............
2 ..............................
3 ..............................
4 ..............................
5 ..............................

Turn = 9.
  012345678901234567890123456789
0 ..........h...................
1 ..........t...................
2 ..............................
3 ....t.........................
4 ..............................
5 ..............................
6 ..............................
7 ..............................
8 ..............................
9 ..............................
0 ..............................
1 ..............................
2 ..............................
3 ..............................
4 ..............................
5 ............r.................

*** Darwin 14x5 ***
Turn = 0.
  01234
0 ....t
1 .....
2 .....
3 ....r
4 .....
5 .....
6 r....
7 .....
8 .....
9 .....
0 .....
1 .h...
2 ...h.
3 r....

Turn = 4.
  01234
0 ....t
1 .....
2 .....
3 r....
4 .....
5 .....
6 ....r
7 .h...
8 .....
9 r....
0 .....
1 .....
2 .....
3 ...h.

Turn = 8.
  01234
0 r...t
1 .....
2 .....
3 .h..r
4 .....
5 r....
6 .....
7 .....
8 .....
9 .....
0 .....
1 .....
2 .....
3 ...h.

Turn = 12.
  01234
0 .h.rr
1 r...r
2 .....
3 .....
4 .....
5 .....
6 .....
7 .....
8 .....
9 .....
0 .....
1 .....
2 .....
3 ...h.

Turn = 16.
  01234
0 rrrr.
1 .....
2 .....
3 ...r.
4 .....
5 .....
6 .....
7 .....
8 .....
9 .....
0 .....
1 .....
2 .....
3 ...h.

*** Darwin 1x10 ***
Turn = 0.
  0123456789
0 ..r.......

Turn = 7.
  0123456789
0 .r........

Turn = 14.
  0123456789
0 ........r.

*** Darwin 22x17 ***
Turn = 0.
  01234567890123456
0 ......r..........
1 .................
2 .................
3 .................
4 .................
5 .....t...f.......
6 .................
7 ................h
8 .......f.........
9 .................
0 .....r...........
1 .................
2 .................
3 ...............r.
4 .................
5 .........r.......
6 ...t.............
7 .................
8 ..f......h....h..
9 .........f.......
0 .................
1 .................

Turn = 8.
  01234567890123456
0 .............r...
1 .................
2 .................
3 .....r...........
4 .................
5 ..r......f.......
6 .................
7 .................
8 .......f.........
9 .................
0 .................
1 .................
2 .................
3 .......r.........
4 ................h
5 ................r
6 ...t.............
7 .................
8 ..f........hh....
9 .........f.......
0 .................
1 .................

Turn = 16.
  01234567890123456
0 rr...............
1 .................
2 ................r
3 .................
4 .................
5 .........f.......
6 .................
7 .................
8 .......f.........
9 .................
0 .................
1 .................
2 .................
3 r................
4 ..........r......
5 .................
6 ...t.............
7 .................
8 ..f........hh....
9 .........f.......
0 ................r
1 .................

Turn = 24.
  01234567890123456
0 .................
1 .................
2 .................
3 .................
4 .................
5 .........f.......
6 r................
7 .r...............
8 .......f.........
9 .................
0 ................r
1 .................
2 .................
3 .................
4 ..r..............
5 .................
6 ...t.............
7 .................
8 ..f........hh....
9 .........f.......
0 .................
1 r.........r......

Turn = 32.
  01234567890123456
0 .................
1 .................
2 .................
3 .................
4 .................
5 .........f.......
6 .................
7 .................
8 .......f.........
9 .................
0 .................
1 .................
2 .................
3 .................
4 r................
5 .r...............
6 ...t.............
7 .................
8 ..f........hh...r
9 r...r....f.......
0 .................
1 ......r..........

Turn = 40.
  01234567890123456
0 .................
1 .................
2 .................
3 .................
4 .................
5 .........f.......
6 .................
7 .................
8 .......f.........
9 .................
0 .................
1 ....r............
2 .................
3 .................
4 .................
5 .................
6 ...t.............
7 .................
8 ..f........hh....
9 .........f.......
0 .r............r..
1 rr...........r...

*** Darwin 15x15 ***
Turn = 0.
  012345678901234
0 .............r.
1 ..........f....
2 ...............
3 ...............
4 .....r.........
5 ...............
6 ..t............
7 ...............
8 ........t......
9 ....f..........
0 .......t.....h.
1 ........h......
2 ...............
3 ...............
4 ...h...........

Turn = 4.
  012345678901234
0 ...............
1 ..........f....
2 ..............r
3 ...............
4 ...............
5 ...............
6 ..t............
7 ...............
8 .....r..t......
9 ....f..........
0 .......t.h.....
1 ............h..
2 ...............
3 ...............
4 .......h.......

Turn = 8.
  012345678901234
0 ...............
1 ..........f....
2 ...............
3 ...............
4 ...............
5 ...............
6 ..t...........r
7 ...............
8 ........t......
9 ....f..........
0 .......tt......
1 ..............h
2 .....r.........
3 ...............
4 ...........h...

Turn = 12.
  012345678901234
0 ...............
1 ..........f....
2 ...............
3 ...............
4 ...............
5 ...............
6 ..t............
7 ...............
8 ........t......
9 ....f..........
0 .......tt.....r
1 ..............h
2 ...............
3 ...............
4 ......r.......h

Turn = 16.
  012345678901234
0 ...............
1 ..........f....
2 ...............
3 ...............
4 ...............
5 ...............
6 ..t............
7 ...............
8 ........t......
9 ....f..........
0 .......tt...r..
1 ...............
2 ...............
3 ..............r
4 ..........r...r

Turn = 20.
  012345678901234
0 ...............
1 ..........f....
2 ...............
3 ...............
4 ...............
5 ...............
6 ..t............
7 ...............
8 ........t......
9 ....f..........
0 .......ttt.....
1 ...............
2 ..............r
3 ...........r...
4 ..............r

Turn = 24.
  012345678901234
0 ...............
1 ..........f....
2 ...............
3 ...............
4 ...............
5 ...............
6 ..t............
7 ...............
8 ........t.....r
9 ....f..........
0 .......ttt.....
1 ...............
2 ...............
3 .......r.......
4 ............r..

Turn = 28.
  012345678901234
0 ...............
1 ..........f....
2 ...............
3 ...............
4 ..............r
5 ...............
6 ..t............
7 ...............
8 ........t......
9 ....f..........
0 .......ttt.....
1 ...............
2 ...............
3 ...r...........
4 ........r......

Turn = 32.
  012345678901234
0 ..............r
1 ..........f....
2 ...............
3 ...............
4 ...............
5 ...............
6 ..t............
7 ...............
8 ........t......
9 ....f..........
0 .......ttt.....
1 ...............
2 ...............
3 r..............
4 ....r..........

Turn = 36.
  012345678901234
0 ..............r
1 ..........f....
2 ...............
3 ...............
4 ...............
5 ...............
6 ..t............
7 ...............
8 ........t......
9 ....f..........
0 .......ttt.....
1 ...............
2 ...............
3 ...............
4 rr.............

Turn = 40.
  012345678901234
0 ...........r...
1 ..........f....
2 ...............
3 ...............
4 ...............
5 ...............
6 ..t............
7 ...............
8 ........t......
9 ....f..........
0 .......ttt.....
1 ...............
2 ...............
3 r..............
4 ....r..........

Turn = 44.
  012345678901234
0 .......r.......
1 ..........f....
2 ...............
3 ...............
4 ...............
5 ...............
6 ..t............
7 ...............
8 ........t......
9 r...f..........
0 .......ttt.....
1 ...............
2 ...............
3 ...............
4 ........r......

Turn = 48.
  012345678901234
0 ...r...........
1 ..........f....
2 ...............
3 ...............
4 ...............
5 r..............
6 ..t............
7 ...............
8 ........t......
9 ....f..........
0 .......ttt.....
1 ...............
2 ...............
3 ...............
4 ............r..

*** Darwin 41x25 ***
Turn = 0.
  0123456789012345678901234
0 .........................
1 .........................
2 .........................
3 .........................
4 .........................
5 .........................
6 .........................
7 ...........r.............
8 .........................
9 .........................
0 .........................
1 .........................
2 .........................
3 .........................
4 .........................
5 .........................
6 .........................
7 .........................
8 .........................
9 .........................
0 .........................
1 .........................
2 .......................h.
3 .........................
4 .........................
5 .........................
6 .........................
7 .........................
8 .........................
9 .........................
0 .........................
1 .........................
2 .........................
3 .........................
4 .........................
5 .........................
6 .........................
7 .........................
8 .........................
9 .........................
0 .........................

Turn = 3.
  0123456789012345678901234
0 .........................
1 .........................
2 .........................
3 .........................
4 .........................
5 .........................
6 .........................
7 ..............r..........
8 .........................
9 .........................
0 .........................
1 .........................
2 .........................
3 .........................
4 .........................
5 .........................
6 .........................
7 .........................
8 .........................
9 .......................h.
0 .........................
1 .........................
2 .........................
3 .........................
4 .........................
5 .........................
6 .........................
7 .........................
8 .........................
9 .........................
0 .........................
1 .........................
2 .........................
3 .........................
4 .........................
5 .........................
6 .........................
7 .........................
8 .........................
9 .........................
0 .........................

Turn = 6.
  0123456789012345678901234
0 .........................
1 .........................
2 .........................
3 .........................
4 .........................
5 .........................
6 .........................
7 .................r.......
8 .........................
9 .........................
0 .........................
1 .........................
2 .........................
3 .........................
4 .........................
5 .........................
6 .......................h.
7 .........................
8 .........................
9 .........................
0 .........................
1 .........................
2 .........................
3 .........................
4 .........................
5 .........................
6 .........................
7 .........................
8 .........................
9 .........................
0 .........................
1 .........................
2 .........................
3 .........................
4 .........................
5 .........................
6 .........................
7 .........................
8 .........................
9 .........................
0 .........................

Turn = 9.
  0123456789012345678901234
0 .........................
1 .........................
2 .........................
3 .........................
4 .........................
5 .........................
6 .........................
7 ....................r....
8 .........................
9 .........................
0 .........................
1 .........................
2 .........................
3 .......................h.
4 .........................
5 .........................
6 .........................
7 .........................
8 .........................
9 .........................
0 .........................
1 .........................
2 .........................
3 .........................
4 .........................
5 .........................
6 .........................
7 .........................
8 .........................
9 .........................
0 .........................
1 .........................
2 .........................
3 .........................
4 .........................
5 .........................
6 .........................
7 .........................
8 .........................
9 .........................
0 .........................

Turn = 12.
  0123456789012345678901234
0 .........................
1 .........................
2 .........................
3 .........................
4 .........................
5 .........................
6 .........................
7 .......................r.
8 .........................
9 .........................
0 .......................h.
1 .........................
2 .........................
3 .........................
4 .........................
5 .........................
6 .........................
7 .........................
8 .........................
9 .........................
0 .........................
1 .........................
2 .........................
3 .........................
4 .........................
5 .........................
6 .........................
7 .........................
8 .........................
9 .........................
0 .........................
1 .........................
2 .........................
3 .........................
4 .........................
5 .........................
6 .........................
7 .........................
8 .........................
9 .........................
0 .........................

Turn = 15.
  0123456789012345678901234
0 .........................
1 .........................
2 .........................
3 .........................
4 .........................
5 .........................
6 .........................
7 .......................h.
8 ........................r
9 .........................
0 .........................
1 .........................
2 .........................
3 .........................
4 .........................
5 .........................
6 .........................
7 .........................
8 .........................
9 .........................
0 .........................
1 .........................
2 .........................
3 .........................
4 .........................
5 .........................
6 .........................
7 .........................
8 .........................
9 .........................
0 .........................
1 .........................
2 .........................
3 .........................
4 .........................
5 .........................
6 .........................
7 .........................
8 .........................
9 .........................
0 .........................

Turn = 18.
  0123456789012345678901234
0 .........................
1 .........................
2 .........................
3 .........................
4 .......................h.
5 .........................
6 .........................
7 .........................
8 .........................
9 .........................
0 .........................
1 ........................r
2 .........................
3 .........................
4 .........................
5 .........................
6 .........................
7 .........................
8 .........................
9 .........................
0 .........................
1 .........................
2 .........................
3 .........................
4 .........................
5 .........................
6 .........................
7 .........................
8 .........................
9 .........................
0 .........................
1 .........................
2 .........................
3 .........................
4 .........................
5 .........................
6 .........................
7 .........................
8 .........................
9 .........................
0 .........................

Turn = 21.
  0123456789012345678901234
0 .........................
1 .......................h.
2 .........................
3 .........................
4 .........................
5 .........................
6 .........................
7 .........................
8 .........................
9 .........................
0 .........................
1 .........................
2 .........................
3 .........................
4 ........................r
5 .........................
6 .........................
7 .........................
8 .........................
9 .........................
0 .........................
1 .........................
2 .........................
3 .........................
4 .........................
5 .........................
6 .........................
7 .........................
8 .........................
9 .........................
0 .........................
1 .........................
2 .........................
3 .........................
4 .........................
5 .........................
6 .........................
7 .........................
8 .........................
9 .........................
0 .........................

Turn = 24.
  0123456789012345678901234
0 .......................h.
1 .........................
2 .........................
3 .........................
4 .........................
5 .........................
6 .........................
7 .........................
8 .........................
9 .........................
0 .........................
1 .........................
2 .........................
3 .........................
4 .........................
5 .........................
6 .........................
7 ........................r
8 .........................
9 .........................
0 .........................
1 .........................
2 .........................
3 .........................
4 .........................
5 .........................
6 .........................
7 .........................
8 .........................
9 .........................
0 .........................
1 .........................
2 .........................
3 .........................
4 .........................
5 .........................
6 .........................
7 .........................
8 .........................
9 .........................
0 .........................

Turn = 27.
  0123456789012345678901234
0 .......................h.
1 .........................
2 .........................
3 .........................
4 .........................
5 .........................
6 .........................
7 .........................
8 .........................
9 .........................
0 .........................
1 .........................
2 .........................
3 .........................
4 .........................
5 .........................
6 .........................
7 .........................
8 .........................
9 .........................
0 ........................r
1 .........................
2 .........................
3 .........................
4 .........................
5 .........................
6 .........................
7 .........................
8 .........................
9 .........................
0 .........................
1 .........................
2 .........................
3 .........................
4 .........................
5 .........................
6 .........................
7 .........................
8 .........................
9 .........................
0 .........................

*** Darwin 9x8 ***
Turn = 0.
  01234567
0 f....t..
1 ........
2 ..h.....
3 t..t....
4 ........
5 ..h...h.
6 ....f...
7 r.......
8 .hft....

Turn = 10.
  01234567
0 f....t..
1 ........
2 t.......
3 r..t....
4 r.......
5 ......hh
6 ....f...
7 ........
8 .ttt....

Turn = 20.
  01234567
0 f....t..
1 ........
2 t.......
3 ...t....
4 .......r
5 ......hr
6 .r..f...
7 ........
8 .rtt....

Turn = 30.
  01234567
0 .rr..tr.
1 r.......
2 t.......
3 ...t....
4 .......r
5 ........
6 ...rf.r.
7 ........
8 ...r....

Turn = 40.
  01234567
0 ..r..r.r
1 .r......
2 ........
3 ...tt...
4 ...t....
5 ........
6 ........
7 ........
8 rrrr..r.

*** Darwin 4x29 ***
Turn = 0.
  01234567890123456789012345678
0 .............................
1 ...........................f.
2 .............................
3 .............................

Turn = 10.
  01234567890123456789012345678
0 .............................
1 ...........................f.
2 .............................
3 .............................

Turn = 20.
  01234567890123456789012345678
0 .............................
1 ...........................f.
2 .............................
3 .............................

Turn = 30.
  01234567890123456789012345678
0 .............................
1 ...........................f.
2 .............................
3 .............................

Turn = 40.
  01234567890123456789012345678
0 .............................
1 ...........................f.
2 .............................
3 .............................

*** Darwin 21x14 ***
Turn = 0.
  01234567890123
0 ..............
1 ..............
2 ..............
3 ..............
4 ..............
5 .............r
6 .......t......
7 ..............
8 ..............
9 ..............
0 .h.....h......
1 ..............
2 ..............
3 ..............
4 ..............
5 ..............
6 ..............
7 ..............
8 t.............
9 ..............
0 ........t.....

*** Darwin 31x38 ***
Turn = 0.
  01234567890123456789012345678901234567
0 ......................................
1 ......................................
2 ......................................
3 ......................................
4 ......................................
5 ......................................
6 ...........r..........................
7 ......................................
8 ......................................
9 ......................r...............
0 ......................................
1 ......................................
2 ......................................
3 ......................................
4 ......................................
5 ......................................
6 ......................................
7 ...........t..........................
8 ...............r......................
9 ......................................
0 ......................................
1 ......................................
2 ......................................
3 ......................................
4 ......................................
5 ......................................
6 ................................t.....
7 ......................................
8 .......................h..............
9 ......................................
0 ......................................

Turn = 2.
  01234567890123456789012345678901234567
0 ......................................
1 ......................................
2 ......................................
3 ......................................
4 ......................................
5 ......................................
6 .............r........................
7 ......................................
8 ......................................
9 ....................r.................
0 ......................................
1 ......................................
2 ......................................
3 ......................................
4 ......................................
5 ......................................
6 ......................................
7 ...........t..........................
8 .............r........................
9 ......................................
0 ......................................
1 ......................................
2 ......................................
3 ......................................
4 ......................................
5 ......................................
6 ................................t.....
7 ......................................
8 ......................................
9 ......................................
0 .......................h..............

Turn = 4.
  01234567890123456789012345678901234567
0 ......................................
1 ......................................
2 ......................................
3 ......................................
4 ......................................
5 ......................................
6 ...............r......................
7 ......................................
8 ......................................
9 ..................r...................
0 ......................................
1 ......................................
2 ......................................
3 ......................................
4 ......................................
5 ......................................
6 ......................................
7 ...........t..........................
8 ...........r..........................
9 ......................................
0 ......................................
1 ......................................
2 ......................................
3 ......................................
4 ......................................
5 ......................................
6 ................................t.....
7 ......................................
8 ......................................
9 ......................................
0 .......................h..............

Turn = 6.
  01234567890123456789012345678901234567
0 ......................................
1 ......................................
2 ......................................
3 ......................................
4 ......................................
5 ......................................
6 .................r....................
7 ......................................
8 ......................................
9 ................r.....................
0 ......................................
1 ......................................
2 ......................................
3 ......................................
4 ......................................
5 ......................................
6 ......................................
7 ...........t..........................
8 .........r............................
9 ......................................
0 ......................................
1 ......................................
2 ......................................
3 ......................................
4 ......................................
5 ......................................
6 ................................t.....
7 ......................................
8 ......................................
9 ......................................
0 .......................h..............

Turn = 8.
  01234567890123456789012345678901234567
0 ......................................
1 ......................................
2 ......................................
3 ......................................
4 ......................................
5 ......................................
6 ...................r..................
7 ......................................
8 ......................................
9 ..............r.......................
0 ......................................
1 ......................................
2 ......................................
3 ......................................
4 ......................................
5 ......................................
6 ......................................
7 ...........t..........................
8 .......r..............................
9 ......................................
0 ......................................
1 ......................................
2 ......................................
3 ......................................
4 ......................................
5 ......................................
6 ................................t.....
7 ......................................
8 ......................................
9 ......................................
0 .......................h..............

Turn = 10.
  01234567890123456789012345678901234567
0 ......................................
1 ......................................
2 ......................................
3 ......................................
4 ......................................
5 ......................................
6 .....................r................
7 ......................................
8 ......................................
9 ............r.........................
0 ......................................
1 ......................................
2 ......................................
3 ......................................
4 ......................................
5 ......................................
6 ......................................
7 ...........t..........................
8 .....r................................
9 ......................................
0 ......................................
1 ......................................
2 ......................................
3 ......................................
4 ......................................
5 ......................................
6 ................................t.....
7 ......................................
8 ......................................
9 ......................................
0 .......................h..............

Turn = 12.
  01234567890123456789012345678901234567
0 ......................................
1 ......................................
2 ......................................
3 ......................................
4 ......................................
5 ......................................
6 .......................r..............
7 ......................................
8 ......................................
9 ..........r...........................
0 ......................................
1 ......................................
2 ......................................
3 ......................................
4 ......................................
5 ......................................
6 ......................................
7 ...........t..........................
8 ...r..................................
9 ......................................
0 ......................................
1 ......................................
2 ......................................
3 ......................................
4 ......................................
5 ......................................
6 ................................t.....
7 ......................................
8 ......................................
9 ......................................
0 .......................h..............

Turn = 14.
  01234567890123456789012345678901234567
0 ......................................
1 ......................................
2 ......................................
3 ......................................
4 ......................................
5 ......................................
6 .........................r............
7 ......................................
8 ......................................
9 ........r.............................
0 ......................................
1 ......................................
2 ......................................
3 ......................................
4 ......................................
5 ......................................
6 ......................................
7 ...........t..........................
8 .r....................................
9 ......................................
0 ......................................
1 ......................................
2 ......................................
3 ......................................
4 ......................................
5 ......................................
6 ................................t.....
7 ......................................
8 ......................................
9 ......................................
0 .......................h..............

Turn = 16.
  01234567890123456789012345678901234567
0 ......................................
1 ......................................
2 ......................................
3 ......................................
4 ......................................
5 ......................................
6 ...........................r..........
7 ......................................
8 ......................................
9 ......r...............................
0 ......................................
1 ......................................
2 ......................................
3 ......................................
4 ......................................
5 ......................................
6 ......................................
7 ...........t..........................
8 r.....................................
9 ......................................
0 ......................................
1 ......................................
2 ......................................
3 ......................................
4 ......................................
5 ......................................
6 ................................t.....
7 ......................................
8 ......................................
9 ......................................
0 .......................h..............

*** Darwin 34x6 ***
Turn = 0.
  012345
0 ......
1 ......
2 f.....
3 .h....
4 .t....
5 ......
6 ......
7 ......
8 .....t
9 ......
0 r.....
1 ......
2 fr....
3 ....t.
4 ......
5 ......
6 ......
7 ......
8 ......
9 ......
0 ......
1 ...r..
2 t.....
3 ....f.
4 .h....
5 ......
6 ..h...
7 ......
8 ...f..
9 ......
0 ......
1 ......
2 ......
3 ......

Turn = 5.
  012345
0 ......
1 ......
2 f.....
3 .....h
4 .t....
5 ......
6 ......
7 .r....
8 .....t
9 ......
0 ......
1 ..r...
2 ..r...
3 ....t.
4 ......
5 ......
6 ......
7 ......
8 ......
9 ......
0 r.....
1 ......
2 tt....
3 ....f.
4 ......
5 ......
6 .....h
7 ......
8 ...f..
9 ......
0 ......
1 ......
2 ......
3 ......

Turn = 10.
  012345
0 ......
1 ......
2 f.....
3 .....h
4 r.....
5 ..r...
6 ......
7 ......
8 .....t
9 ......
0 .....r
1 .....r
2 ......
3 ....t.
4 ......
5 r.....
6 ......
7 ......
8 ......
9 ......
0 ......
1 ......
2 tt....
3 ....f.
4 ......
5 ......
6 .....h
7 ......
8 ...f..
9 ......
0 ......
1 ......
2 ......
3 ......

*** Darwin 20x9 ***
Turn = 0.
  012345678
0 .........
1 .........
2 .f.......
3 .........
4 .f.......
5 .........
6 .........
7 .hf.h...t
8 ..h......
9 .........
0 .........
1 .........
2 ......t..
3 ....t....
4 ...ff....
5 .........
6 .........
7 ...f.....
8 .........
9 ........r

Turn = 1.
  012345678
0 .........
1 .........
2 .f.......
3 .........
4 .f.......
5 .........
6 .........
7 .hfh....t
8 .h.......
9 .........
0 .........
1 .........
2 ......t..
3 ....t....
4 ...ff....
5 .........
6 .........
7 ...f.....
8 .........
9 ........r

Turn = 2.
  012345678
0 .........
1 .........
2 .f.......
3 .........
4 .f.......
5 .........
6 .........
7 .hfh....t
8 h........
9 .........
0 .........
1 .........
2 ......t..
3 ....t....
4 ...ft....
5 .........
6 .........
7 ...f.....
8 .........
9 ........r

Turn = 3.
  012345678
0 .........
1 .........
2 .f.......
3 .........
4 .f.......
5 .........
6 .........
7 .hfh....t
8 h........
9 .........
0 .........
1 .........
2 ......t..
3 ....t....
4 ...ft....
5 .........
6 .........
7 ...f.....
8 .........
9 ........r

Turn = 4.
  012345678
0 .........
1 .........
2 .f.......
3 .........
4 .f.......
5 .........
6 .........
7 .hfh....t
8 h........
9 .........
0 .........
1 .........
2 ......t..
3 ....t....
4 ...tt....
5 .........
6 .........
7 ...f.....
8 .........
9 ........r

Turn = 5.
  012345678
0 .........
1 .........
2 .f.......
3 .........
4 .f.......
5 .........
6 .........
7 .hfh....t
8 h........
9 .........
0 .........
1 .........
2 ......t..
3 ....t....
4 ...tt....
5 .........
6 .........
7 ...f.....
8 .........
9 .......r.

Turn = 6.
  012345678
0 .........
1 .........
2 .f.......
3 .........
4 .f.......
5 .........
6 .........
7 .hfh....t
8 h........
9 .........
0 .........
1 .........
2 ......t..
3 ....t....
4 ...tt....
5 .........
6 .........
7 ...f.....
8 .........
9 ......r..

Turn = 7.
  012345678
0 .........
1 .........
2 .f.......
3 .........
4 .f.......
5 .........
6 .........
7 .hfh....t
8 h........
9 .........
0 .........
1 .........
2 ......t..
3 ....t....
4 ...tt....
5 .........
6 .........
7 ...f.....
8 .........
9 .....r...

Turn = 8.
  012345678
0 .........
1 .........
2 .f.......
3 .........
4 .f.......
5 .........
6 .........
7 .hfh....t
8 h........
9 .........
0 .........
1 .........
2 ......t..
3 ....t....
4 ...tt....
5 .........
6 .........
7 ...f.....
8 .........
9 ....r....

Turn = 9.
  012345678
0 .........
1 .........
2 .f.......
3 .........
4 .f.......
5 .........
6 .........
7 .hfh....t
8 h........
9 .........
0 .........
1 .........
2 ......t..
3 ....t....
4 ...tt....
5 .........
6 .........
7 ...f.....
8 .........
9 ...r.....

Turn = 10.
  012345678
0 .........
1 .........
2 .f.......
3 .........
4 .f.......
5 .........
6 .........
7 .hfh....t
8 h........
9 .........
0 .........
1 .........
2 ......t..
3 ....t....
4 ...tt....
5 .........
6 .........
7 ...f.....
8 .........
9 ..r......

Turn = 11.
  012345678
0 .........
1 .........
2 .f.......
3 .........
4 .f.......
5 .........
6 .........
7 .hfh....t
8 h........
9 .........
0 .........
1 .........
2 ......t..
3 ....t....
4 ...tt....
5 .........
6 .........
7 ...f.....
8 .........
9 .r.......

Turn = 12.
  012345678
0 .........
1 .........
2 .f.......
3 .........
4 .f.......
5 .........
6 .........
7 .hfh....t
8 h........
9 .........
0 .........
1 .........
2 ......t..
3 ....t....
4 ...tt....
5 .........
6 .........
7 ...f.....
8 .........
9 r........

Turn = 13.
  012345678
0 .........
1 .........
2 .f.......
3 .........
4 .f.......
5 .........
6 .........
7 .hfh....t
8 h........
9 .........
0 .........
1 .........
2 ......t..
3 ....t....
4 ...tt....
5 .........
6 .........
7 ...f.....
8 .........
9 r........

Turn = 14.
  012345678
0 .........
1 .........
2 .f.......
3 .........
4 .f.......
5 .........
6 .........
7 .hfh....t
8 h........
9 .........
0 .........
1 .........
2 ......t..
3 ....t....
4 ...tt....
5 .........
6 .........
7 ...f.....
8 r........
9 .........

Turn = 15.
  012345678
0 .........
1 .........
2 .f.......
3 .........
4 .f.......
5 .........
6 .........
7 .hfh....t
8 h........
9 .........
0 .........
1 .........
2 ......t..
3 ....t....
4 ...tt....
5 .........
6 .........
7 r..f.....
8 .........
9 .........

Turn = 16.
  012345678
0 .........
1 .........
2 .f.......
3 .........
4 .f.......
5 .........
6 .........
7 .hfh....t
8 h........
9 .........
0 .........
1 .........
2 ......t..
3 ....t....
4 ...tt....
5 .........
6 r........
7 ...f.....
8 .........
9 .........

Turn = 17.
  012345678
0 .........
1 .........
2 .f.......
3 .........
4 .f.......
5 .........
6 .........
7 .hfh....t
8 h........
9 .........
0 .........
1 .........
2 ......t..
3 ....t....
4 ...tt....
5 r........
6 .........
7 ...f.....
8 .........
9 .........

Turn = 18.
  012345678
0 .........
1 .........
2 .f.......
3 .........
4 .f.......
5 .........
6 .........
7 .hfh....t
8 h........
9 .........
0 .........
1 .........
2 ......t..
3 ....t....
4 r..tt....
5 .........
6 .........
7 ...f.....
8 .........
9 .........

Turn = 19.
  012345678
0 .........
1 .........
2 .f.......
3 .........
4 .f.......
5 .........
6 .........
7 .hfh....t
8 h........
9 .........
0 .........
1 .........
2 ......t..
3 r...t....
4 ...tt....
5 .........
6 .........
7 ...f.....
8 .........
9 .........

Turn = 20.
  012345678
0 .........
1 .........
2 .f.......
3 .........
4 .f.......
5 .........
6 .........
7 .hfh....t
8 h........
9 .........
0 .........
1 .........
2 r.....t..
3 ....t....
4 ...tt....
5 .........
6 .........
7 ...f.....
8 .........
9 .........

Turn = 21.
  012345678
0 .........
1 .........
2 .f.......
3 .........
4 .f.......
5 .........
6 .........
7 .hfh....t
8 h........
9 .........
0 .........
1 r........
2 ......t..
3 ....t....
4 ...tt....
5 .........
6 .........
7 ...f.....
8 .........
9 .........

Turn = 22.
  012345678
0 .........
1 .........
2 .f.......
3 .........
4 .f.......
5 .........
6 .........
7 .hfh....t
8 h........
9 .........
0 r........
1 .........
2 ......t..
3 ....t....
4 ...tt....
5 .........
6 .........
7 ...f.....
8 .........
9 .........

Turn = 23.
  012345678
0 .........
1 .........
2 .f.......
3 .........
4 .f.......
5 .........
6 .........
7 .hfh....t
8 h........
9 r........
0 .........
1 .........
2 ......t..
3 ....t....
4 ...tt....
5 .........
6 .........
7 ...f.....
8 .........
9 .........

Turn = 24.
  012345678
0 .........
1 .........
2 .f.......
3 .........
4 .f.......
5 .........
6 .........
7 .hfh....t
8 r........
9 r........
0 .........
1 .........
2 ......t..
3 ....t....
4 ...tt....
5 .........
6 .........
7 ...f.....
8 .........
9 .........

Turn = 25.
  012345678
0 .........
1 .........
2 .f.......
3 .........
4 .f.......
5 .........
6 .........
7 .hfh....t
8 r........
9 r........
0 .........
1 .........
2 ......t..
3 ....t....
4 ...tt....
5 .........
6 .........
7 ...f.....
8 .........
9 .........

Turn = 26.
  012345678
0 .........
1 .........
2 .f.......
3 .........
4 .f.......
5 .........
6 .........
7 rhfh....t
8 .........
9 r........
0 .........
1 .........
2 ......t..
3 ....t....
4 ...tt....
5 .........
6 .........
7 ...f.....
8 .........
9 .........

Turn = 27.
  012345678
0 .........
1 .........
2 .f.......
3 .........
4 .f.......
5 .........
6 r........
7 .hfh....t
8 .........
9 .........
0 r........
1 .........
2 ......t..
3 ....t....
4 ...tt....
5 .........
6 .........
7 ...f.....
8 .........
9 .........

Turn = 28.
  012345678
0 .........
1 .........
2 .f.......
3 .........
4 .f.......
5 r........
6 .........
7 .hfh....t
8 .........
9 .........
0 .........
1 r........
2 ......t..
3 ....t....
4 ...tt....
5 .........
6 .........
7 ...f.....
8 .........
9 .........

Turn = 29.
  012345678
0 .........
1 .........
2 .f.......
3 .........
4 rf.......
5 .........
6 .........
7 .hfh....t
8 .........
9 .........
0 .........
1 .........
2 r.....t..
3 ....t....
4 ...tt....
5 .........
6 .........
7 ...f.....
8 .........
9 .........

Turn = 30.
  012345678
0 .........
1 .........
2 .f.......
3 r........
4 .f.......
5 .........
6 .........
7 .hfh....t
8 .........
9 .........
0 .........
1 .........
2 ......t..
3 r...t....
4 ...tt....
5 .........
6 .........
7 ...f.....
8 .........
9 .........

Turn = 31.
  012345678
0 .........
1 .........
2 rf.......
3 .........
4 .f.......
5 .........
6 .........
7 .hfh....t
8 .........
9 .........
0 .........
1 .........
2 ......t..
3 ....t....
4 r..tt....
5 .........
6 .........
7 ...f.....
8 .........
9 .........

Turn = 32.
  012345678
0 .........
1 r........
2 .f.......
3 .........
4 .f.......
5 .........
6 .........
7 .hfh....t
8 .........
9 .........
0 .........
1 .........
2 ......t..
3 ....t....
4 ...tt....
5 r........
6 .........
7 ...f.....
8 .........
9 .........

Turn = 33.
  012345678
0 r........
1 .........
2 .f.......
3 .........
4 .f.......
5 .........
6 .........
7 .hfh....t
8 .........
9 .........
0 .........
1 .........
2 ......t..
3 ....t....
4 ...tt....
5 .........
6 r........
7 ...f.....
8 .........
9 .........

Turn = 34.
  012345678
0 r........
1 .........
2 .f.......
3 .........
4 .f.......
5 .........
6 .........
7 .hfh....t
8 .........
9 .........
0 .........
1 .........
2 ......t..
3 ....t....
4 ...tt....
5 .........
6 .........
7 r..f.....
8 .........
9 .........

Turn = 35.
  012345678
0 .r.......
1 .........
2 .f.......
3 .........
4 .f.......
5 .........
6 .........
7 .hfh....t
8 .........
9 .........
0 .........
1 .........
2 ......t..
3 ....t....
4 ...tt....
5 .........
6 .........
7 ...f.....
8 r........
9 .........

Turn = 36.
  012345678
0 ..r......
1 .........
2 .f.......
3 .........
4 .f.......
5 .........
6 .........
7 .hfh....t
8 .........
9 .........
0 .........
1 .........
2 ......t..
3 ....t....
4 ...tt....
5 .........
6 .........
7 ...f.....
8 .........
9 r........

Turn = 37.
  012345678
0 ...r.....
1 .........
2 .f.......
3 .........
4 .f.......
5 .........
6 .........
7 .hfh....t
8 .........
9 .........
0 .........
1 .........
2 ......t..
3 ....t....
4 ...tt....
5 .........
6 .........
7 ...f.....
8 .........
9 r........

Turn = 38.
  012345678
0 ....r....
1 .........
2 .f.......
3 .........
4 .f.......
5 .........
6 .........
7 .hfh....t
8 .........
9 .........
0 .........
1 .........
2 ......t..
3 ....t....
4 ...tt....
5 .........
6 .........
7 ...f.....
8 .........
9 r........

Turn = 39.
  012345678
0 .....r...
1 .........
2 .f.......
3 .........
4 .f.......
5 .........
6 .........
7 .hfh....t
8 .........
9 .........
0 .........
1 .........
2 ......t..
3 ....t....
4 ...tt....
5 .........
6 .........
7 ...f.....
8 .........
9 r........

*** Darwin 25x11 ***
Turn = 0.
  01234567890
0 ......f....
1 ...........
2 h..........
3 ...........
4 .hh....rt..
5 .f.........
6 ...........
7 .t.........
8 .........r.
9 ...t...f...
0 ...f.......
1 ...........
2 ....t......
3 ..........f
4 .....t.....
5 ......h.r..
6 ...........
7 ...........
8 ...........
9 ...........
0 ......t..f.
1 ...........
2 ...........
3 ...........
4 .........r.

Turn = 7.
  01234567890
0 h.....f....
1 ...........
2 ...........
3 ...........
4 .rr.....t..
5 ..rr.......
6 ...........
7 .t.........
8 ........r..
9 ...t...f...
0 ...t.......
1 ...........
2 ....t.....r
3 ..........r
4 .....t.....
5 ...........
6 ...........
7 .........r.
8 .........r.
9 ......t....
0 ......t....
1 ...........
2 ...........
3 ...........
4 ...........

Turn = 14.
  01234567890
0 rr....f....
1 ...........
2 ...........
3 ...........
4 ..........r
5 ..........r
6 .t.........
7 .t.........
8 .r.........
9 .......f...
0 r........r.
1 ..r......r.
2 ...rrr.....
3 ...........
4 .....t.....
5 ...........
6 ...........
7 ...........
8 ...........
9 ......t....
0 ......t...r
1 ...........
2 ...........
3 ...........
4 ...........

Turn = 21.
  01234567890
0 ......f...r
1 r..........
2 ...........
3 .........r.
4 .........r.
5 .t.........
6 .t.........
7 .t.........
8 ...........
9 .......f...
0 .r.........
1 r.........r
2 .r.........
3 ...........
4 .....t.....
5 ...........
6 ...........
7 r..........
8 ..r........
9 ...r..t....
0 ......t....
1 ...........
2 ...........
3 ...........
4 ..........r

Turn = 28.
  01234567890
0 .......rr..
1 ......rr...
2 ...........
3 ...........
4 ...........
5 .t.........
6 tt.........
7 .t.........
8 .t.........
9 .......f...
0 ...........
1 ...........
2 ........r..
3 ...........
4 .....t.....
5 ...........
6 ...........
7 ...........
8 r.........r
9 ......t....
0 ......t....
1 ...........
2 ...........
3 ...........
4 r.rrr......

Turn = 35.
  01234567890
0 ..r........
1 .r.........
2 ..........r
3 ...........
4 ...........
5 .t.........
6 tt.........
7 .t.........
8 .t....r...r
9 .......f...
0 ...........
1 ...........
2 ...........
3 ...........
4 .....t.....
5 ...........
6 ...........
7 ....r......
8 ...........
9 .r....t....
0 ......t....
1 ...........
2 ..r........
3 r..........
4 r.........r

Turn = 42.
  01234567890
0 ...........
1 ....r......
2 r..........
3 ...........
4 ...........
5 .t.........
6 tt.........
7 .t........r
8 .t.........
9 .......f..r
0 ....r......
1 ...........
2 .r.........
3 ...........
4 .....tt....
5 ...........
6 r..........
7 ...........
8 ...........
9 ......t....
0 ......t....
1 ...........
2 .........r.
3 ....rr.....
4 ...........

Turn = 49.
  01234567890
0 ...........
1 ..........r
2 ...........
3 ....r......
4 ...........
5 tt.........
6 tt.........
7 .t.........
8 .t.........
9 rt.....f...
0 ...........
1 ...........
2 ...........
3 ...........
4 .....tt...r
5 ...........
6 ....rr....r
7 ..........r
8 ...........
9 ......t....
0 ......t....
1 ...........
2 ...........
3 ...........
4 ...........

Turn = 56.
  01234567890
0 .r.....r...
1 ...........
2 ...........
3 ...........
4 ...........
5 tt.........
6 tt.........
7 tt.........
8 .t.........
9 .t..rr.f...
0 .....r.....
1 ..........r
2 ...........
3 ...........
4 ......t....
5 ...........
6 ....r......
7 ....r......
8 ...........
9 ......t....
0 ......t....
1 ...........
2 ...........
3 ...........
4 ...........

Turn = 63.
  01234567890
0 ..r........
1 ...........
2 ...rrr.....
3 .....r.....
4 ..........r
5 tt.........
6 tt.........
7 tt.........
8 .t.........
9 .t.....f...
0 ...........
1 ...........
2 ...........
3 ...........
4 r.....t....
5 ...........
6 ...........
7 ...........
8 ...........
9 r.....t....
0 ......t....
1 ...........
2 ...........
3 ...........
4 ...........

Turn = 70.
  01234567890
0 ......r...r
1 .r.........
2 ...........
3 .....r.....
4 r..........
5 tt.........
6 tt.........
7 tt.........
8 tt.........
9 .t.r...f...
0 ...........
1 ...........
2 ...........
3 ...........
4 ......t....
5 ...........
6 ...........
7 ...........
8 ...........
9 ......t....
0 ......t....
1 ...........
2 ...........
3 ...........
4 .r.........

*** Darwin 44x27 ***
Turn = 0.
  012345678901234567890123456
0 ...........................
1 ...........................
2 .r.........................
3 ...........................
4 ......................r....
5 ...........................
6 ...........................
7 ...........................
8 ...........................
9 ...........................
0 ...........................
1 ...........................
2 ...........................
3 ...........................
4 ...........................
5 ...........................
6 ...........................
7 ...........................
8 ...........................
9 ...........................
0 ...........................
1 ...........................
2 ...........................
3 ...........................
4 ...........................
5 ...........................
6 ...........................
7 ........ft.................
8 ...........................
9 ........f..................
0 ...........................
1 ..............f............
2 ...........................
3 ...........................
4 ........................f..
5 ......................t....
6 ...........................
7 ....................ff...r.
8 ...........................
9 f..........................
0 ...........................
1 ...........................
2 ........................h..
3 ...........................

Turn = 5.
  012345678901234567890123456
0 ...........................
1 ...........................
2 ...........................
3 ...........................
4 ...........................
5 ...........................
6 ...........................
7 .r.........................
8 ...........................
9 ......................r....
0 ...........................
1 ...........................
2 ...........................
3 ...........................
4 ...........................
5 ...........................
6 ...........................
7 ...........................
8 ...........................
9 ...........................
0 ...........................
1 ...........................
2 ...........................
3 ...........................
4 ...........................
5 ...........................
6 ...........................
7 ........tt.................
8 ...........................
9 ........f..................
0 ...........................
1 ..............f............
2 ...........................
3 ...........................
4 ........................f..
5 ......................t....
6 ...........................
7 ....................ff..h..
8 ...........................
9 f..........................
0 ...........................
1 ...........................
2 .........................r.
3 ...........................

Turn = 10.
  012345678901234567890123456
0 ...........................
1 ...........................
2 ...........................
3 ...........................
4 ...........................
5 ...........................
6 ...........................
7 ...........................
8 ...........................
9 ...........................
0 ...........................
1 ...........................
2 .r.........................
3 ...........................
4 ......................r....
5 ...........................
6 ...........................
7 ...........................
8 ...........................
9 ...........................
0 ...........................
1 ...........................
2 ...........................
3 ...........................
4 ...........................
5 ...........................
6 ...........................
7 ........tt.................
8 ...........................
9 ........f..................
0 ...........................
1 ..............f............
2 ...........................
3 ...........................
4 ........................f..
5 ......................t.h..
6 ...........................
7 ....................ff.....
8 ...........................
9 f..........................
0 ...........................
1 ...........................
2 ...........................
3 ......................r....

Turn = 15.
  012345678901234567890123456
0 ...........................
1 ...........................
2 ...........................
3 ...........................
4 ...........................
5 ...........................
6 ...........................
7 ...........................
8 ...........................
9 ...........................
0 ...........................
1 ...........................
2 ...........................
3 ...........................
4 ...........................
5 ...........................
6 ...........................
7 .r.........................
8 ...........................
9 ......................r....
0 ...........................
1 ...........................
2 ...........................
3 ...........................
4 ...........................
5 ...........................
6 ...........................
7 ........tt.................
8 ...........................
9 ........f..................
0 ...........................
1 ..............f............
2 ...........................
3 ...........................
4 ........................f..
5 ......................t.h..
6 ...........................
7 ....................ff.....
8 ...........................
9 f..........................
0 ...........................
1 ...........................
2 ...........................
3 .................r.........

*** Darwin 49x7 ***
Turn = 0.
  0123456
0 .......
1 .......
2 .......
3 .......
4 .......
5 .......
6 .......
7 .......
8 .......
9 .......
0 .......
1 .......
2 .......
3 .......
4 .......
5 .......
6 .......
7 .......
8 .......
9 .......
0 .......
1 .......
2 .......
3 .......
4 .......
5 .......
6 .......
7 .......
8 .......
9 .......
0 .......
1 .......
2 .......
3 .......
4 .......
5 .......
6 .......
7 .......
8 .......
9 .......
0 .......
1 .......
2 .......
3 .......
4 .......
5 .f....t
6 .......
7 .......
8 .......

Turn = 8.
  0123456
0 .......
1 .......
2 .......
3 .......
4 .......
5 .......
6 .......
7 .......
8 .......
9 .......
0 .......
1 .......
2 .......
3 .......
4 .......
5 .......
6 .......
7 .......
8 .......
9 .......
0 .......
1 .......
2 .......
3 .......
4 .......
5 .......
6 .......
7 .......
8 .......
9 .......
0 .......
1 .......
2 .......
3 .......
4 .......
5 .......
6 .......
7 .......
8 .......
9 .......
0 .......
1 .......
2 .......
3 .......
4 .......
5 .f....t
6 .......
7 .......
8 .......

Turn = 16.
  0123456
0 .......
1 .......
2 .......
3 .......
4 .......
5 .......
6 .......
7 .......
8 .......
9 .......
0 .......
1 .......
2 .......
3 .......
4 .......
5 .......
6 .......
7 .......
8 .......
9 .......
0 .......
1 .......
2 .......
3 .......
4 .......
5 .......
6 .......
7 .......
8 .......
9 .......
0 .......
1 .......
2 .......
3 .......
4 .......
5 .......
6 .......
7 .......
8 .......
9 .......
0 .......
1 .......
2 .......
3 .......
4 .......
5 .f....t
6 .......
7 .......
8 .......

*** Darwin 30x2 ***
Turn = 0.
  01
0 ..
1 ..
2 ..
3 ..
4 ..
5 ..
6 ..
7 ..
8 ..
9 ..
0 ..
1 ..
2 ..
3 f.
4 ..
5 .h
6 f.
7 ..
8 ..
9 ..
0 ..
1 ..
2 ..
3 ..
4 .h
5 ..
6 .t
7 ..
8 ..
9 ..

Turn = 7.
  01
0 ..
1 ..
2 ..
3 ..
4 ..
5 ..
6 ..
7 ..
8 ..
9 ..
0 ..
1 ..
2 ..
3 f.
4 ..
5 h.
6 f.
7 ..
8 ..
9 ..
0 ..
1 ..
2 ..
3 ..
4 ..
5 .t
6 .t
7 ..
8 ..
9 ..

Turn = 14.
  01
0 ..
1 ..
2 ..
3 ..
4 ..
5 ..
6 ..
7 ..
8 ..
9 ..
0 ..
1 ..
2 ..
3 f.
4 ..
5 h.
6 f.
7 ..
8 ..
9 ..
0 ..
1 ..
2 ..
3 ..
4 ..
5 .t
6 .t
7 ..
8 ..
9 ..

Turn = 21.
  01
0 ..
1 ..
2 ..
3 ..
4 ..
5 ..
6 ..
7 ..
8 ..
9 ..
0 ..
1 ..
2 ..
3 f.
4 ..
5 h.
6 f.
7 ..
8 ..
9 ..
0 ..
1 ..
2 ..
3 ..
4 ..
5 .t
6 .t
7 ..
8 ..
9 ..

Turn = 28.
  01
0 ..
1 ..
2 ..
3 ..
4 ..
5 ..
6 ..
7 ..
8 ..
9 ..
0 ..
1 ..
2 ..
3 f.
4 ..
5 h.
6 f.
7 ..
8 ..
9 ..
0 ..
1 ..
2 ..
3 ..
4 ..
5 .t
6 .t
7 ..
8 ..
9 ..

Turn = 35.
  01
0 ..
1 ..
2 ..
3 ..
4 ..
5 ..
6 ..
7 ..
8 ..
9 ..
0 ..
1 ..
2 ..
3 f.
4 ..
5 h.
6 f.
7 ..
8 ..
9 ..
0 ..
1 ..
2 ..
3 ..
4 ..
5 .t
6 .t
7 ..
8 ..
9 ..

Turn = 42.
  01
0 ..
1 ..
2 ..
3 ..
4 ..
5 ..
6 ..
7 ..
8 ..
9 ..
0 ..
1 ..
2 ..
3 f.
4 ..
5 h.
6 f.
7 ..
8 ..
9 ..
0 ..
1 ..
2 ..
3 ..
4 ..
5 .t
6 .t
7 ..
8 ..
9 ..

*** Darwin 47x1 ***
Turn = 0.
  0
0 .
1 .
2 .
3 h
4 .
5 .
6 .
7 .
8 .
9 .
0 .
1 .
2 .
3 .
4 .
5 .
6 .
7 .
8 .
9 .
0 h
1 h
2 .
3 .
4 .
5 .
6 .
7 t
8 .
9 .
0 .
1 .
2 f
3 .
4 .
5 f
6 .
7 h
8 h
9 h
0 f
1 .
2 .
3 .
4 .
5 .
6 f

Turn = 3.
  0
0 .
1 .
2 .
3 h
4 .
5 .
6 .
7 .
8 .
9 .
0 .
1 .
2 .
3 .
4 .
5 .
6 .
7 h
8 .
9 .
0 .
1 .
2 .
3 .
4 h
5 .
6 .
7 t
8 .
9 .
0 .
1 .
2 f
3 .
4 .
5 f
6 .
7 h
8 h
9 h
0 f
1 .
2 .
3 .
4 .
5 .
6 f

Turn = 6.
  0
0 .
1 .
2 .
3 h
4 .
5 .
6 .
7 .
8 .
9 .
0 .
1 .
2 .
3 .
4 h
5 .
6 .
7 .
8 .
9 .
0 .
1 .
2 .
3 .
4 .
5 .
6 t
7 t
8 .
9 .
0 .
1 .
2 f
3 .
4 .
5 f
6 .
7 h
8 h
9 h
0 f
1 .
2 .
3 .
4 .
5 .
6 f

Turn = 9.
  0
0 .
1 .
2 .
3 h
4 .
5 .
6 .
7 .
8 .
9 .
0 .
1 h
2 .
3 .
4 .
5 .
6 .
7 .
8 .
9 .
0 .
1 .
2 .
3 .
4 .
5 .
6 t
7 t
8 .
9 .
0 .
1 .
2 f
3 .
4 .
5 f
6 .
7 h
8 h
9 h
0 f
1 .
2 .
3 .
4 .
5 .
6 f

Turn = 12.
  0
0 .
1 .
2 .
3 h
4 .
5 .
6 .
7 .
8 h
9 .
0 .
1 .
2 .
3 .
4 .
5 .
6 .
7 .
8 .
9 .
0 .
1 .
2 .
3 .
4 .
5 .
6 t
7 t
8 .
9 .
0 .
1 .
2 f
3 .
4 .
5 f
6 .
7 h
8 h
9 h
0 f
1 .
2 .
3 .
4 .
5 .
6 f

Turn = 15.
  0
0 .
1 .
2 .
3 h
4 .
5 h
6 .
7 .
8 .
9 .
0 .
1 .
2 .
3 .
4 .
5 .
6 .
7 .
8 .
9 .
0 .
1 .
2 .
3 .
4 .
5 .
6 t
7 t
8 .
9 .
0 .
1 .
2 f
3 .
4 .
5 f
6 .
7 h
8 h
9 h
0 f
1 .
2 .
3 .
4 .
5 .
6 f

Turn = 18.
  0
0 .
1 .
2 .
3 h
4 h
5 .
6 .
7 .
8 .
9 .
0 .
1 .
2 .
3 .
4 .
5 .
6 .
7 .
8 .
9 .
0 .
1 .
2 .
3 .
4 .
5 .
6 t
7 t
8 .
9 .
0 .
1 .
2 f
3 .
4 .
5 f
6 .
7 h
8 h
9 h
0 f
1 .
2 .
3 .
4 .
5 .
6 f

Turn = 21.
  0
0 .
1 .
2 .
3 h
4 h
5 .
6 .
7 .
8 .
9 .
0 .
1 .
2 .
3 .
4 .
5 .
6 .
7 .
8 .
9 .
0 .
1 .
2 .
3 .
4 .
5 .
6 t
7 t
8 .
9 .
0 .
1 .
2 f
3 .
4 .
5 f
6 .
7 h
8 h
9 h
0 f
1 .
2 .
3 .
4 .
5 .
6 f

Turn = 24.
  0
0 .
1 .
2 .
3 h
4 h
5 .
6 .
7 .
8 .
9 .
0 .
1 .
2 .
3 .
4 .
5 .
6 .
7 .
8 .
9 .
0 .
1 .
2 .
3 .
4 .
5 .
6 t
7 t
8 .
9 .
0 .
1 .
2 f
3 .
4 .
5 f
6 .
7 h
8 h
9 h
0 f
1 .
2 .
3 .
4 .
5 .
6 f

Turn = 27.
  0
0 .
1 .
2 .
3 h
4 h
5 .
6 .
7 .
8 .
9 .
0 .
1 .
2 .
3 .
4 .
5 .
6 .
7 .
8 .
9 .
0 .
1 .
2 .
3 .
4 .
5 .
6 t
7 t
8 .
9 .
0 .
1 .
2 f
3 .
4 .
5 f
6 .
7 h
8 h
9 h
0 f
1 .
2 .
3 .
4 .
5 .
6 f

Turn = 30.
  0
0 .
1 .
2 .
3 h
4 h
5 .
6 .
7 .
8 .
9 .
0 .
1 .
2 .
3 .
4 .
5 .
6 .
7 .
8 .
9 .
0 .
1 .
2 .
3 .
4 .
5 .
6 t
7 t
8 .
9 .
0 .
1 .
2 f
3 .
4 .
5 f
6 .
7 h
8 h
9 h
0 f
1 .
2 .
3 .
4 .
5 .
6 f

Turn = 33.
  0
0 .
1 .
2 .
3 h
4 h
5 .
6 .
7 .
8 .
9 .
0 .
1 .
2 .
3 .
4 .
5 .
6 .
7 .
8 .
9 .
0 .
1 .
2 .
3 .
4 .
5 .
6 t
7 t
8 .
9 .
0 .
1 .
2 f
3 .
4 .
5 f
6 .
7 h
8 h
9 h
0 f
1 .
2 .
3 .
4 .
5 .
6 f

Turn = 36.
  0
0 .
1 .
2 .
3 h
4 h
5 .
6 .
7 .
8 .
9 .
0 .
1 .
2 .
3 .
4 .
5 .
6 .
7 .
8 .
9 .
0 .
1 .
2 .
3 .
4 .
5 .
6 t
7 t
8 .
9 .
0 .
1 .
2 f
3 .
4 .
5 f
6 .
7 h
8 h
9 h
0 f
1 .
2 .
3 .
4 .
5 .
6 f

Turn = 39.
  0
0 .
1 .
2 .
3 h
4 h
5 .
6 .
7 .
8 .
9 .
0 .
1 .
2 .
3 .
4 .
5 .
6 .
7 .
8 .
9 .
0 .
1 .
2 .
3 .
4 .
5 .
6 t
7 t
8 .
9 .
0 .
1 .
2 f
3 .
4 .
5 f
6 .
7 h
8 h
9 h
0 f
1 .
2 .
3 .
4 .
5 .
6 f

Turn = 42.
  0
0 .
1 .
2 .
3 h
4 h
5 .
6 .
7 .
8 .
9 .
0 .
1 .
2 .
3 .
4 .
5 .
6 .
7 .
8 .
9 .
0 .
1 .
2 .
3 .
4 .
5 .
6 t
7 t
8 .
9 .
0 .
1 .
2 f
3 .
4 .
5 f
6 .
7 h
8 h
9 h
0 f
1 .
2 .
3 .
4 .
5 .
6 f

Turn = 45.
  0
0 .
1 .
2 .
3 h
4 h
5 .
6 .
7 .
8 .
9 .
0 .
1 .
2 .
3 .
4 .
5 .
6 .
7 .
8 .
9 .
0 .
1 .
2 .
3 .
4 .
5 .
6 t
7 t
8 .
9 .
0 .
1 .
2 f
3 .
4 .
5 f
6 .
7 h
8 h
9 h
0 f
1 .
2 .
3 .
4 .
5 .
6 f

Turn = 48.
  0
0 .
1 .
2 .
3 h
4 h
5 .
6 .
7 .
8 .
9 .
0 .
1 .
2 .
3 .
4 .
5 .
6 .
7 .
8 .
9 .
0 .
1 .
2 .
3 .
4 .
5 .
6 t
7 t
8 .
9 .
0 .
1 .
2 f
3 .
4 .
5 f
6 .
7 h
8 h
9 h
0 f
1 .
2 .
3 .
4 .
5 .
6 f

Turn = 51.
  0
0 .
1 .
2 .
3 h
4 h
5 .
6 .
7 .
8 .
9 .
0 .
1 .
2 .
3 .
4 .
5 .
6 .
7 .
8 .
9 .
0 .
1 .
2 .
3 .
4 .
5 .
6 t
7 t
8 .
9 .
0 .
1 .
2 f
3 .
4 .
5 f
6 .
7 h
8 h
9 h
0 f
1 .
2 .
3 .
4 .
5 .
6 f

Turn = 54.
  0
0 .
1 .
2 .
3 h
4 h
5 .
6 .
7 .
8 .
9 .
0 .
1 .
2 .
3 .
4 .
5 .
6 .
7 .
8 .
9 .
0 .
1 .
2 .
3 .
4 .
5 .
6 t
7 t
8 .
9 .
0 .
1 .
2 f
3 .
4 .
5 f
6 .
7 h
8 h
9 h
0 f
1 .
2 .
3 .
4 .
5 .
6 f

Turn = 57.
  0
0 .
1 .
2 .
3 h
4 h
5 .
6 .
7 .
8 .
9 .
0 .
1 .
2 .
3 .
4 .
5 .
6 .
7 .
8 .
9 .
0 .
1 .
2 .
3 .
4 .
5 .
6 t
7 t
8 .
9 .
0 .
1 .
2 f
3 .
4 .
5 f
6 .
7 h
8 h
9 h
0 f
1 .
2 .
3 .
4 .
5 .
6 f

Turn = 60.
  0
0 .
1 .
2 .
3 h
4 h
5 .
6 .
7 .
8 .
9 .
0 .
1 .
2 .
3 .
4 .
5 .
6 .
7 .
8 .
9 .
0 .
1 .
2 .
3 .
4 .
5 .
6 t
7 t
8 .
9 .
0 .
1 .
2 f
3 .
4 .
5 f
6 .
7 h
8 h
9 h
0 f
1 .
2 .
3 .
4 .
5 .
6 f

Turn = 63.
  0
0 .
1 .
2 .
3 h
4 h
5 .
6 .
7 .
8 .
9 .
0 .
1 .
2 .
3 .
4 .
5 .
6 .
7 .
8 .
9 .
0 .
1 .
2 .
3 .
4 .
5 .
6 t
7 t
8 .
9 .
0 .
1 .
2 f
3 .
4 .
5 f
6 .
7 h
8 h
9 h
0 f
1 .
2 .
3 .
4 .
5 .
6 f

*** Darwin 42x30 ***
Turn = 0.
  012345678901234567890123456789
0 ..............................
1 ..............................
2 ......h..........f............
3 ..............................
4 ..............................
5 ..............................
6 ..............................
7 .........r....................
8 ............h.................
9 ..............................
0 .......f......................
1 ..............................
2 ..............................
3 ..............................
4 ..............................
5 ..............................
6 ..............................
7 .............h................
8 ..............................
9 ..............................
0 ..............................
1 ..............................
2 ..............................
3 ..............................
4 ..............................
5 ..............................
6 ..............................
7 ..............................
8 ..............................
9 ..............................
0 ........................f.....
1 ..............................
2 ..............................
3 ......................r.......
4 ..............................
5 ..............................
6 .................t............
7 ..............................
8 ..............................
9 ..............................
0 ..............................
1 ..............................

Turn = 7.
  012345678901234567890123456789
0 ......h.......................
1 ............h.................
2 .................f............
3 ..............................
4 ..............................
5 ..............................
6 ..............................
7 ................r.............
8 ..............................
9 ..............................
0 .......f.....h................
1 ..............................
2 ..............................
3 ..............................
4 ..............................
5 ..............................
6 ..............................
7 ..............................
8 ..............................
9 ..............................
0 ..............................
1 ..............................
2 ..............................
3 ..............................
4 ..............................
5 ..............................
6 ..............................
7 ..............................
8 ..............................
9 ..............................
0 ........................f.....
1 ..............................
2 ..............................
3 ..............................
4 ..............................
5 ..............................
6 .................t............
7 ..............................
8 ..............................
9 ..............................
0 ......................r.......
1 ..............................

Turn = 14.
  012345678901234567890123456789
0 ......h.....h.................
1 ..............................
2 .................f............
3 .............h................
4 ..............................
5 ..............................
6 ..............................
7 .......................r......
8 ..............................
9 ..............................
0 .......f......................
1 ..............................
2 ..............................
3 ..............................
4 ..............................
5 ..............................
6 ..............................
7 ..............................
8 ..............................
9 ..............................
0 ..............................
1 ..............................
2 ..............................
3 ..............................
4 ..............................
5 ..............................
6 ..............................
7 ..............................
8 ..............................
9 ..............................
0 ........................f.....
1 ..............................
2 ..............................
3 ..............................
4 ..............................
5 ..............................
6 .................t............
7 ..............................
8 ..............................
9 ..............................
0 ..............................
1 .................r............

Turn = 21.
  012345678901234567890123456789
0 ......h.....hh................
1 ..............................
2 .................f............
3 ..............................
4 ..............................
5 ..............................
6 ..............................
7 .............................r
8 ..............................
9 ..............................
0 .......f......................
1 ..............................
2 ..............................
3 ..............................
4 ..............................
5 ..............................
6 ..............................
7 ..............................
8 ..............................
9 ..............................
0 ..............................
1 ..............................
2 ..............................
3 ..............................
4 ..............................
5 ..............................
6 ..............................
7 ..............................
8 ..............................
9 ..............................
0 ........................f.....
1 ..............................
2 ..............................
3 ..............................
4 ..............................
5 ..............................
6 .................t............
7 ..............................
8 ..............................
9 ..............................
0 ..............................
1 ..........r...................

Turn = 28.
  012345678901234567890123456789
0 ......h.....hh...............r
1 ..............................
2 .................f............
3 ..............................
4 ..............................
5 ..............................
6 ..............................
7 ..............................
8 ..............................
9 ..............................
0 .......f......................
1 ..............................
2 ..............................
3 ..............................
4 ..............................
5 ..............................
6 ..............................
7 ..............................
8 ..............................
9 ..............................
0 ..............................
1 ..............................
2 ..............................
3 ..............................
4 ..............................
5 ..............................
6 ..............................
7 ..............................
8 ..............................
9 ..............................
0 ........................f.....
1 ..............................
2 ..............................
3 ..............................
4 ..............................
5 ..............................
6 .................t............
7 ..............................
8 ..............................
9 ..............................
0 ..............................
1 ...r..........................

Turn = 35.
  012345678901234567890123456789
0 ......h.....hh................
1 ..............................
2 .................f............
3 ..............................
4 ..............................
5 .............................r
6 ..............................
7 ..............................
8 ..............................
9 ..............................
0 .......f......................
1 ..............................
2 ..............................
3 ..............................
4 ..............................
5 ..............................
6 ..............................
7 ..............................
8 ..............................
9 ..............................
0 ..............................
1 ..............................
2 ..............................
3 ..............................
4 ..............................
5 ..............................
6 ..............................
7 ..............................
8 ..............................
9 ..............................
0 ........................f.....
1 ..............................
2 ..............................
3 ..............................
4 ..............................
5 ..............................
6 .................t............
7 ..............................
8 r.............................
9 ..............................
0 ..............................
1 ..............................

Turn = 42.
  012345678901234567890123456789
0 ......h.....hh................
1 ..............................
2 .................f............
3 ..............................
4 ..............................
5 ..............................
6 ..............................
7 ..............................
8 ..............................
9 ..............................
0 .......f......................
1 ..............................
2 .............................r
3 ..............................
4 ..............................
5 ..............................
6 ..............................
7 ..............................
8 ..............................
9 ..............................
0 ..............................
1 ..............................
2 ..............................
3 ..............................
4 ..............................
5 ..............................
6 ..............................
7 ..............................
8 ..............................
9 ..............................
0 ........................f.....
1 r.............................
2 ..............................
3 ..............................
4 ..............................
5 ..............................
6 .................t............
7 ..............................
8 ..............................
9 ..............................
0 ..............................
1 ..............................

Turn = 49.
  012345678901234567890123456789
0 ......h.....hh................
1 ..............................
2 .................f............
3 ..............................
4 ..............................
5 ..............................
6 ..............................
7 ..............................
8 ..............................
9 ..............................
0 .......f......................
1 ..............................
2 ..............................
3 ..............................
4 ..............................
5 ..............................
6 ..............................
7 ..............................
8 ..............................
9 .............................r
0 ..............................
1 ..............................
2 ..............................
3 ..............................
4 r.............................
5 ..............................
6 ..............................
7 ..............................
8 ..............................
9 ..............................
0 ........................f.....
1 ..............................
2 ..............................
3 ..............................
4 ..............................
5 ..............................
6 .................t............
7 ..............................
8 ..............................
9 ..............................
0 ..............................
1 ..............................

Turn = 56.
  012345678901234567890123456789
0 ......h.....hh................
1 ..............................
2 .................f............
3 ..............................
4 ..............................
5 ..............................
6 ..............................
7 ..............................
8 ..............................
9 ..............................
0 .......f......................
1 ..............................
2 ..............................
3 ..............................
4 ..............................
5 ..............................
6 ..............................
7 r.............................
8 ..............................
9 ..............................
0 ..............................
1 ..............................
2 ..............................
3 ..............................
4 ..............................
5 ..............................
6 .............................r
7 ..............................
8 ..............................
9 ..............................
0 ........................f.....
1 ..............................
2 ..............................
3 ..............................
4 ..............................
5 ..............................
6 .................t............
7 ..............................
8 ..............................
9 ..............................
0 ..............................
1 ..............................

Turn = 63.
  012345678901234567890123456789
0 ......h.....hh................
1 ..............................
2 .................f............
3 ..............................
4 ..............................
5 ..............................
6 ..............................
7 ..............................
8 ..............................
9 ..............................
0 r......f......................
1 ..............................
2 ..............................
3 ..............................
4 ..............................
5 ..............................
6 ..............................
7 ..............................
8 ..............................
9 ..............................
0 ..............................
1 ..............................
2 ..............................
3 ..............................
4 ..............................
5 ..............................
6 ..............................
7 ..............................
8 ..............................
9 ..............................
0 ........................f.....
1 ..............................
2 ..............................
3 .............................r
4 ..............................
5 ..............................
6 .................t............
7 ..............................
8 ..............................
9 ..............................
0 ..............................
1 ..............................

Turn = 70.
  012345678901234567890123456789
0 ......h.....hh................
1 ..............................
2 .................f............
3 r.............................
4 ..............................
5 ..............................
6 ..............................
7 ..............................
8 ..............................
9 ..............................
0 .......f......................
1 ..............................
2 ..............................
3 ..............................
4 ..............................
5 ..............................
6 ..............................
7 ..............................
8 ..............................
9 ..............................
0 ..............................
1 ..............................
2 ..............................
3 ..............................
4 ..............................
5 ..............................
6 ..............................
7 ..............................
8 ..............................
9 ..............................
0 ........................f.....
1 ..............................
2 ..............................
3 ..............................
4 ..............................
5 ..............................
6 .................t............
7 ..............................
8 ..............................
9 ..............................
0 .............................r
1 ..............................

*** Darwin 22x24 ***
Turn = 0.
  012345678901234567890123
0 ........................
1 ........................
2 ........................
3 ........................
4 ........................
5 ........................
6 ........................
7 ........................
8 ........................
9 ........................
0 ........................
1 ........................
2 ........................
3 ........................
4 ........................
5 ........................
6 ........................
7 ........................
8 ...............f........
9 ........................
0 ........................
1 ........................

*** Darwin 45x11 ***
Turn = 0.
  01234567890
0 ...........
1 h..........
2 .h.........
3 ...........
4 t..........
5 ...........
6 ...........
7 ..t....h...
8 ...........
9 .......f...
0 .....f.....
1 ...........
2 ...........
3 ...........
4 ......t....
5 ...........
6 t..........
7 ...........
8 ...h....h..
9 ...........
0 ........t..
1 ...........
2 ...........
3 ...........
4 ...........
5 ...........
6 ...........
7 ...........
8 ...........
9 ...........
0 .......r...
1 ...........
2 ...........
3 ...........
4 ...........
5 ...........
6 ...........
7 ...........
8 ..........r
9 ...........
0 ...........
1 ...........
2 ...........
3 ...........
4 ...........

Turn = 10.
  01234567890
0 h..........
1 ...........
2 ...........
3 ...........
4 tt.........
5 ...........
6 ...........
7 ..t.......h
8 ...........
9 .......f...
0 .....f.....
1 ...........
2 ...........
3 ...........
4 ......t....
5 ...........
6 t..........
7 ...........
8 .........hh
9 ...........
0 ........t..
1 ...........
2 ...........
3 ...........
4 ...........
5 ...........
6 ...........
7 ...........
8 ...........
9 ...........
0 ...........
1 ...........
2 ...........
3 ...........
4 ...........
5 ...........
6 ..........r
7 ...........
8 ...........
9 ...........
0 ...........
1 ...........
2 ...........
3 ...........
4 .........r.

Turn = 20.
  01234567890
0 h..........
1 ...........
2 ...........
3 ...........
4 tt.........
5 ...........
6 ...........
7 ..t.......h
8 ...........
9 .......f...
0 .....f.....
1 ...........
2 ...........
3 ...........
4 ......t....
5 ...........
6 t..........
7 ...........
8 .........hh
9 ...........
0 ........t..
1 ...........
2 ...........
3 ...........
4 ...........
5 ...........
6 ...........
7 ...........
8 ...........
9 ...........
0 ...........
1 ...........
2 ...........
3 ...........
4 ...........
5 ...........
6 ...........
7 ...........
8 ...........
9 ...........
0 ...........
1 ...........
2 ...........
3 ...........
4 r........r.

Turn = 30.
  01234567890
0 h..........
1 ...........
2 ...........
3 ...........
4 tt.........
5 ...........
6 ...........
7 ..t.......h
8 ...........
9 .......f...
0 .....f.....
1 ...........
2 ...........
3 ...........
4 ......t....
5 ...........
6 t..........
7 ...........
8 .........hh
9 ...........
0 ........t..
1 ...........
2 ...........
3 ...........
4 ...........
5 ...........
6 ...........
7 ...........
8 ...........
9 ...........
0 ...........
1 ...........
2 ...........
3 ...........
4 r..........
5 ...........
6 ...........
7 ...........
8 ...........
9 ...........
0 ...........
1 ...........
2 ...........
3 ...........
4 r..........

Turn = 40.
  01234567890
0 h..........
1 ...........
2 ...........
3 ...........
4 tt.........
5 ...........
6 ...........
7 ..t.......h
8 ...........
9 .......f...
0 .....f.....
1 ...........
2 ...........
3 ...........
4 ......t....
5 ...........
6 t..........
7 ...........
8 .........hh
9 ...........
0 ........t..
1 ...........
2 ...........
3 ...........
4 r..........
5 ...........
6 ...........
7 ...........
8 ...........
9 ...........
0 ...........
1 ...........
2 ...........
3 ...........
4 ...........
5 ...........
6 ...........
7 ...........
8 ...........
9 ...........
0 ...........
1 ...........
2 ...........
3 ...........
4 .........r.

Turn = 50.
  01234567890
0 h..........
1 ...........
2 ...........
3 ...........
4 tt.........
5 ...........
6 ...........
7 ..t.......h
8 ...........
9 .......f...
0 .....f.....
1 ...........
2 ...........
3 ...........
4 ......t....
5 ...........
6 t..........
7 t..........
8 .........hh
9 ...........
0 ........t..
1 ...........
2 ...........
3 ...........
4 ...........
5 ...........
6 ...........
7 ...........
8 ...........
9 ...........
0 ...........
1 ...........
2 ...........
3 ...........
4 ...........
5 ...........
6 ...........
7 ...........
8 ...........
9 ...........
0 ...........
1 ...........
2 ...........
3 ...........
4 ...r.......
