*** Darwin 30x41 ***
Turn = 0.
  01234567890123456789012345678901234567890
0 .........................................
1 .........................................
2 .........................................
3 ..r......................................
4 .........................................
5 .........................................
6 ......................................t..
7 .....................t...................
8 .........................................
9 ..............................t..........
0 .........................................
1 .........................................
2 .........................................
3 ..........................h..............
4 .........................................
5 .........................................
6 .........................................
7 ..............h..........................
8 .....r............................r......
9 .........................................
0 ......f..................................
1 ...........................t.............
2 .........................................
3 .........................................
4 .........................................
5 .........................................
6 .........................................
7 .........................................
8 .........f...............................
9 ....r...................h................

Turn = 6.
  01234567890123456789012345678901234567890
0 .........................................
1 .........................................
2 .........................................
3 ........r................................
4 .........................................
5 .........................................
6 ......................................t..
7 .....................t...................
8 .........................................
9 ..............................t..........
0 .........................................
1 .........................................
2 ..................................r......
3 ................................h........
4 .........................................
5 .........................................
6 .........................................
7 ....................h....................
8 .........................................
9 .........................................
0 ......f..................................
1 ...........................t.............
2 .........................................
3 .........................................
4 .....r...................................
5 .........................................
6 .........................................
7 .........................................
8 r........f...............................
9 ..............................h..........

Turn = 12.
  01234567890123456789012345678901234567890
0 .........................................
1 .........................................
2 .........................................
3 ..............r..........................
4 .........................................
5 .........................................
6 ..................................r...t..
7 .....................t...................
8 .........................................
9 ..............................t..........
0 .........................................
1 .........................................
2 .........................................
3 ......................................h..
4 .........................................
5 .........................................
6 .........................................
7 ..........................h..............
8 .........................................
9 .........................................
0 ......f..................................
1 ...........................t.............
2 r........................................
3 .........................................
4 .........................................
5 .........................................
6 .........................................
7 .........................................
8 .........f...............................
9 .....r..............................h....

Turn = 18.
  01234567890123456789012345678901234567890
0 ..................................r......
1 .........................................
2 .........................................
3 ....................r....................
4 .........................................
5 .........................................
6 ......................................t..
7 .....................t...................
8 .........................................
9 ..............................t..........
0 .........................................
1 .........................................
2 .........................................
3 ........................................h
4 .........................................
5 .........................................
6 r........................................
7 ................................h........
8 .........................................
9 .........................................
0 ......f..................................
1 ...........................t.............
2 .........................................
3 .........................................
4 .........................................
5 .........................................
6 .........................................
7 .........................................
8 .........f...............................
9 ...........r............................h

*** Darwin 11x21 ***
Turn = 0.
  012345678901234567890
0 ...........r..t......
1 .....r.......ft......
2 ...............h....t
3 .....................
4 .....................
5 ..............t......
6 .....................
7 .................f...
8 ......f..............
9 .....................
0 t..................r.

Turn = 5.
  012345678901234567890
0 ..............r.r....
1 ..........r..tt......
2 ...................tt
3 .....................
4 .....................
5 ..............t......
6 .....................
7 .................f...
8 ......f..............
9 .....................
0 t.............r......

Turn = 10.
  012345678901234567890
0 ...................rr
1 ............ttt......
2 ...................tt
3 .....................
4 .....................
5 ..............t......
6 .....................
7 .................f...
8 ......f..............
9 .....................
0 t........r...........

Turn = 15.
  012345678901234567890
0 .....................
1 ............ttt....rr
2 ....................r
3 ...................r.
4 .....................
5 ..............t......
6 .....................
7 .................f...
8 ......f..............
9 .....................
0 t...r................

Turn = 20.
  012345678901234567890
0 ................r...r
1 ............ttt.r....
2 .....................
3 .....................
4 .....................
5 ..............t......
6 .....................
7 .................f...
8 ......f............r.
9 .....................
0 rr...................

Turn = 25.
  012345678901234567890
0 ..............rrr....
1 ............tt.r.....
2 .....................
3 .....................
4 .....................
5 ..............t......
6 .....................
7 .................f...
8 ......f..............
9 .....................
0 r....r..............r

Turn = 30.
  012345678901234567890
0 ..................r..
1 ............ttt......
2 .....................
3 .....................
4 .....................
5 ..............trr...r
6 .....................
7 r................f...
8 ......f..............
9 .....................
0 ..........r..........

Turn = 35.
  012345678901234567890
0 ....................r
1 ............ttt.....r
2 r....................
3 .....................
4 .....................
5 ..............t......
6 .....................
7 .................f...
8 ......f..............
9 .....................
0 ..............rrr....

Turn = 40.
  012345678901234567890
0 ..................r..
1 r...........ttt......
2 .....................
3 .....................
4 .....................
5 ..............t.....r
6 .....................
7 ...............rrf...
8 ......f..............
9 .....................
0 ............r........

Turn = 45.
  012345678901234567890
0 .............r.......
1 ............ttt......
2 ...............rr....
3 .....................
4 .....................
5 ..............t......
6 r....................
7 .................f...
8 ......f..............
9 .....................
0 .......r............r

*** Darwin 24x17 ***
Turn = 0.
  01234567890123456
0 .................
1 .................
2 .................
3 ...........h.....
4 .........h.......
5 ..r..............
6 .................
7 .................
8 .................
9 .................
0 .................
1 .................
2 .................
3 ...........t.....
4 .................
5 .................
6 .................
7 .................
8 ..r...f..........
9 .....r...........
0 .................
1 .................
2 .................
3 .................

Turn = 17.
  01234567890123456
0 .................
1 ..r..............
2 .................
3 ................h
4 ................h
5 .................
6 .................
7 ................r
8 .................
9 .................
0 .................
1 .................
2 .................
3 ...........t.....
4 .................
5 .................
6 .................
7 .................
8 ......f..........
9 r................
0 .................
1 .................
2 .................
3 .................

Turn = 34.
  01234567890123456
0 ................r
1 .................
2 r................
3 ................h
4 ................h
5 .................
6 .................
7 .................
8 .................
9 .................
0 .................
1 .................
2 .................
3 ...........t.....
4 .................
5 .................
6 .................
7 .................
8 ......f..........
9 .................
0 .................
1 .................
2 .................
3 ................r

*** Darwin 27x21 ***
Turn = 0.
  012345678901234567890
0 ............r........
1 ...........f.........
2 .....................
3 .....................
4 .....................
5 .....................
6 .....................
7 .....................
8 .....................
9 .....................
0 .....................
1 ....h................
2 ...h.................
3 .....................
4 .....................
5 .....................
6 .....................
7 .....................
8 .....................
9 .....................
0 .....................
1 .....................
2 .....................
3 .......r.............
4 ...................r.
5 .....................
6 .....................

Turn = 17.
  012345678901234567890
0 .....................
1 ...........f.........
2 .....................
3 .....................
4 .....................
5 .....................
6 .....................
7 .....................
8 .....................
9 .....................
0 .....................
1 .....................
2 ..................r..
3 .....................
4 .....................
5 .....................
6 ............r........
7 .....................
8 .....................
9 .....................
0 .....................
1 .....................
2 .....................
3 .....................
4 ..r..................
5 .....................
6 ....h...............r

*** Darwin 23x36 ***
Turn = 0.
  012345678901234567890123456789012345
0 ...h.........h......................
1 ....................................
2 ....................................
3 .........................t..........
4 ....................................
5 ..t.................................
6 ....................................
7 ....................................
8 ....................................
9 ....................................
0 ....................................
1 ....................................
2 ....................................
3 ....................................
4 ....................................
5 ....................................
6 ....................................
7 ....................................
8 ....................................
9 ...........................r........
0 ...................r................
1 ....................................
2 ....................................

Turn = 15.
  012345678901234567890123456789012345
0 ..................h.........h.......
1 ....................................
2 ....................................
3 .........................t..........
4 ....................................
5 ..t................r................
6 ....................................
7 ....................................
8 ....................................
9 ....................................
0 ....................................
1 ....................................
2 ....................................
3 ....................................
4 ....................................
5 ....................................
6 ....................................
7 ....................................
8 ....................................
9 ............r.......................
0 ....................................
1 ....................................
2 ....................................

*** Darwin 11x8 ***
Turn = 0.
  01234567
0 ...h....
1 ........
2 ....h...
3 ........
4 t..h..t.
5 ........
6 ...h....
7 ........
8 ........
9 ....r...
0 .t......

Turn = 11.
  01234567
0 ........
1 ........
2 ........
3 ........
4 t.....t.
5 t.......
6 .......h
7 ........
8 ........
9 ...h....
0 .t.hh...

Turn = 22.
  01234567
0 ........
1 ........
2 ........
3 ........
4 t.....t.
5 t.......
6 .......h
7 ........
8 ........
9 ...h....
0 .t.hh...

*** Darwin 6x18 ***
Turn = 0.
  012345678901234567
0 ......t...........
1 .............h....
2 .f..........r.....
3 .......t..........
4 .h......t.........
5 ..................

Turn = 3.
  012345678901234567
0 ......t...........
1 ................h.
2 .f................
3 .......t..........
4 ........t.........
5 .h..........r.....

Turn = 6.
  012345678901234567
0 ......t...........
1 .................h
2 .f................
3 .......t..........
4 ........t.........
5 .h........r.......

Turn = 9.
  012345678901234567
0 ......t...........
1 .................h
2 .f................
3 .......t..........
4 ........t.........
5 .h.....r..........

Turn = 12.
  012345678901234567
0 ......t...........
1 .................h
2 .f................
3 .......t..........
4 ........t.........
5 .h..r.............

Turn = 15.
  012345678901234567
0 ......t...........
1 .................h
2 .f................
3 .......t..........
4 ........t.........
5 .rr...............

*** Darwin 20x11 ***
Turn = 0.
  01234567890
0 ........f..
1 ...........
2 ...........
3 ...........
4 ...........
5 ...........
6 .....r.....
7 ...........
8 ...........
9 ....h......
0 t..........
1 ......f....
2 ...........
3 ...........
4 ...........
5 ...........
6 f..........
7 .........f.
8 ...........
9 ...........

Turn = 5.
  01234567890
0 ........f..
1 ...........
2 ...........
3 ...........
4 ...........
5 ...........
6 r..........
7 ...........
8 ...........
9 .........h.
0 t..........
1 ......f....
2 ...........
3 ...........
4 ...........
5 ...........
6 f..........
7 .........f.
8 ...........
9 ...........

Turn = 10.
  01234567890
0 ........f..
1 ...........
2 r..........
3 ...........
4 ...........
5 ...........
6 ...........
7 ...........
8 ...........
9 ..........h
0 t..........
1 ......f....
2 ...........
3 ...........
4 ...........
5 ...........
6 f..........
7 .........f.
8 ...........
9 ...........

Turn = 15.
  01234567890
0 r.......f..
1 ...........
2 ...........
3 ...........
4 ...........
5 ...........
6 ...........
7 ...........
8 ...........
9 ..........h
0 t..........
1 ......f....
2 ...........
3 ...........
4 ...........
5 ...........
6 f..........
7 .........f.
8 ...........
9 ...........

Turn = 20.
  01234567890
0 .....r..f..
1 ...........
2 ...........
3 ...........
4 ...........
5 ...........
6 ...........
7 ...........
8 ...........
9 ..........h
0 t..........
1 ......f....
2 ...........
3 ...........
4 ...........
5 ...........
6 f..........
7 .........f.
8 ...........
9 ...........

Turn = 25.
  01234567890
0 .........rr
1 ...........
2 ...........
3 ...........
4 ...........
5 ...........
6 ...........
7 ...........
8 ...........
9 ..........h
0 t..........
1 ......f....
2 ...........
3 ...........
4 ...........
5 ...........
6 f..........
7 .........f.
8 ...........
9 ...........

Turn = 30.
  01234567890
0 ...........
1 ...........
2 ...........
3 ...........
4 .........r.
5 ..........r
6 ...........
7 ...........
8 ...........
9 ..........h
0 t..........
1 ......f....
2 ...........
3 ...........
4 ...........
5 ...........
6 f..........
7 .........f.
8 ...........
9 ...........

*** Darwin 14x10 ***
Turn = 0.
  0123456789
0 .....t.f..
1 .......h..
2 ..........
3 ..........
4 ..........
5 ..........
6 ....f....r
7 ........h.
8 .....fh...
9 ....r.....
0 tt..f.....
1 .......h..
2 .........f
3 ..........

Turn = 12.
  0123456789
0 .....t.fh.
1 .......h..
2 ..........
3 ..........
4 .........r
5 .........r
6 ..........
7 ..........
8 .....f...h
9 ..........
0 tt..f.....
1 t....r....
2 ..........
3 ......r...

Turn = 24.
  0123456789
0 .....t.fr.
1 .......h.r
2 ..........
3 ..........
4 ..........
5 ..........
6 ..........
7 .........r
8 .....f...h
9 ..........
0 tt..f.....
1 tt........
2 ..........
3 ....r.....

*** Darwin 5x32 ***
Turn = 0.
  01234567890123456789012345678901
0 ................f..........r....
1 ..f..............h......f.......
2 .............f.............r.hr.
3 ...............r......t.........
4 ......................h.....t...

Turn = 19.
  01234567890123456789012345678901
0 .........r...........r...r......
1 ..f....................hf.......
2 .............f..rr..............
3 ......................t.........
4 r................r.....r........

Turn = 38.
  01234567890123456789012345678901
0 ..r.......r.r...................
1 ..f.......r............hf.......
2 .............f..................
3 ....r.................t.........
4 ....r..r....................r...

*** Darwin 30x36 ***
Turn = 0.
  012345678901234567890123456789012345
0 ....................................
1 .................................r..
2 ...................................t
3 ....................................
4 ....................................
5 .....................f..............
6 ....................................
7 ...................h................
8 ....................................
9 .................................f..
0 .f..................................
1 ......................f.........r...
2 ....................................
3 ....................h...............
4 ....................................
5 ....................................
6 ...............................r....
7 ....................................
8 ....................................
9 .t..................................
0 ....................................
1 ....................................
2 ....................................
3 ....................................
4 ..............................r.....
5 ...................rr...............
6 ....................................
7 ....................................
8 ....................................
9 ....................................

Turn = 4.
  012345678901234567890123456789012345
0 ....................................
1 ...................................t
2 ...................................t
3 ....................................
4 ....................................
5 .....................f..............
6 ....................................
7 .......................h............
8 ....................................
9 .................................f..
0 .f..................................
1 ......................f.....r.......
2 ....................................
3 ........................h...........
4 ....................................
5 ....................................
6 ...........................r........
7 ....................................
8 ....................................
9 .t..................................
0 ..............................r.....
1 ....................................
2 ....................................
3 ....................................
4 ....................................
5 ....................................
6 ....................................
7 ....................................
8 ....................................
9 ...................rr...............

Turn = 8.
  012345678901234567890123456789012345
0 ....................................
1 ...................................t
2 ...................................t
3 ....................................
4 ....................................
5 .....................f..............
6 ....................................
7 ...........................h........
8 ....................................
9 .................................f..
0 .f..................................
1 ......................f.r...........
2 ....................................
3 ............................h.......
4 ....................................
5 ....................................
6 .......................r......r.....
7 ....................................
8 ....................................
9 .t..................................
0 ....................................
1 ....................................
2 ....................................
3 ....................................
4 ....................................
5 ....................................
6 ....................................
7 ....................................
8 ....................................
9 ................r......r............

Turn = 12.
  012345678901234567890123456789012345
0 ....................................
1 ...................................t
2 ...................................t
3 ....................................
4 ....................................
5 .....................f..............
6 ....................................
7 ...............................h....
8 ....................................
9 ......................r..........f..
0 .f..................................
1 .....................r..............
2 ..............................r.....
3 ................................h...
4 ....................................
5 ....................................
6 ...................r................
7 ....................................
8 ....................................
9 .t..................................
0 ....................................
1 ....................................
2 ....................................
3 ....................................
4 ....................................
5 ....................................
6 ....................................
7 ....................................
8 ....................................
9 ............r..............r........

Turn = 16.
  012345678901234567890123456789012345
0 ....................................
1 ...................................t
2 ...................................t
3 ....................................
4 ....................................
5 .....................fr.............
6 ....................................
7 ...................................h
8 ..............................r.....
9 .................................f..
0 .f..................................
1 .................r..................
2 ....................................
3 ...................................h
4 ....................................
5 ....................................
6 ...............r....................
7 ....................................
8 ....................................
9 .t..................................
0 ....................................
1 ....................................
2 ....................................
3 ....................................
4 ....................................
5 ....................................
6 ....................................
7 ....................................
8 ....................................
9 ........r......................r....

Turn = 20.
  012345678901234567890123456789012345
0 ....................................
1 ......................r............t
2 ...................................t
3 ....................................
4 ..............................r.....
5 .....................f..............
6 ....................................
7 ...................................h
8 ....................................
9 .................................f..
0 .f..................................
1 .............r......................
2 ....................................
3 ...................................h
4 ....................................
5 ....................................
6 ...........r........................
7 ....................................
8 ....................................
9 .t..................................
0 ....................................
1 ....................................
2 ....................................
3 ....................................
4 ....................................
5 ....................................
6 ....................................
7 ....................................
8 ....................................
9 ....r..............................r

*** Darwin 37x22 ***
Turn = 0.
  0123456789012345678901
0 ......................
1 ......................
2 ......................
3 ......................
4 ......................
5 ......................
6 ......................
7 ......................
8 ......................
9 ......................
0 ......................
1 ......................
2 ......................
3 ......................
4 ......................
5 .....................h
6 ......................
7 ......................
8 ......................
9 ......................
0 ......................
1 ......................
2 ................t.....
3 ......................
4 ....r.................
5 ................t.....
6 ......................
7 ......................
8 ......................
9 ......................
0 ......................
1 ......................
2 ......................
3 ...........r..........
4 ......................
5 ......................
6 ......................

*** Darwin 40x13 ***
Turn = 0.
  0123456789012
0 .............
1 .............
2 .............
3 ....r.....h..
4 .............
5 .............
6 ..........h..
7 .............
8 .............
9 .............
0 .............
1 .............
2 .............
3 .............
4 .............
5 .........t...
6 .............
7 .............
8 .............
9 .............
0 .............
1 .............
2 .............
3 ....f..h.....
4 ..f..........
5 .............
6 .............
7 .h.......r...
8 .............
9 .........r...
0 .............
1 .............
2 .............
3 .r...........
4 .............
5 ......f......
6 .............
7 .............
8 .............
9 ...f.........

Turn = 3.
  0123456789012
0 .............
1 .............
2 .............
3 .............
4 ..........h..
5 ..........h..
6 ....r........
7 .............
8 .............
9 .............
0 .............
1 .............
2 .............
3 .............
4 .............
5 .........t...
6 .............
7 .............
8 .............
9 .............
0 .............
1 .............
2 .............
3 ....fh.......
4 ..f..........
5 .............
6 .............
7 ....h.......r
8 .............
9 ......r......
0 .r...........
1 .............
2 .............
3 .............
4 .............
5 ......f......
6 .............
7 .............
8 .............
9 ...f.........

Turn = 6.
  0123456789012
0 .............
1 .............
2 .............
3 .............
4 ..........h..
5 ..........h..
6 .............
7 .............
8 .............
9 ....r........
0 .............
1 .............
2 .............
3 .............
4 .............
5 .........t...
6 .............
7 .............
8 .............
9 .............
0 .............
1 .............
2 .............
3 ....fh.......
4 ..f..........
5 .............
6 .............
7 .r.....h.....
8 .............
9 ...r........r
0 .............
1 .............
2 .............
3 .............
4 .............
5 ......f......
6 .............
7 .............
8 .............
9 ...f.........

Turn = 9.
  0123456789012
0 .............
1 .............
2 .............
3 .............
4 ..........h..
5 ..........h..
6 .............
7 .............
8 .............
9 .............
0 .............
1 .............
2 ....r........
3 .............
4 .............
5 .........t...
6 .............
7 .............
8 .............
9 .............
0 .............
1 .............
2 .............
3 ....fh.......
4 .rf..........
5 .............
6 .............
7 ..........h..
8 .............
9 r............
0 .............
1 .............
2 ............r
3 .............
4 .............
5 ......f......
6 .............
7 .............
8 .............
9 ...f.........

Turn = 12.
  0123456789012
0 .............
1 .............
2 .............
3 .............
4 ..........h..
5 ..........h..
6 .............
7 .............
8 .............
9 .............
0 .............
1 .............
2 .............
3 .............
4 .............
5 ....r....t...
6 .............
7 .............
8 .............
9 .............
0 .............
1 .r...........
2 .............
3 ....fh.......
4 ..f..........
5 .............
6 .............
7 ............h
8 .............
9 .............
0 .............
1 r............
2 .............
3 .............
4 .............
5 ......f.....r
6 .............
7 .............
8 .............
9 ...f.........

*** Darwin 29x47 ***
Turn = 0.
  01234567890123456789012345678901234567890123456
0 ...............................................
1 ...............................................
2 ...............................................
3 .............................................r.
4 ...............................................
5 ...............................................
6 ...............................................
7 ...............................................
8 .......................................t.......
9 ...............................................
0 ...............................................
1 ...............................................
2 ...............................................
3 ...............................................
4 .......................r.......................
5 ...............................................
6 ...............................................
7 ...............................................
8 ...............................................
9 ...............................................
0 ...............................................
1 ...............................................
2 ...............................................
3 ...............................................
4 ...............................................
5 .........................h.....................
6 ...............................................
7 ............................t..................
8 ...............................................

Turn = 17.
  01234567890123456789012345678901234567890123456
0 ...............................................
1 ...............................................
2 ...............................................
3 ...............................................
4 ...............................................
5 ...............................................
6 ...............................................
7 ...............................................
8 .......................................t.......
9 ...............................................
0 ...............................................
1 ...............................................
2 ...............................................
3 ...............................................
4 ........................................r......
5 ...............................................
6 ...............................................
7 ...............................................
8 ...............................................
9 ...............................................
0 .............................................r.
1 ...............................................
2 ...............................................
3 ...............................................
4 ...............................................
5 ..........................................h....
6 ...............................................
7 ............................t..................
8 ...............................................

*** Darwin 23x43 ***
Turn = 0.
  0123456789012345678901234567890123456789012
0 ...........................................
1 ...........................................
2 ..............h............................
3 ...........................................
4 ...........................................
5 ................................r..........
6 ...........................................
7 ...........................................
8 ...........................................
9 ........r.................................h
0 .t.........................................
1 ...........................................
2 ...........................................
3 ...........................................
4 ...........................................
5 ...........................................
6 ...........................................
7 ...........................................
8 ...........................................
9 ...........................................
0 ...........................................
1 ...........................................
2 .......................r...................

*** Darwin 9x37 ***
Turn = 0.
  0123456789012345678901234567890123456
0 .t............................f......
1 ....................................r
2 ...................h.....t...........
3 .....r.....f.........................
4 .................f...................
5 .....................................
6 ..................f....f.............
7 .......f.............t...............
8 .....................................

*** Darwin 33x34 ***
Turn = 0.
  0123456789012345678901234567890123
0 ..................................
1 ..................................
2 ..................................
3 ..................................
4 ..................................
5 ................r.................
6 ..........t.......................
7 ..................................
8 .................................t
9 ...........................r......
0 ..................................
1 ................h.................
2 ......................t...........
3 ..................................
4 .........f........................
5 ..................................
6 ..................................
7 ..................................
8 ..................................
9 ..................................
0 ..........h.......................
1 .......................f..........
2 ..................................
3 ......tr..........................
4 ..................................
5 ..................................
6 ...t..............................
7 ............f............t........
8 ..................................
9 ..................................
0 ..................................
1 ..................................
2 ..t...............................

Turn = 10.
  0123456789012345678901234567890123
0 ..................................
1 ..................................
2 ..................................
3 ..................................
4 ..................................
5 ..................................
6 ..........t.......................
7 ..................................
8 .................................t
9 .................................t
0 ..........h.......................
1 ..................................
2 ......................t...........
3 ..................................
4 .........f........................
5 ................r.................
6 ..................................
7 ..................................
8 ..................................
9 ..................................
0 ..................................
1 ................h......f..........
2 ..................................
3 ......tt..........................
4 ..................................
5 ..................................
6 ...t..............................
7 ............f............t........
8 ..................................
9 ..................................
0 ..................................
1 ..................................
2 ..t...............................

*** Darwin 17x41 ***
Turn = 0.
  01234567890123456789012345678901234567890
0 .........................................
1 ..............................t..........
2 .........................................
3 .........................................
4 ...r.....................................
5 .........................................
6 ..............t..........................
7 ...................f.....................
8 ..............h..........................
9 .........................................
0 .........................................
1 .............................f...........
2 .................f.......................
3 .........................................
4 .........................................
5 .........................................
6 .........................................

Turn = 14.
  01234567890123456789012345678901234567890
0 .........................................
1 ..............................t..........
2 .........................................
3 .........................................
4 .........................................
5 .........................................
6 ..............t..........................
7 ...................f.....................
8 ............................h............
9 .........................................
0 .........................................
1 .............................f...........
2 .................f.......................
3 .........................................
4 .........................................
5 .........................................
6 ..r......................................

Turn = 28.
  01234567890123456789012345678901234567890
0 .........................................
1 ..............................t..........
2 .........................................
3 .........................................
4 .........................................
5 .........................................
6 ..............t..........................
7 r..................f.....................
8 ........................................h
9 .........................................
0 .........................................
1 .............................f...........
2 .................f.......................
3 .........................................
4 .........................................
5 .........................................
6 .........................................

*** Darwin 24x47 ***
Turn = 0.
  01234567890123456789012345678901234567890123456
0 ...............................................
1 ...............................................
2 ...............................................
3 ...............................................
4 ..............................f................
5 .................t.............................
6 ...............................................
7 ...............................................
8 .......h.......................................
9 ................................ff.............
0 ......r......................r.................
1 ...............................................
2 ...............................................
3 ........................................f......
4 ...............................................
5 ...............................................
6 ...............................................
7 ...............................................
8 .......h.......................................
9 ...............................................
0 ...................f...........................
1 ...............................................
2 ...............................................
3 ...............................................

Turn = 13.
  01234567890123456789012345678901234567890123456
0 ...............................................
1 ...............................................
2 ...............................................
3 ...............................................
4 ..............................f................
5 .................t.............................
6 ...............................................
7 ...............................................
8 ...............................................
9 ................................ff.............
0 ...................r...........................
1 ...............................................
2 .......h.......................................
3 .......h................................f......
4 ...............................................
5 ...............................................
6 ...............................................
7 ...............................................
8 ...............................................
9 ...............................................
0 ...................f...........................
1 ...............................................
2 ...............................................
3 .............................r.................

*** Darwin 48x48 ***
Turn = 0.
  012345678901234567890123456789012345678901234567
0 ................................................
1 ................................................
2 ................................................
3 ................................................
4 ..........................r.....................
5 .........................................t......
6 ................................................
7 ................................................
8 ................................................
9 ...........................t....................
0 ................................................
1 ................................................
2 ................................................
3 ................................................
4 ................................................
5 ................................................
6 ................................................
7 ................................................
8 ................................................
9 ................................................
0 ................................................
1 ................................................
2 ................................................
3 ................................................
4 ..........f.....................................
5 ................................................
6 .........................f......................
7 ................................................
8 ................................................
9 ..............f.................................
0 ..........................r.....................
1 ................................................
2 ..........................................t.....
3 ................................................
4 ................................................
5 ................................................
6 ................................................
7 ................................................
8 ................................................
9 ................................................
0 ................t............................h..
1 ................................................
2 ................................................
3 ................................................
4 ..............................................h.
5 .h........................f.....r...............
6 ................................................
7 ................................................

Turn = 4.
  012345678901234567890123456789012345678901234567
0 ................................................
1 ................................................
2 ................................................
3 ................................................
4 ................................................
5 .........................................t......
6 ................................................
7 ................................................
8 ..........................r.....................
9 ...........................t....................
0 ................................................
1 ................................................
2 ................................................
3 ................................................
4 ................................................
5 ................................................
6 ................................................
7 ................................................
8 ................................................
9 ................................................
0 ................................................
1 ................................................
2 ................................................
3 ................................................
4 ..........f.....................................
5 ................................................
6 .........................f......................
7 ................................................
8 ................................................
9 ..............f.................................
0 ......................r.........................
1 ................................................
2 ..........................................t.....
3 ................................................
4 ................................................
5 ................................................
6 ................................................
7 ................................................
8 ................................................
9 ................................................
0 ................t.............................h.
1 .h..............................................
2 ................................................
3 ................................................
4 .............................................h..
5 ..........................f.....................
6 ................................................
7 ...............................r................

Turn = 8.
  012345678901234567890123456789012345678901234567
0 ................................................
1 ................................................
2 ................................................
3 ................................................
4 ................................................
5 .........................................t......
6 ................................................
7 ................................................
8 ................................................
9 ...........................t....................
0 ................................................
1 ................................................
2 ..........................r.....................
3 ................................................
4 ................................................
5 ................................................
6 ................................................
7 ................................................
8 ................................................
9 ................................................
0 ................................................
1 ................................................
2 ................................................
3 ................................................
4 ..........f.....................................
5 ................................................
6 .........................f......................
7 ................................................
8 ................................................
9 ..............f.................................
0 ..................r.............................
1 ................................................
2 ..........................................t.....
3 ................................................
4 ................................................
5 ................................................
6 ..............................................h.
7 .h..............................................
8 ................................................
9 ................................................
0 ................t...............................
1 ................................................
2 ................................................
3 ................................................
4 ................................................
5 ..........................f.....................
6 ................................................
7 ...........................r.................h..

Turn = 12.
  012345678901234567890123456789012345678901234567
0 ................................................
1 ................................................
2 ................................................
3 ................................................
4 ................................................
5 .........................................t......
6 ................................................
7 ................................................
8 ................................................
9 ...........................t....................
0 ................................................
1 ................................................
2 ................................................
3 ................................................
4 ................................................
5 ................................................
6 ..........................r.....................
7 ................................................
8 ................................................
9 ................................................
0 ................................................
1 ................................................
2 ................................................
3 ................................................
4 ..........f.....................................
5 ................................................
6 .........................f......................
7 ................................................
8 ................................................
9 ..............f.................................
0 ..............r.................................
1 ................................................
2 ..........................................t...h.
3 .h..............................................
4 ................................................
5 ................................................
6 ................................................
7 ................................................
8 ................................................
9 ................................................
0 ................t...............................
1 ................................................
2 ................................................
3 ................................................
4 ................................................
5 ..........................f.....................
6 ................................................
7 .......................r.....................h..

Turn = 16.
  012345678901234567890123456789012345678901234567
0 ................................................
1 ................................................
2 ................................................
3 ................................................
4 ................................................
5 .........................................t......
6 ................................................
7 ................................................
8 ................................................
9 ...........................t....................
0 ................................................
1 ................................................
2 ................................................
3 ................................................
4 ................................................
5 ................................................
6 ................................................
7 ................................................
8 ................................................
9 ................................................
0 ..........................r.....................
1 ................................................
2 ................................................
3 ................................................
4 ..........f.....................................
5 ................................................
6 .........................f......................
7 ................................................
8 ..............................................h.
9 .h............f.................................
0 ..........r.....................................
1 ................................................
2 ..........................................t.....
3 ................................................
4 ................................................
5 ................................................
6 ................................................
7 ................................................
8 ................................................
9 ................................................
0 ................t...............................
1 ................................................
2 ................................................
3 ................................................
4 ................................................
5 ..........................f.....................
6 ................................................
7 ...................r.........................h..

Turn = 20.
  012345678901234567890123456789012345678901234567
0 ................................................
1 ................................................
2 ................................................
3 ................................................
4 ................................................
5 .........................................t......
6 ................................................
7 ................................................
8 ................................................
9 ...........................t....................
0 ................................................
1 ................................................
2 ................................................
3 ................................................
4 ................................................
5 ................................................
6 ................................................
7 ................................................
8 ................................................
9 ................................................
0 ................................................
1 ................................................
2 ................................................
3 ................................................
4 ..........f...............r...................h.
5 .h..............................................
6 .........................f......................
7 ................................................
8 ................................................
9 ..............f.................................
0 ......r.........................................
1 ................................................
2 ..........................................t.....
3 ................................................
4 ................................................
5 ................................................
6 ................................................
7 ................................................
8 ................................................
9 ................................................
0 ................t...............................
1 ................................................
2 ................................................
3 ................................................
4 ................................................
5 ..........................f.....................
6 ................................................
7 ...............r.............................h..

Turn = 24.
  012345678901234567890123456789012345678901234567
0 ................................................
1 ................................................
2 ................................................
3 ................................................
4 ................................................
5 .........................................t......
6 ................................................
7 ................................................
8 ................................................
9 ...........................t....................
0 ................................................
1 ................................................
2 ................................................
3 ................................................
4 ................................................
5 ................................................
6 ................................................
7 ................................................
8 ................................................
9 ................................................
0 ..............................................h.
1 .h..............................................
2 ................................................
3 ................................................
4 ..........f.....................................
5 ................................................
6 .........................f......................
7 ................................................
8 ..........................r.....................
9 ..............f.................................
0 ..r.............................................
1 ................................................
2 ..........................................t.....
3 ................................................
4 ................................................
5 ................................................
6 ................................................
7 ................................................
8 ................................................
9 ................................................
0 ................t...............................
1 ................................................
2 ................................................
3 ................................................
4 ................................................
5 ..........................f.....................
6 ................................................
7 ...........r.................................h..

Turn = 28.
  012345678901234567890123456789012345678901234567
0 ................................................
1 ................................................
2 ................................................
3 ................................................
4 ................................................
5 .........................................t......
6 ................................................
7 ................................................
8 ................................................
9 ...........................t....................
0 ................................................
1 ................................................
2 ................................................
3 ................................................
4 ................................................
5 ................................................
6 ..............................................h.
7 .h..............................................
8 ................................................
9 ................................................
0 ................................................
1 ................................................
2 ................................................
3 ................................................
4 ..........f.....................................
5 ................................................
6 .........................f......................
7 ................................................
8 ................................................
9 ..............f.................................
0 ................................................
1 r...............................................
2 ..........................r...............t.....
3 ................................................
4 ................................................
5 ................................................
6 ................................................
7 ................................................
8 ................................................
9 ................................................
0 ................t...............................
1 ................................................
2 ................................................
3 ................................................
4 ................................................
5 ..........................f.....................
6 ................................................
7 .......r.....................................h..

*** Darwin 34x9 ***
Turn = 0.
  012345678
0 .........
1 .........
2 .........
3 .........
4 .r.......
5 .........
6 .........
7 .........
8 .........
9 .........
0 .........
1 .........
2 .........
3 .........
4 .........
5 .........
6 .........
7 .........
8 ........t
9 .........
0 .........
1 .........
2 .........
3 .........
4 .........
5 .........
6 .........
7 .........
8 .........
9 ...t.....
0 ...t.....
1 .......r.
2 .........
3 .........

Turn = 7.
  012345678
0 r........
1 .........
2 .........
3 .........
4 .........
5 .........
6 .........
7 .........
8 .........
9 .........
0 .........
1 .........
2 .........
3 .........
4 .........
5 .........
6 .........
7 .........
8 ........t
9 .........
0 .........
1 .........
2 .........
3 .........
4 .........
5 .........
6 .........
7 .........
8 .........
9 ...t.....
0 ...t.....
1 .........
2 .........
3 .......r.

Turn = 14.
  012345678
0 .......r.
1 .........
2 .........
3 .........
4 .........
5 .........
6 .........
7 .........
8 .........
9 .........
0 .........
1 .........
2 .........
3 .........
4 .........
5 .........
6 .........
7 .........
8 ........t
9 .........
0 .........
1 .........
2 .........
3 .........
4 .........
5 .........
6 .........
7 .........
8 .........
9 ...t.....
0 ...t.....
1 .........
2 .........
3 r........

Turn = 21.
  012345678
0 ....r....
1 .........
2 .........
3 .........
4 .........
5 .........
6 .........
7 .........
8 .........
9 .........
0 .........
1 .........
2 .........
3 .........
4 .........
5 .........
6 .........
7 .........
8 ........t
9 .........
0 .........
1 .........
2 .........
3 .........
4 .........
5 .........
6 .........
7 r........
8 .........
9 ...t.....
0 ...t.....
1 .........
2 .........
3 .........

Turn = 28.
  012345678
0 .r.......
1 .........
2 .........
3 .........
4 .........
5 .........
6 .........
7 .........
8 .........
9 .........
0 .........
1 .........
2 .........
3 .........
4 .........
5 .........
6 .........
7 .........
8 ........t
9 .........
0 r........
1 .........
2 .........
3 .........
4 .........
5 .........
6 .........
7 .........
8 .........
9 ...t.....
0 ...t.....
1 .........
2 .........
3 .........

Turn = 35.
  012345678
0 ........r
1 .........
2 .........
3 .........
4 .........
5 .........
6 .........
7 .........
8 .........
9 .........
0 .........
1 .........
2 .........
3 r........
4 .........
5 .........
6 .........
7 .........
8 ........t
9 .........
0 .........
1 .........
2 .........
3 .........
4 .........
5 .........
6 .........
7 .........
8 .........
9 ...t.....
0 ...t.....
1 .........
2 .........
3 .........

Turn = 42.
  012345678
0 .........
1 .........
2 ........r
3 .........
4 .........
5 .........
6 r........
7 .........
8 .........
9 .........
0 .........
1 .........
2 .........
3 .........
4 .........
5 .........
6 .........
7 .........
8 ........t
9 .........
0 .........
1 .........
2 .........
3 .........
4 .........
5 .........
6 .........
7 .........
8 .........
9 ...t.....
0 ...t.....
1 .........
2 .........
3 .........
